"","i","estimated_prop_After_Q_b_F_C","estimated_prop_After_mean","estimated_prop_After_median","estimated_prop_After_mode","Q_b_F_C_P_value","mean_P_value","median_P_value","mode_P_value","p_value_Before_Handling","p_value_OriginalData"
"1",1,0.229508196721311,0.302158273381295,0.302158273381295,0.295774647887324,0.032258064516129,0.645161290322581,0.645161290322581,0.451612903225806,0,0.258064516129032
"2",2,0.186666666666667,0.207920792079208,0.21,0.214285714285714,0.806451612903226,0.580645161290323,0.451612903225806,0.032258064516129,0.290322580645161,0.290322580645161
"3",3,0.251497005988024,0.297872340425532,0.297872340425532,0.289655172413793,0.67741935483871,0.838709677419355,0.903225806451613,0.387096774193548,0.0645161290322581,0.0645161290322581
"4",4,0.152727272727273,0.1875,0.192660550458716,0.190909090909091,0,0.387096774193548,0.032258064516129,0.032258064516129,0,0
"5",5,0.208955223880597,0.289655172413793,0.295774647887324,0.295774647887324,0,0.387096774193548,0.193548387096774,0.161290322580645,0,0.451612903225806
"6",6,0.176470588235294,0.173553719008264,0.173553719008264,0.173553719008264,0.193548387096774,0.161290322580645,0,0.129032258064516,0.0645161290322581,0.290322580645161
"7",7,0.177966101694915,0.217616580310881,0.215384615384615,0.215384615384615,0.0967741935483871,0.967741935483871,0.645161290322581,0.774193548387097,0,0.451612903225806
"8",8,0.225806451612903,0.248520710059172,0.251497005988024,0.253012048192771,0.193548387096774,0.967741935483871,0.903225806451613,0.870967741935484,0.0645161290322581,0.806451612903226
"9",9,0.152173913043478,0.1640625,0.1640625,0.168674698795181,0.967741935483871,0.0645161290322581,0.129032258064516,0.967741935483871,0.870967741935484,1
"10",10,0.221052631578947,0.278145695364238,0.278145695364238,0.278145695364238,0.290322580645161,0.387096774193548,0.483870967741935,0.419354838709677,0,0.258064516129032
"11",11,0.21105527638191,0.230769230769231,0.233333333333333,0.235955056179775,0.032258064516129,0.225806451612903,0.032258064516129,0,0.129032258064516,0.129032258064516
"12",12,0.182608695652174,0.221052631578947,0.221052631578947,0.235955056179775,0.741935483870968,0.870967741935484,0.774193548387097,0.32258064516129,0.225806451612903,0.354838709677419
"13",13,0.17004048582996,0.183406113537118,0.184210526315789,0.186666666666667,0.129032258064516,0.290322580645161,0.193548387096774,0.967741935483871,0.612903225806452,0.967741935483871
"14",14,0.1640625,0.214285714285714,0.217616580310881,0.221052631578947,0.645161290322581,0.741935483870968,0.67741935483871,0.32258064516129,0.483870967741935,0
"15",15,0.165354330708661,0.232044198895028,0.24,0.24,0,0.548387096774194,0.129032258064516,0.129032258064516,0,0.032258064516129
"16",16,0.267515923566879,0.311111111111111,0.315789473684211,0.320610687022901,0.419354838709677,1,0.935483870967742,0.32258064516129,0.193548387096774,0.774193548387097
"17",17,0.212121212121212,0.232044198895028,0.232044198895028,0.232044198895028,0.032258064516129,0.354838709677419,0.290322580645161,0.451612903225806,0.419354838709677,0.580645161290323
"18",18,0.199052132701422,0.259259259259259,0.259259259259259,0.259259259259259,0.193548387096774,0.645161290322581,0.580645161290323,0.612903225806452,0,0
"19",19,0.178723404255319,0.25,0.245614035087719,0.269230769230769,0,0.548387096774194,0.32258064516129,0,0,0.0967741935483871
"20",20,0.205882352941176,0.199052132701422,0.199052132701422,0.199052132701422,0.0645161290322581,0.0645161290322581,0.161290322580645,0.0967741935483871,0.0967741935483871,0.290322580645161
"21",21,0.173553719008264,0.172839506172839,0.172839506172839,0.172839506172839,0.32258064516129,0.354838709677419,0.516129032258065,0.258064516129032,0.451612903225806,0.774193548387097
"22",22,0.204878048780488,0.200956937799043,0.200956937799043,0.200956937799043,0,0.903225806451613,0.838709677419355,0.967741935483871,0.935483870967742,0
"23",23,0.145833333333333,0.179487179487179,0.181818181818182,0.184210526315789,0.193548387096774,0.645161290322581,0.451612903225806,0.129032258064516,0.0645161290322581,0.32258064516129
"24",24,0.165354330708661,0.164705882352941,0.164705882352941,0.164705882352941,0.0645161290322581,0.161290322580645,0.0645161290322581,0.0967741935483871,0.0967741935483871,0.32258064516129
"25",25,0.162790697674419,0.178723404255319,0.178723404255319,0.181034482758621,0.516129032258065,0.0967741935483871,0.129032258064516,0.129032258064516,0.0645161290322581,0.967741935483871
"26",26,0.180257510729614,0.221052631578947,0.225806451612903,0.225806451612903,0,0.0645161290322581,0.225806451612903,0.387096774193548,0,0.419354838709677
"27",27,0.191780821917808,0.207920792079208,0.208955223880597,0.212121212121212,0.161290322580645,0.870967741935484,0.741935483870968,0.32258064516129,0.612903225806452,0.419354838709677
"28",28,0.1640625,0.1640625,0.1640625,0.1640625,0.548387096774194,0.67741935483871,0.645161290322581,0.67741935483871,0.709677419354839,0.806451612903226
"29",29,0.216494845360825,0.28,0.28,0.285714285714286,0.032258064516129,0.32258064516129,0.451612903225806,0.419354838709677,0,0.290322580645161
"30",30,0.207920792079208,0.254545454545455,0.257668711656442,0.257668711656442,0.741935483870968,0.516129032258065,0.645161290322581,0.774193548387097,0.387096774193548,0.0967741935483871
"31",31,0.204878048780488,0.238636363636364,0.238636363636364,0.238636363636364,0.0645161290322581,0.67741935483871,0.806451612903226,0.806451612903226,0.0967741935483871,0.387096774193548
"32",32,0.224598930481283,0.242774566473988,0.242774566473988,0.247058823529412,0.967741935483871,0.290322580645161,0.290322580645161,0.129032258064516,0.483870967741935,0.129032258064516
"33",33,0.193548387096774,0.251497005988024,0.254545454545455,0.242774566473988,0,0.32258064516129,0.0967741935483871,0.161290322580645,0,0.129032258064516
"34",34,0.170731707317073,0.230769230769231,0.230769230769231,0.225806451612903,0,0.290322580645161,0.451612903225806,0.193548387096774,0.32258064516129,0.161290322580645
"35",35,0.176470588235294,0.174273858921162,0.174273858921162,0.174273858921162,0,0.935483870967742,0.935483870967742,0.903225806451613,0.967741935483871,0
"36",36,0.190909090909091,0.201923076923077,0.201923076923077,0.201923076923077,0.741935483870968,0.548387096774194,0.612903225806452,0.612903225806452,0.354838709677419,0.838709677419355
"37",37,0.215384615384615,0.2625,0.265822784810127,0.259259259259259,0,0.838709677419355,0.774193548387097,0.67741935483871,0,0.161290322580645
"38",38,0.215384615384615,0.24,0.241379310344828,0.248520710059172,0.0645161290322581,0.806451612903226,0.612903225806452,0.0645161290322581,0.032258064516129,0.419354838709677
"39",39,0.171428571428571,0.181818181818182,0.181818181818182,0.184210526315789,0.258064516129032,0.806451612903226,0.806451612903226,0.645161290322581,0.258064516129032,0.419354838709677
"40",40,0.222222222222222,0.244186046511628,0.247058823529412,0.248520710059172,0,0.0645161290322581,0.0967741935483871,0.032258064516129,0,0.032258064516129
"41",41,0.208955223880597,0.270967741935484,0.265822784810127,0.25609756097561,0.354838709677419,0.645161290322581,0.741935483870968,0.0967741935483871,0.129032258064516,0
"42",42,0.162790697674419,0.172839506172839,0.173553719008264,0.177215189873418,0.193548387096774,0.548387096774194,0.483870967741935,0.193548387096774,0.838709677419355,0.193548387096774
"43",43,0.153846153846154,0.168,0.169354838709677,0.170731707317073,0.032258064516129,0.225806451612903,0.387096774193548,0.129032258064516,0.935483870967742,0.129032258064516
"44",44,0.143344709897611,0.185022026431718,0.186666666666667,0.188340807174888,0.741935483870968,0.903225806451613,0.838709677419355,0.451612903225806,0.0645161290322581,0.387096774193548
"45",45,0.153284671532847,0.153846153846154,0.153846153846154,0.153846153846154,0.0645161290322581,0.0645161290322581,0,0,0.0967741935483871,0.32258064516129
"46",46,0.213197969543147,0.228260869565217,0.228260869565217,0.233333333333333,0.258064516129032,0.580645161290323,0.67741935483871,0.806451612903226,0.451612903225806,0.870967741935484
"47",47,0.206896551724138,0.221052631578947,0.222222222222222,0.222222222222222,1,0.258064516129032,0.0967741935483871,0.032258064516129,0.387096774193548,0.0967741935483871
"48",48,0.160919540229885,0.157894736842105,0.157894736842105,0.157894736842105,0.645161290322581,0.483870967741935,0.419354838709677,0.354838709677419,0.258064516129032,1
"49",49,0.207920792079208,0.232044198895028,0.230769230769231,0.238636363636364,0,0.129032258064516,0.258064516129032,0.161290322580645,0,0.0967741935483871
"50",50,0.163424124513619,0.176470588235294,0.178723404255319,0.181818181818182,0.0967741935483871,0.0967741935483871,0.129032258064516,0.129032258064516,0.032258064516129,0.0645161290322581
"51",51,0.148936170212766,0.181034482758621,0.184210526315789,0.184210526315789,0.290322580645161,0.612903225806452,0.0645161290322581,0.032258064516129,0.161290322580645,0.354838709677419
"52",52,0.238636363636364,0.302158273381295,0.306569343065693,0.302158273381295,0.032258064516129,0.903225806451613,0.967741935483871,0.903225806451613,0,0.612903225806452
"53",53,0.151079136690647,0.162790697674419,0.1640625,0.164705882352941,0.193548387096774,0.0645161290322581,0,0,0.0645161290322581,0
"54",54,0.206896551724138,0.227027027027027,0.228260869565217,0.228260869565217,0.32258064516129,0.67741935483871,0.838709677419355,0.741935483870968,0.161290322580645,0.903225806451613
"55",55,0.182608695652174,0.200956937799043,0.202898550724638,0.205882352941176,0.419354838709677,0.225806451612903,0.967741935483871,0.612903225806452,1,0.774193548387097
"56",56,0.204878048780488,0.223404255319149,0.222222222222222,0.222222222222222,0.516129032258065,0.967741935483871,0.612903225806452,0.709677419354839,0.0645161290322581,0.741935483870968
"57",57,0.196261682242991,0.216494845360825,0.217616580310881,0.216494845360825,0.451612903225806,0.0967741935483871,0.193548387096774,0.0645161290322581,0.0967741935483871,0.193548387096774
"58",58,0.15,0.189189189189189,0.192660550458716,0.19811320754717,0.193548387096774,0.258064516129032,0.0645161290322581,0,0.129032258064516,0.032258064516129
"59",59,0.194444444444444,0.229508196721311,0.23463687150838,0.232044198895028,0.032258064516129,0.774193548387097,0.516129032258065,0.67741935483871,0,0.0645161290322581
"60",60,0.188340807174888,0.205882352941176,0.206896551724138,0.206896551724138,0.903225806451613,0.32258064516129,0.258064516129032,0.161290322580645,0.129032258064516,0.258064516129032
"61",61,0.194444444444444,0.242774566473988,0.24,0.248520710059172,0.0645161290322581,0.387096774193548,0.32258064516129,0.032258064516129,0.032258064516129,0.290322580645161
"62",62,0.160919540229885,0.175,0.175732217573222,0.174273858921162,0.161290322580645,0.548387096774194,0.645161290322581,0.516129032258065,0.451612903225806,0.290322580645161
"63",63,0.191780821917808,0.227027027027027,0.227027027027027,0.224598930481283,0.290322580645161,0.419354838709677,0.419354838709677,0.354838709677419,0,0.193548387096774
"64",64,0.189189189189189,0.202898550724638,0.202898550724638,0.205882352941176,0.161290322580645,0.225806451612903,0.161290322580645,0.129032258064516,0.645161290322581,0.225806451612903
"65",65,0.200956937799043,0.19811320754717,0.19811320754717,0.19811320754717,0.290322580645161,0.32258064516129,0.32258064516129,0.290322580645161,0.290322580645161,0.290322580645161
"66",66,0.222222222222222,0.28,0.28,0.295774647887324,0.032258064516129,0.161290322580645,0.193548387096774,0.0967741935483871,0,0.290322580645161
"67",67,0.186666666666667,0.199052132701422,0.199052132701422,0.201923076923077,0.935483870967742,0.516129032258065,0.580645161290323,0.806451612903226,0.548387096774194,0.935483870967742
"68",68,0.199052132701422,0.223404255319149,0.225806451612903,0.225806451612903,0.387096774193548,0,0,0,0.354838709677419,0.870967741935484
"69",69,0.154981549815498,0.170731707317073,0.173553719008264,0.176470588235294,0,0.0967741935483871,0.032258064516129,0.032258064516129,0,0
"70",70,0.157303370786517,0.155555555555556,0.155555555555556,0.155555555555556,0.354838709677419,0.225806451612903,0.161290322580645,0.290322580645161,0.258064516129032,0.806451612903226
"71",71,0.146341463414634,0.146853146853147,0.146853146853147,0.146853146853147,0.225806451612903,0.258064516129032,0.129032258064516,0.129032258064516,0.225806451612903,0.354838709677419
"72",72,0.206896551724138,0.233333333333333,0.23728813559322,0.24,0.967741935483871,0,0,0,0.709677419354839,0
"73",73,0.188340807174888,0.202898550724638,0.204878048780488,0.205882352941176,0.0967741935483871,1,0.935483870967742,0.548387096774194,0.483870967741935,0.580645161290323
"74",74,0.188340807174888,0.204878048780488,0.204878048780488,0.200956937799043,0.225806451612903,0.774193548387097,0.645161290322581,0.67741935483871,0.161290322580645,0.709677419354839
"75",75,0.1640625,0.205882352941176,0.205882352941176,0.205882352941176,0.0967741935483871,0.580645161290323,0.612903225806452,0.548387096774194,0.387096774193548,0.838709677419355
"76",76,0.23463687150838,0.260869565217391,0.2625,0.270967741935484,0,0.258064516129032,0.258064516129032,0.032258064516129,0,0.258064516129032
"77",77,0.194444444444444,0.230769230769231,0.230769230769231,0.225806451612903,0.129032258064516,0.032258064516129,0,0.451612903225806,0.032258064516129,0
"78",78,0.206896551724138,0.297872340425532,0.304347826086957,0.318181818181818,0,0.935483870967742,0.612903225806452,0.967741935483871,0,0.032258064516129
"79",79,0.203883495145631,0.224598930481283,0.224598930481283,0.230769230769231,0.193548387096774,0.612903225806452,0.451612903225806,0.0967741935483871,0.0967741935483871,0.225806451612903
"80",80,0.228260869565217,0.244186046511628,0.244186046511628,0.24,0.838709677419355,0.580645161290323,0.645161290322581,0.387096774193548,0.516129032258065,0.645161290322581
"81",81,0.224598930481283,0.311111111111111,0.311111111111111,0.318181818181818,0.0967741935483871,0.483870967741935,0.387096774193548,0.225806451612903,0.032258064516129,0.838709677419355
"82",82,0.23463687150838,0.254545454545455,0.25609756097561,0.259259259259259,0.258064516129032,0.451612903225806,0.548387096774194,0.161290322580645,0.0645161290322581,0.451612903225806
"83",83,0.172131147540984,0.28,0.28,0.28,0.0967741935483871,0.129032258064516,0.32258064516129,0.193548387096774,0.032258064516129,0
"84",84,0.201923076923077,0.223404255319149,0.224598930481283,0.230769230769231,0.161290322580645,0.645161290322581,0.612903225806452,0.193548387096774,0.032258064516129,0.516129032258065
"85",85,0.215384615384615,0.247058823529412,0.25,0.254545454545455,0.935483870967742,0.032258064516129,0.032258064516129,0,0.516129032258065,0
"86",86,0.19811320754717,0.281879194630872,0.281879194630872,0.287671232876712,0,0.806451612903226,0.806451612903226,0.838709677419355,0,0
"87",87,0.169354838709677,0.202898550724638,0.204878048780488,0.21105527638191,0.548387096774194,0.0645161290322581,0.032258064516129,0.419354838709677,0.419354838709677,0
"88",88,0.197183098591549,0.241379310344828,0.241379310344828,0.241379310344828,0,0.258064516129032,0.483870967741935,0.548387096774194,0.516129032258065,0.451612903225806
"89",89,0.2,0.222222222222222,0.223404255319149,0.228260869565217,1,0.903225806451613,0.838709677419355,0.483870967741935,0.387096774193548,0.580645161290323
"90",90,0.155555555555556,0.197183098591549,0.200956937799043,0.199052132701422,0.032258064516129,0.032258064516129,0,0,0,0.032258064516129
"91",91,0.155555555555556,0.165354330708661,0.1640625,0.1640625,0.225806451612903,0.516129032258065,0.483870967741935,0.32258064516129,0.451612903225806,0.354838709677419
"92",92,0.185840707964602,0.185840707964602,0.185840707964602,0.185840707964602,0.032258064516129,0.032258064516129,0,0,0,0
"93",93,0.157894736842105,0.170731707317073,0.172839506172839,0.168674698795181,0.290322580645161,0.838709677419355,0.580645161290323,0.935483870967742,0.161290322580645,0.612903225806452
"94",94,0.215384615384615,0.241379310344828,0.241379310344828,0.247058823529412,0.258064516129032,0.0967741935483871,0.0645161290322581,0.903225806451613,0,1
"95",95,0.135483870967742,0.144827586206897,0.145833333333333,0.150537634408602,0.225806451612903,0.709677419354839,0.548387096774194,0.258064516129032,0.258064516129032,0.354838709677419
"96",96,0.204878048780488,0.223404255319149,0.224598930481283,0.228260869565217,0.838709677419355,0.290322580645161,0.225806451612903,0.67741935483871,0.290322580645161,0.645161290322581
"97",97,0.200956937799043,0.21875,0.21875,0.221052631578947,0.838709677419355,1,0.967741935483871,1,0.741935483870968,0.645161290322581
"98",98,0.182608695652174,0.195348837209302,0.195348837209302,0.19811320754717,0.548387096774194,0.258064516129032,0.290322580645161,0.935483870967742,0,0.774193548387097
"99",99,0.162790697674419,0.224598930481283,0.224598930481283,0.215384615384615,0,0.387096774193548,0.387096774193548,0.193548387096774,0.193548387096774,0
"100",100,0.200956937799043,0.221052631578947,0.222222222222222,0.222222222222222,0.290322580645161,0.129032258064516,0,0,0.193548387096774,0.967741935483871
"101",101,0.176470588235294,0.195348837209302,0.197183098591549,0.197183098591549,0,0.193548387096774,0.032258064516129,0.0967741935483871,0,0.032258064516129
"102",102,0.185840707964602,0.203883495145631,0.205882352941176,0.200956937799043,0.032258064516129,1,0.967741935483871,1,0.67741935483871,0.935483870967742
"103",103,0.13166144200627,0.151079136690647,0.151079136690647,0.151079136690647,0.290322580645161,0.645161290322581,0.451612903225806,0.548387096774194,0.32258064516129,0.645161290322581
"104",104,0.191780821917808,0.190909090909091,0.190909090909091,0.190909090909091,0.419354838709677,0.225806451612903,0.258064516129032,0.32258064516129,0.258064516129032,0.258064516129032
"105",105,0.183406113537118,0.247058823529412,0.247058823529412,0.247058823529412,0,0.838709677419355,0.870967741935484,0.838709677419355,0.225806451612903,0.387096774193548
"106",106,0.175732217573222,0.172839506172839,0.172839506172839,0.172839506172839,0.0645161290322581,0.032258064516129,0,0.0645161290322581,0.0967741935483871,0.129032258064516
"107",107,0.153846153846154,0.168674698795181,0.170731707317073,0.172131147540984,0.67741935483871,0,0.935483870967742,0.903225806451613,0.193548387096774,0.806451612903226
"108",108,0.144329896907216,0.156716417910448,0.159695817490494,0.161538461538462,0.161290322580645,0,0.387096774193548,0.354838709677419,0.258064516129032,0.483870967741935
"109",109,0.171428571428571,0.183406113537118,0.184210526315789,0.181818181818182,0.225806451612903,0.387096774193548,0.451612903225806,0.290322580645161,1,0.290322580645161
"110",110,0.177215189873418,0.191780821917808,0.191780821917808,0.19811320754717,0.0645161290322581,0.870967741935484,0.903225806451613,0.193548387096774,0.032258064516129,0.709677419354839
"111",111,0.224598930481283,0.247058823529412,0.248520710059172,0.253012048192771,0.645161290322581,0.161290322580645,0.193548387096774,0.258064516129032,0.032258064516129,0.580645161290323
"112",112,0.197183098591549,0.227027027027027,0.227027027027027,0.229508196721311,0.0967741935483871,0.967741935483871,0.935483870967742,0.935483870967742,0.0645161290322581,0.741935483870968
"113",113,0.1875,0.203883495145631,0.203883495145631,0.21,0.290322580645161,0.709677419354839,0.806451612903226,0.516129032258065,0.935483870967742,0.903225806451613
"114",114,0.143835616438356,0.180257510729614,0.185022026431718,0.178723404255319,0,0.548387096774194,0.32258064516129,0.67741935483871,0,0.032258064516129
"115",115,0.185840707964602,0.225806451612903,0.230769230769231,0.233333333333333,0.741935483870968,0.129032258064516,0.0645161290322581,0.258064516129032,0.354838709677419,0.032258064516129
"116",116,0.204878048780488,0.222222222222222,0.221052631578947,0.219895287958115,0.161290322580645,0.612903225806452,0.645161290322581,0.709677419354839,0.193548387096774,0.419354838709677
"117",117,0.21105527638191,0.228260869565217,0.229508196721311,0.232044198895028,0.387096774193548,1,0.935483870967742,0.516129032258065,0.129032258064516,0.741935483870968
"118",118,0.14,0.140468227424749,0.140468227424749,0.140468227424749,0.032258064516129,0.032258064516129,0,0,0,0.0967741935483871
"119",119,0.199052132701422,0.216494845360825,0.215384615384615,0.215384615384615,0.0967741935483871,0.548387096774194,0.548387096774194,0.774193548387097,0.161290322580645,0.645161290322581
"120",120,0.163424124513619,0.177966101694915,0.179487179487179,0.180257510729614,0.419354838709677,0.612903225806452,0.612903225806452,0.741935483870968,0.129032258064516,0.774193548387097
"121",121,0.207920792079208,0.254545454545455,0.257668711656442,0.260869565217391,0.161290322580645,0.774193548387097,0.709677419354839,0.774193548387097,0,0.193548387096774
"122",122,0.151624548736462,0.253012048192771,0.265822784810127,0.265822784810127,0.741935483870968,0.870967741935484,0.161290322580645,0.0645161290322581,0.870967741935484,0.935483870967742
"123",123,0.2,0.221052631578947,0.224598930481283,0.224598930481283,0.129032258064516,0,0,0,0.193548387096774,0
"124",124,0.179487179487179,0.194444444444444,0.194444444444444,0.193548387096774,0.32258064516129,0.032258064516129,0.225806451612903,0.0967741935483871,0.032258064516129,0.935483870967742
"125",125,0.202898550724638,0.223404255319149,0.224598930481283,0.227027027027027,0.129032258064516,0.903225806451613,0.516129032258065,0.67741935483871,0.0645161290322581,0.612903225806452
"126",126,0.184210526315789,0.181034482758621,0.181034482758621,0.181034482758621,0.193548387096774,0.67741935483871,0.709677419354839,0.580645161290323,0.903225806451613,0.129032258064516
"127",127,0.181818181818182,0.19811320754717,0.2,0.2,0,0.0967741935483871,0,0.0967741935483871,0.548387096774194,0
"128",128,0.181034482758621,0.195348837209302,0.196261682242991,0.19811320754717,0.225806451612903,0.419354838709677,0.193548387096774,0.774193548387097,0.354838709677419,0.806451612903226
"129",129,0.183406113537118,0.180257510729614,0.180257510729614,0.180257510729614,0.0645161290322581,0.258064516129032,0.290322580645161,0.258064516129032,0.193548387096774,0.419354838709677
"130",130,0.21875,0.276315789473684,0.28,0.291666666666667,0,0.258064516129032,0.290322580645161,0.0645161290322581,0.903225806451613,0.032258064516129
"131",131,0.166666666666667,0.168,0.168,0.168,0.0645161290322581,0.645161290322581,0.645161290322581,0.67741935483871,0.741935483870968,0
"132",132,0.149466192170818,0.181818181818182,0.180257510729614,0.17004048582996,0.161290322580645,0.935483870967742,0.548387096774194,0.258064516129032,0.0967741935483871,0.870967741935484
"133",133,0.16030534351145,0.173553719008264,0.175,0.181034482758621,0.483870967741935,0.903225806451613,0.967741935483871,0.225806451612903,0.225806451612903,0.741935483870968
"134",134,0.168,0.183406113537118,0.185840707964602,0.1875,0,0.225806451612903,0.129032258064516,0.129032258064516,0.645161290322581,0.193548387096774
"135",135,0.165354330708661,0.162790697674419,0.162790697674419,0.162790697674419,0,0.0645161290322581,0.258064516129032,0.161290322580645,0.129032258064516,0.032258064516129
"136",136,0.21105527638191,0.207920792079208,0.207920792079208,0.207920792079208,0.838709677419355,0.67741935483871,0.645161290322581,0.67741935483871,0.774193548387097,0.903225806451613
"137",137,0.177966101694915,0.21875,0.221052631578947,0.223404255319149,0.548387096774194,0.967741935483871,0.32258064516129,0.548387096774194,0,0.709677419354839
"138",138,0.196261682242991,0.257668711656442,0.264150943396226,0.245614035087719,0.032258064516129,0.806451612903226,0.483870967741935,0.193548387096774,0,0.387096774193548
"139",139,0.166666666666667,0.180257510729614,0.181034482758621,0.183406113537118,0.967741935483871,0.516129032258065,0.548387096774194,0.612903225806452,0.129032258064516,0.709677419354839
"140",140,0.212121212121212,0.274509803921569,0.281879194630872,0.285714285714286,0,0.806451612903226,0.258064516129032,0.161290322580645,0,0.032258064516129
"141",141,0.180257510729614,0.196261682242991,0.196261682242991,0.190909090909091,0,0.741935483870968,0.709677419354839,0.548387096774194,0.709677419354839,0.548387096774194
"142",142,0.184210526315789,0.227027027027027,0.229508196721311,0.24,0.129032258064516,0.129032258064516,0.0967741935483871,0,0.032258064516129,0.290322580645161
"143",143,0.190045248868778,0.213197969543147,0.214285714285714,0.215384615384615,0.129032258064516,1,0.967741935483871,0.67741935483871,0.32258064516129,0.612903225806452
"144",144,0.182608695652174,0.270967741935484,0.276315789473684,0.276315789473684,0,0.580645161290323,0.419354838709677,0.548387096774194,0,0
"145",145,0.169354838709677,0.195348837209302,0.193548387096774,0.193548387096774,0.161290322580645,0.580645161290323,0.741935483870968,0.806451612903226,0.129032258064516,0.225806451612903
"146",146,0.201923076923077,0.221052631578947,0.222222222222222,0.224598930481283,0.225806451612903,0.935483870967742,0.774193548387097,0.32258064516129,0.0967741935483871,0.290322580645161
"147",147,0.2,0.248520710059172,0.251497005988024,0.251497005988024,0.161290322580645,0.387096774193548,0.032258064516129,0.032258064516129,0.193548387096774,0.032258064516129
"148",148,0.16600790513834,0.208955223880597,0.208955223880597,0.202898550724638,0.258064516129032,0.580645161290323,0.451612903225806,0.290322580645161,0.193548387096774,0.548387096774194
"149",149,0.216494845360825,0.242774566473988,0.242774566473988,0.25,0.838709677419355,0.354838709677419,0.516129032258065,0.193548387096774,0.225806451612903,0.354838709677419
"150",150,0.170731707317073,0.17004048582996,0.17004048582996,0.17004048582996,0.0645161290322581,0.032258064516129,0.0645161290322581,0,0,0.193548387096774
"151",151,0.189189189189189,0.207920792079208,0.21,0.215384615384615,0.354838709677419,0.032258064516129,0,0.709677419354839,0.0967741935483871,0.032258064516129
"152",152,0.224598930481283,0.293706293706294,0.293706293706294,0.293706293706294,0.580645161290323,0.032258064516129,0.193548387096774,0.193548387096774,0.483870967741935,0.967741935483871
"153",153,0.172131147540984,0.170731707317073,0.170731707317073,0.170731707317073,0.483870967741935,0.161290322580645,0.129032258064516,0.129032258064516,0.354838709677419,0.419354838709677
"154",154,0.21875,0.259259259259259,0.2625,0.265822784810127,0,0.258064516129032,0.129032258064516,0.0967741935483871,0.32258064516129,0.774193548387097
"155",155,0.174273858921162,0.1875,0.188340807174888,0.189189189189189,0.129032258064516,0.870967741935484,0.903225806451613,0.870967741935484,0.870967741935484,0.612903225806452
"156",156,0.172131147540984,0.170731707317073,0.170731707317073,0.170731707317073,0.516129032258065,0.419354838709677,0.548387096774194,0.612903225806452,0.516129032258065,0.451612903225806
"157",157,0.190045248868778,0.245614035087719,0.245614035087719,0.23728813559322,0.387096774193548,0.903225806451613,0.870967741935484,0.645161290322581,0.129032258064516,0.645161290322581
"158",158,0.217616580310881,0.23728813559322,0.23728813559322,0.24,0,0.580645161290323,0.612903225806452,0.516129032258065,0.903225806451613,0.258064516129032
"159",159,0.206896551724138,0.223404255319149,0.223404255319149,0.223404255319149,0.870967741935484,1,1,0.935483870967742,0.419354838709677,1
"160",160,0.206896551724138,0.276315789473684,0.276315789473684,0.276315789473684,0,0.129032258064516,0.258064516129032,0.258064516129032,0,0.225806451612903
"161",161,0.171428571428571,0.217616580310881,0.214285714285714,0.214285714285714,0.612903225806452,0.838709677419355,0.774193548387097,0.645161290322581,0.032258064516129,0.0967741935483871
"162",162,0.174273858921162,0.208955223880597,0.21105527638191,0.200956937799043,0.129032258064516,0.967741935483871,1,0.774193548387097,0.419354838709677,0.32258064516129
"163",163,0.174273858921162,0.21875,0.216494845360825,0.216494845360825,0.0645161290322581,0.290322580645161,0.32258064516129,0.225806451612903,0.129032258064516,0.580645161290323
"164",164,0.163424124513619,0.162790697674419,0.162790697674419,0.162790697674419,0.032258064516129,0,0.0645161290322581,0,0,0.0645161290322581
"165",165,0.173553719008264,0.227027027027027,0.227027027027027,0.217616580310881,0.032258064516129,0.225806451612903,0.32258064516129,0.483870967741935,0,0.32258064516129
"166",166,0.204878048780488,0.25,0.25,0.265822784810127,0,0.838709677419355,0.774193548387097,0.483870967741935,0.645161290322581,0.32258064516129
"167",167,0.199052132701422,0.21875,0.219895287958115,0.223404255319149,0.32258064516129,0.741935483870968,0.838709677419355,0.258064516129032,0.967741935483871,0.419354838709677
"168",168,0.224598930481283,0.248520710059172,0.248520710059172,0.248520710059172,0.774193548387097,0.548387096774194,0.645161290322581,0.806451612903226,0,0.870967741935484
"169",169,0.17004048582996,0.17004048582996,0.17004048582996,0.17004048582996,0.290322580645161,0.32258064516129,0.225806451612903,0.161290322580645,0.32258064516129,0.419354838709677
"170",170,0.197183098591549,0.212121212121212,0.212121212121212,0.206896551724138,0.258064516129032,0.903225806451613,0.709677419354839,0.935483870967742,0.032258064516129,0.612903225806452
"171",171,0.219895287958115,0.241379310344828,0.241379310344828,0.242774566473988,0.225806451612903,1,1,0.870967741935484,0.0645161290322581,0.645161290322581
"172",172,0.156716417910448,0.186666666666667,0.190045248868778,0.191780821917808,0.387096774193548,0.903225806451613,0.354838709677419,0.129032258064516,0.258064516129032,0.870967741935484
"173",173,0.191780821917808,0.248520710059172,0.251497005988024,0.257668711656442,0.290322580645161,0.967741935483871,0.483870967741935,0.580645161290323,0.258064516129032,0.032258064516129
"174",174,0.203883495145631,0.224598930481283,0.225806451612903,0.229508196721311,0.0645161290322581,0.0645161290322581,0.967741935483871,0.645161290322581,0.612903225806452,0.838709677419355
"175",175,0.181818181818182,0.216494845360825,0.221052631578947,0.223404255319149,0.419354838709677,0.548387096774194,0.0645161290322581,0.129032258064516,0.0967741935483871,0.419354838709677
"176",176,0.178723404255319,0.195348837209302,0.197183098591549,0.19811320754717,0.258064516129032,0.451612903225806,0.354838709677419,0.193548387096774,0.032258064516129,0.32258064516129
"177",177,0.173553719008264,0.205882352941176,0.21,0.21,0.548387096774194,0.838709677419355,0.258064516129032,0.387096774193548,0.354838709677419,0.967741935483871
"178",178,0.259259259259259,0.285714285714286,0.285714285714286,0.293706293706294,0.0967741935483871,0.354838709677419,0.387096774193548,0.419354838709677,0.548387096774194,0.903225806451613
"179",179,0.199052132701422,0.213197969543147,0.214285714285714,0.214285714285714,0.612903225806452,0.870967741935484,0.516129032258065,0.32258064516129,0.129032258064516,0.838709677419355
"180",180,0.186666666666667,0.2,0.2,0.203883495145631,0.806451612903226,0.645161290322581,0.806451612903226,0.32258064516129,0.258064516129032,0.354838709677419
"181",181,0.176470588235294,0.194444444444444,0.194444444444444,0.201923076923077,0.709677419354839,0.129032258064516,0.193548387096774,0.548387096774194,0.838709677419355,0.451612903225806
"182",182,0.171428571428571,0.216494845360825,0.21875,0.221052631578947,0,0.354838709677419,0.161290322580645,0.0645161290322581,0.258064516129032,0
"183",183,0.152173913043478,0.165354330708661,0.166666666666667,0.162790697674419,0.193548387096774,0.645161290322581,0.225806451612903,0.483870967741935,0.419354838709677,0.806451612903226
"184",184,0.166666666666667,0.203883495145631,0.207920792079208,0.19811320754717,0.032258064516129,0.193548387096774,0.161290322580645,0.032258064516129,0.032258064516129,0.161290322580645
"185",185,0.217616580310881,0.276315789473684,0.28,0.295774647887324,0.451612903225806,0,0,0.419354838709677,0.258064516129032,0.645161290322581
"186",186,0.221052631578947,0.28,0.285714285714286,0.274509803921569,0.645161290322581,0.709677419354839,0.580645161290323,0.612903225806452,0,0.0967741935483871
"187",187,0.228260869565217,0.25,0.25,0.25,0.774193548387097,0.580645161290323,0.451612903225806,0.419354838709677,0.0645161290322581,0.193548387096774
"188",188,0.213197969543147,0.230769230769231,0.232044198895028,0.229508196721311,1,0.129032258064516,0.32258064516129,0.225806451612903,0.580645161290323,0.129032258064516
"189",189,0.144329896907216,0.156716417910448,0.157894736842105,0.157303370786517,0,0.032258064516129,0,0.032258064516129,0.290322580645161,0.0645161290322581
"190",190,0.17004048582996,0.169354838709677,0.169354838709677,0.169354838709677,0.225806451612903,0.387096774193548,0.548387096774194,0.387096774193548,0.290322580645161,0.483870967741935
"191",191,0.1875,0.276315789473684,0.276315789473684,0.283783783783784,0.225806451612903,0.741935483870968,0.806451612903226,0.709677419354839,0,0.129032258064516
"192",192,0.212121212121212,0.257668711656442,0.260869565217391,0.267515923566879,0.0967741935483871,0.67741935483871,0.32258064516129,0.290322580645161,0.806451612903226,0.935483870967742
"193",193,0.167330677290837,0.191780821917808,0.191780821917808,0.191780821917808,0.0967741935483871,0.838709677419355,0.903225806451613,0.870967741935484,0.419354838709677,0.645161290322581
"194",194,0.143344709897611,0.180257510729614,0.177966101694915,0.175732217573222,0.0645161290322581,0.967741935483871,0.67741935483871,0.483870967741935,0.483870967741935,0.161290322580645
"195",195,0.193548387096774,0.223404255319149,0.224598930481283,0.229508196721311,0,0.161290322580645,0.0645161290322581,0,0.741935483870968,0.032258064516129
"196",196,0.159090909090909,0.201923076923077,0.201923076923077,0.217616580310881,0.290322580645161,0.774193548387097,0.903225806451613,0.32258064516129,0,0.290322580645161
"197",197,0.208955223880597,0.228260869565217,0.230769230769231,0.230769230769231,0.161290322580645,0.903225806451613,0.838709677419355,0.774193548387097,0.032258064516129,0.870967741935484
"198",198,0.188340807174888,0.186666666666667,0.186666666666667,0.186666666666667,0.0967741935483871,0.0967741935483871,0.258064516129032,0.0967741935483871,0.0967741935483871,0.67741935483871
"199",199,0.168,0.224598930481283,0.229508196721311,0.23728813559322,0.774193548387097,0.32258064516129,0.0967741935483871,0,0.67741935483871,0.967741935483871
"200",200,0.190045248868778,0.208955223880597,0.208955223880597,0.212121212121212,0.774193548387097,0.225806451612903,0.161290322580645,0.258064516129032,0.193548387096774,0.0645161290322581
"201",201,0.172839506172839,0.216494845360825,0.21875,0.230769230769231,0.0645161290322581,0.935483870967742,0.935483870967742,0.193548387096774,0.032258064516129,0.161290322580645
"202",202,0.172131147540984,0.191780821917808,0.192660550458716,0.196261682242991,0.0645161290322581,0.645161290322581,0.612903225806452,0.32258064516129,0,0.354838709677419
"203",203,0.178723404255319,0.217616580310881,0.217616580310881,0.224598930481283,0.838709677419355,0.67741935483871,0.774193548387097,0.612903225806452,0.516129032258065,0.354838709677419
"204",204,0.229508196721311,0.248520710059172,0.251497005988024,0.251497005988024,0.451612903225806,0.0645161290322581,0.0645161290322581,0,0.193548387096774,0.032258064516129
"205",205,0.189189189189189,0.21,0.214285714285714,0.216494845360825,0.032258064516129,0.612903225806452,0.225806451612903,0.225806451612903,0,0.225806451612903
"206",206,0.233333333333333,0.25609756097561,0.257668711656442,0.25609756097561,0,0.032258064516129,0.032258064516129,0.032258064516129,0.419354838709677,0.419354838709677
"207",207,0.254545454545455,0.293706293706294,0.293706293706294,0.293706293706294,0.935483870967742,0.32258064516129,0.451612903225806,0.193548387096774,0.516129032258065,0.774193548387097
"208",208,0.196261682242991,0.2625,0.265822784810127,0.253012048192771,0,0.612903225806452,0.709677419354839,0.516129032258065,0,0.0645161290322581
"209",209,0.21,0.204878048780488,0.204878048780488,0.204878048780488,0.967741935483871,0.935483870967742,0.870967741935484,0.903225806451613,0.774193548387097,0.225806451612903
"210",210,0.153846153846154,0.168674698795181,0.168674698795181,0.167330677290837,0.419354838709677,0.580645161290323,0.709677419354839,0.419354838709677,0.32258064516129,0.709677419354839
"211",211,0.170731707317073,0.2625,0.2625,0.2625,0,0.419354838709677,0.258064516129032,0.354838709677419,0,0
"212",212,0.140939597315436,0.13953488372093,0.13953488372093,0.13953488372093,0.967741935483871,0.387096774193548,0.612903225806452,0.516129032258065,0.709677419354839,0.645161290322581
"213",213,0.202898550724638,0.216494845360825,0.215384615384615,0.215384615384615,0.645161290322581,0.354838709677419,0.483870967741935,0.225806451612903,0.161290322580645,0.67741935483871
"214",214,0.162162162162162,0.178723404255319,0.180257510729614,0.182608695652174,0.0967741935483871,1,0.967741935483871,0.419354838709677,0.0645161290322581,0.67741935483871
"215",215,0.2,0.222222222222222,0.223404255319149,0.229508196721311,0.870967741935484,0.838709677419355,0.548387096774194,0.161290322580645,0.193548387096774,0.67741935483871
"216",216,0.163424124513619,0.192660550458716,0.189189189189189,0.203883495145631,0.838709677419355,0.548387096774194,0.483870967741935,0.451612903225806,0.516129032258065,0.645161290322581
"217",217,0.157894736842105,0.156716417910448,0.156716417910448,0.156716417910448,0.0967741935483871,0.032258064516129,0,0.032258064516129,0.0645161290322581,0.0645161290322581
"218",218,0.201923076923077,0.224598930481283,0.224598930481283,0.229508196721311,0.161290322580645,0.774193548387097,0.774193548387097,0.290322580645161,0.0645161290322581,0.387096774193548
"219",219,0.159695817490494,0.176470588235294,0.177215189873418,0.178723404255319,0.129032258064516,0.387096774193548,0.290322580645161,0.0967741935483871,0.935483870967742,0.161290322580645
"220",220,0.181818181818182,0.228260869565217,0.232044198895028,0.232044198895028,0.290322580645161,0.838709677419355,0.741935483870968,0.709677419354839,0.516129032258065,0.451612903225806
"221",221,0.181818181818182,0.2,0.201923076923077,0.206896551724138,0.548387096774194,0.0645161290322581,0.0967741935483871,0.67741935483871,0.0645161290322581,0.967741935483871
"222",222,0.23463687150838,0.333333333333333,0.333333333333333,0.35,0.032258064516129,0.967741935483871,0.870967741935484,0.032258064516129,0,0.0967741935483871
"223",223,0.2,0.224598930481283,0.225806451612903,0.228260869565217,0.0645161290322581,0.967741935483871,0.516129032258065,0.354838709677419,0.451612903225806,0.258064516129032
"224",224,0.194444444444444,0.242774566473988,0.245614035087719,0.254545454545455,0.516129032258065,0.225806451612903,0.032258064516129,0.193548387096774,0.193548387096774,0.483870967741935
"225",225,0.181818181818182,0.2,0.203883495145631,0.203883495145631,0.0645161290322581,0.483870967741935,0.0645161290322581,0.032258064516129,0,0.193548387096774
"226",226,0.156133828996283,0.181818181818182,0.180257510729614,0.180257510729614,0.741935483870968,0.709677419354839,0.548387096774194,0.645161290322581,0.580645161290323,0.225806451612903
"227",227,0.189189189189189,0.1875,0.1875,0.1875,0.0645161290322581,0,0,0.032258064516129,0.032258064516129,0.290322580645161
"228",228,0.1875,0.247058823529412,0.242774566473988,0.242774566473988,0,0.225806451612903,0.193548387096774,0.193548387096774,0.451612903225806,0.516129032258065
"229",229,0.195348837209302,0.264150943396226,0.269230769230769,0.28,0.580645161290323,0.870967741935484,0.612903225806452,0.387096774193548,0.258064516129032,0.290322580645161
"230",230,0.201923076923077,0.264150943396226,0.264150943396226,0.297872340425532,0.032258064516129,0.483870967741935,0.516129032258065,0.032258064516129,0,0.354838709677419
"231",231,0.180257510729614,0.25609756097561,0.25609756097561,0.283783783783784,0.032258064516129,0.645161290322581,0.548387096774194,0.0967741935483871,0.67741935483871,0
"232",232,0.19811320754717,0.233333333333333,0.238636363636364,0.238636363636364,0.258064516129032,0.870967741935484,0.516129032258065,0.709677419354839,0.0967741935483871,0.129032258064516
"233",233,0.160919540229885,0.195348837209302,0.195348837209302,0.185022026431718,0.32258064516129,0.935483870967742,0.935483870967742,0.387096774193548,0.129032258064516,1
"234",234,0.208955223880597,0.230769230769231,0.232044198895028,0.238636363636364,0.709677419354839,0.483870967741935,0.419354838709677,0.0645161290322581,0.290322580645161,0.290322580645161
"235",235,0.193548387096774,0.274509803921569,0.269230769230769,0.269230769230769,0,0.0967741935483871,0,0,0,0.161290322580645
"236",236,0.205882352941176,0.248520710059172,0.248520710059172,0.245614035087719,0.419354838709677,0.903225806451613,0.806451612903226,0.741935483870968,0,0.258064516129032
"237",237,0.201923076923077,0.241379310344828,0.241379310344828,0.25,0.580645161290323,0.967741935483871,0.903225806451613,0.225806451612903,0.451612903225806,0.903225806451613
"238",238,0.132075471698113,0.132492113564669,0.132492113564669,0.132492113564669,0.451612903225806,0.774193548387097,0.870967741935484,0.838709677419355,0.935483870967742,0.0645161290322581
"239",239,0.175,0.19811320754717,0.2,0.2,0.645161290322581,0.129032258064516,0.0645161290322581,0.0967741935483871,0.0967741935483871,0
"240",240,0.182608695652174,0.202898550724638,0.203883495145631,0.208955223880597,0.0967741935483871,0.838709677419355,0.67741935483871,0.129032258064516,0.032258064516129,0.548387096774194
"241",241,0.267515923566879,0.304347826086957,0.306569343065693,0.308823529411765,0.032258064516129,0.967741935483871,0.935483870967742,0.903225806451613,0,0.806451612903226
"242",242,0.151624548736462,0.197183098591549,0.195348837209302,0.208955223880597,0,0.483870967741935,0.548387096774194,0.419354838709677,0,0.354838709677419
"243",243,0.16030534351145,0.159090909090909,0.159090909090909,0.159090909090909,0.419354838709677,0.32258064516129,0.290322580645161,0.354838709677419,0.354838709677419,0.838709677419355
"244",244,0.216494845360825,0.238636363636364,0.24,0.245614035087719,0.0967741935483871,0.645161290322581,0.774193548387097,0.258064516129032,0.0645161290322581,0.451612903225806
"245",245,0.180257510729614,0.219895287958115,0.217616580310881,0.21105527638191,0,0.838709677419355,0.290322580645161,0.0967741935483871,0,0.0967741935483871
"246",246,0.168,0.16600790513834,0.16600790513834,0.16600790513834,0.032258064516129,0.032258064516129,0.032258064516129,0.0645161290322581,0.0645161290322581,0.0967741935483871
"247",247,0.177966101694915,0.191780821917808,0.191780821917808,0.191780821917808,0,0.193548387096774,0.387096774193548,0.516129032258065,0.290322580645161,0.548387096774194
"248",248,0.175,0.184210526315789,0.185022026431718,0.185022026431718,0.451612903225806,0.258064516129032,0.354838709677419,0.451612903225806,0.516129032258065,0.580645161290323
"249",249,0.202898550724638,0.248520710059172,0.251497005988024,0.251497005988024,0.032258064516129,0.516129032258065,0.032258064516129,0.032258064516129,0,0
"250",250,0.157303370786517,0.157303370786517,0.157303370786517,0.157303370786517,0.580645161290323,0.32258064516129,0.451612903225806,0.451612903225806,0.548387096774194,0.870967741935484
"251",251,0.177966101694915,0.245614035087719,0.245614035087719,0.264150943396226,0.225806451612903,0.483870967741935,0.580645161290323,0.709677419354839,0.032258064516129,0.451612903225806
"252",252,0.2,0.219895287958115,0.219895287958115,0.219895287958115,0.967741935483871,0.903225806451613,0.903225806451613,0.870967741935484,0.354838709677419,0.774193548387097
"253",253,0.195348837209302,0.254545454545455,0.257668711656442,0.257668711656442,0,0.967741935483871,1,0.903225806451613,0,0.0645161290322581
"254",254,0.21,0.276315789473684,0.28,0.291666666666667,0.419354838709677,0.032258064516129,0.032258064516129,0,0.129032258064516,0.903225806451613
"255",255,0.183406113537118,0.227027027027027,0.232044198895028,0.242774566473988,0,0.709677419354839,0.161290322580645,0,0,0
"256",256,0.213197969543147,0.254545454545455,0.254545454545455,0.267515923566879,0.483870967741935,0.935483870967742,0.935483870967742,0.870967741935484,0.741935483870968,0.193548387096774
"257",257,0.132075471698113,0.153846153846154,0.156133828996283,0.157303370786517,0.451612903225806,0.967741935483871,0.290322580645161,0.0967741935483871,0.548387096774194,0.032258064516129
"258",258,0.203883495145631,0.224598930481283,0.225806451612903,0.228260869565217,0.290322580645161,0.967741935483871,0.935483870967742,0.709677419354839,0.838709677419355,0.741935483870968
"259",259,0.162162162162162,0.175,0.175732217573222,0.179487179487179,0.419354838709677,0.419354838709677,0.258064516129032,0.709677419354839,0.0967741935483871,0.129032258064516
"260",260,0.171428571428571,0.185840707964602,0.186666666666667,0.185022026431718,0.709677419354839,0.903225806451613,0.935483870967742,0.806451612903226,0.258064516129032,0.612903225806452
"261",261,0.196261682242991,0.213197969543147,0.214285714285714,0.219895287958115,0.838709677419355,0.0967741935483871,0.032258064516129,0.935483870967742,0.67741935483871,0.0967741935483871
"262",262,0.194444444444444,0.213197969543147,0.214285714285714,0.21875,0.838709677419355,0.354838709677419,0.193548387096774,0.903225806451613,0.612903225806452,0.0645161290322581
"263",263,0.182608695652174,0.247058823529412,0.247058823529412,0.238636363636364,0.516129032258065,0.870967741935484,0.612903225806452,0.258064516129032,0.161290322580645,0.419354838709677
"264",264,0.157303370786517,0.180257510729614,0.180257510729614,0.186666666666667,0.0645161290322581,0.935483870967742,0.967741935483871,0.709677419354839,0.0645161290322581,0.516129032258065
"265",265,0.182608695652174,0.196261682242991,0.196261682242991,0.196261682242991,0.903225806451613,0.419354838709677,0.67741935483871,0.709677419354839,0.129032258064516,0.193548387096774
"266",266,0.177966101694915,0.221052631578947,0.228260869565217,0.228260869565217,0.032258064516129,0.870967741935484,0.129032258064516,0.225806451612903,0,0
"267",267,0.212121212121212,0.229508196721311,0.230769230769231,0.235955056179775,0.129032258064516,0.967741935483871,0.967741935483871,0.612903225806452,0.032258064516129,0.838709677419355
"268",268,0.168,0.217616580310881,0.219895287958115,0.219895287958115,0.612903225806452,0.0967741935483871,0.935483870967742,0.838709677419355,0.161290322580645,0.709677419354839
"269",269,0.199052132701422,0.214285714285714,0.214285714285714,0.21105527638191,0.193548387096774,0.516129032258065,0.580645161290323,0.451612903225806,0,0.161290322580645
"270",270,0.176470588235294,0.238636363636364,0.238636363636364,0.223404255319149,0.451612903225806,0.258064516129032,0.258064516129032,0.483870967741935,0.225806451612903,0
"271",271,0.197183098591549,0.192660550458716,0.192660550458716,0.192660550458716,0.870967741935484,0.838709677419355,0.612903225806452,0.67741935483871,0.645161290322581,0.645161290322581
"272",272,0.222222222222222,0.251497005988024,0.254545454545455,0.25609756097561,0,0.483870967741935,0.161290322580645,0.0967741935483871,0,0.0645161290322581
"273",273,0.168,0.204878048780488,0.206896551724138,0.197183098591549,0.612903225806452,1,1,0.806451612903226,0.193548387096774,0.451612903225806
"274",274,0.183406113537118,0.200956937799043,0.202898550724638,0.205882352941176,0.193548387096774,0.774193548387097,0.709677419354839,0.516129032258065,0.032258064516129,0.67741935483871
"275",275,0.215384615384615,0.235955056179775,0.23728813559322,0.242774566473988,0.903225806451613,0.290322580645161,0.258064516129032,1,0.870967741935484,0.0967741935483871
"276",276,0.164705882352941,0.176470588235294,0.176470588235294,0.173553719008264,0.774193548387097,0.774193548387097,0.935483870967742,0.612903225806452,0.225806451612903,0.354838709677419
"277",277,0.148409893992933,0.179487179487179,0.182608695652174,0.182608695652174,0,0.806451612903226,0.548387096774194,0.290322580645161,0,0
"278",278,0.21105527638191,0.2625,0.269230769230769,0.276315789473684,0,0.193548387096774,0.161290322580645,0.032258064516129,0,0.0967741935483871
"279",279,0.140939597315436,0.177966101694915,0.175732217573222,0.171428571428571,0.0967741935483871,1,0.483870967741935,0.645161290322581,0.419354838709677,0.516129032258065
"280",280,0.2,0.260869565217391,0.264150943396226,0.248520710059172,0,0.645161290322581,0.225806451612903,0.451612903225806,0.0645161290322581,0
"281",281,0.212121212121212,0.232044198895028,0.23463687150838,0.24,0.0645161290322581,0.483870967741935,0.193548387096774,0.032258064516129,0,0.161290322580645
"282",282,0.244186046511628,0.269230769230769,0.269230769230769,0.267515923566879,0.129032258064516,0.161290322580645,0.0967741935483871,0.129032258064516,0,0
"283",283,0.19811320754717,0.214285714285714,0.215384615384615,0.221052631578947,0.258064516129032,0.548387096774194,0.580645161290323,0.0645161290322581,0.193548387096774,0.354838709677419
"284",284,0.227027027027027,0.320610687022901,0.328125,0.336,0.032258064516129,0.387096774193548,0.0645161290322581,0.258064516129032,0,0.354838709677419
"285",285,0.222222222222222,0.247058823529412,0.247058823529412,0.241379310344828,0.225806451612903,0.903225806451613,1,0.935483870967742,0,1
"286",286,0.203883495145631,0.259259259259259,0.2625,0.2625,0.290322580645161,0.645161290322581,0.32258064516129,0.225806451612903,0.225806451612903,0.0967741935483871
"287",287,0.219895287958115,0.274509803921569,0.269230769230769,0.269230769230769,0.387096774193548,0.967741935483871,0.161290322580645,0.387096774193548,0.032258064516129,0.645161290322581
"288",288,0.162162162162162,0.177966101694915,0.180257510729614,0.181818181818182,0,0.0645161290322581,0.0645161290322581,0.0645161290322581,0,0.032258064516129
"289",289,0.185022026431718,0.201923076923077,0.203883495145631,0.200956937799043,0.225806451612903,0.483870967741935,0.193548387096774,0.483870967741935,0.0645161290322581,1
"290",290,0.156133828996283,0.175,0.175,0.178723404255319,0.225806451612903,0.032258064516129,0.032258064516129,0.806451612903226,0.0645161290322581,0.967741935483871
"291",291,0.2,0.219895287958115,0.221052631578947,0.213197969543147,0.032258064516129,0.354838709677419,0.483870967741935,0.161290322580645,0,0.290322580645161
"292",292,0.175732217573222,0.188340807174888,0.190045248868778,0.190045248868778,0.516129032258065,0.0645161290322581,0.709677419354839,0.645161290322581,0.032258064516129,0.451612903225806
"293",293,0.143835616438356,0.171428571428571,0.172839506172839,0.17004048582996,0,0.419354838709677,0.258064516129032,0.129032258064516,0.290322580645161,0
"294",294,0.235955056179775,0.313432835820896,0.313432835820896,0.3,0.129032258064516,0.967741935483871,0.870967741935484,0.32258064516129,0,0.967741935483871
"295",295,0.178723404255319,0.244186046511628,0.244186046511628,0.235955056179775,0,0.774193548387097,0.903225806451613,0.516129032258065,0.935483870967742,0
"296",296,0.166666666666667,0.182608695652174,0.185022026431718,0.185840707964602,0.483870967741935,0.032258064516129,0,0,0.129032258064516,0
"297",297,0.152173913043478,0.1640625,0.164705882352941,0.166666666666667,0.419354838709677,0.903225806451613,0.806451612903226,0.451612903225806,0.741935483870968,0.612903225806452
"298",298,0.221052631578947,0.241379310344828,0.242774566473988,0.248520710059172,0,0.32258064516129,0.354838709677419,0.0645161290322581,0.0645161290322581,0.129032258064516
"299",299,0.185022026431718,0.179487179487179,0.179487179487179,0.179487179487179,0.419354838709677,0.225806451612903,0.161290322580645,0.32258064516129,0.354838709677419,0.516129032258065
"300",300,0.201923076923077,0.24,0.245614035087719,0.248520710059172,0.419354838709677,0.483870967741935,0.32258064516129,0.032258064516129,0.225806451612903,0.032258064516129
"301",301,0.172131147540984,0.1875,0.188340807174888,0.193548387096774,0.032258064516129,0.419354838709677,0.290322580645161,0.0967741935483871,0.741935483870968,0.32258064516129
"302",302,0.1875,0.203883495145631,0.205882352941176,0.205882352941176,0.193548387096774,0.483870967741935,0.258064516129032,0.225806451612903,0,0.193548387096774
"303",303,0.152173913043478,0.15,0.15,0.15,0.161290322580645,0.0967741935483871,0.0645161290322581,0.0645161290322581,0.0645161290322581,0.161290322580645
"304",304,0.171428571428571,0.167330677290837,0.167330677290837,0.167330677290837,0.0645161290322581,0,0,0,0.032258064516129,0.0645161290322581
"305",305,0.206896551724138,0.257668711656442,0.260869565217391,0.254545454545455,0.225806451612903,0.741935483870968,0.838709677419355,0.645161290322581,0.032258064516129,0.193548387096774
"306",306,0.188340807174888,0.205882352941176,0.207920792079208,0.213197969543147,0.161290322580645,0.354838709677419,0.258064516129032,0,0.0967741935483871,0.129032258064516
"307",307,0.160919540229885,0.193548387096774,0.195348837209302,0.186666666666667,0.451612903225806,0.935483870967742,0.806451612903226,0.967741935483871,0.129032258064516,0.290322580645161
"308",308,0.195348837209302,0.24,0.242774566473988,0.254545454545455,0.354838709677419,0.645161290322581,0.612903225806452,0.516129032258065,0.0967741935483871,0.967741935483871
"309",309,0.229508196721311,0.285714285714286,0.289655172413793,0.289655172413793,0.32258064516129,0.32258064516129,0.0645161290322581,0.225806451612903,0.0645161290322581,0.354838709677419
"310",310,0.159695817490494,0.194444444444444,0.196261682242991,0.203883495145631,0.129032258064516,0.580645161290323,0.193548387096774,0.32258064516129,0,0.387096774193548
"311",311,0.186666666666667,0.203883495145631,0.205882352941176,0.207920792079208,0.387096774193548,0.0967741935483871,0.0645161290322581,0.967741935483871,0,0.935483870967742
"312",312,0.194444444444444,0.219895287958115,0.223404255319149,0.223404255319149,0,0.451612903225806,0.129032258064516,0.193548387096774,0,0.258064516129032
"313",313,0.182608695652174,0.200956937799043,0.200956937799043,0.202898550724638,0.967741935483871,1,1,0.806451612903226,0.419354838709677,0.741935483870968
"314",314,0.172839506172839,0.206896551724138,0.213197969543147,0.217616580310881,0,0.32258064516129,0,0.451612903225806,0.645161290322581,0.193548387096774
"315",315,0.222222222222222,0.270967741935484,0.274509803921569,0.278145695364238,0.129032258064516,0.161290322580645,0.419354838709677,0.032258064516129,0.032258064516129,0.032258064516129
"316",316,0.177215189873418,0.191780821917808,0.193548387096774,0.193548387096774,0.967741935483871,0.193548387096774,0.161290322580645,0.032258064516129,0.806451612903226,0.0645161290322581
"317",317,0.248520710059172,0.381818181818182,0.381818181818182,0.411764705882353,0,0.806451612903226,0.870967741935484,0.161290322580645,0,0.161290322580645
"318",318,0.196261682242991,0.224598930481283,0.225806451612903,0.233333333333333,1,0.032258064516129,0.032258064516129,0.967741935483871,0.645161290322581,0
"319",319,0.173553719008264,0.191780821917808,0.191780821917808,0.190909090909091,0,0.032258064516129,0.032258064516129,0,0.516129032258065,0.870967741935484
"320",320,0.178723404255319,0.3,0.308823529411765,0.328125,0,0.709677419354839,0.709677419354839,0.0645161290322581,0,0
"321",321,0.153284671532847,0.162790697674419,0.163424124513619,0.1640625,0.032258064516129,0.193548387096774,0.129032258064516,0.129032258064516,0.0645161290322581,0.129032258064516
"322",322,0.157303370786517,0.168674698795181,0.169354838709677,0.173553719008264,0.548387096774194,0.354838709677419,0.451612903225806,0.129032258064516,0.516129032258065,0.225806451612903
"323",323,0.19811320754717,0.216494845360825,0.217616580310881,0.222222222222222,0.193548387096774,0.129032258064516,0.0967741935483871,0.32258064516129,0.032258064516129,0.67741935483871
"324",324,0.176470588235294,0.189189189189189,0.190909090909091,0.193548387096774,0.0645161290322581,0.967741935483871,0.806451612903226,0.451612903225806,0.903225806451613,0.709677419354839
"325",325,0.265822784810127,0.285714285714286,0.283783783783784,0.281879194630872,0.548387096774194,0.483870967741935,0.290322580645161,0.387096774193548,0.193548387096774,0.483870967741935
"326",326,0.171428571428571,0.201923076923077,0.2,0.2,0.161290322580645,1,0.548387096774194,0.387096774193548,0.0967741935483871,0.0967741935483871
"327",327,0.182608695652174,0.202898550724638,0.203883495145631,0.203883495145631,0.032258064516129,0.129032258064516,0.0645161290322581,0.032258064516129,0.32258064516129,0.967741935483871
"328",328,0.219895287958115,0.24,0.242774566473988,0.242774566473988,0.354838709677419,0.258064516129032,0.0645161290322581,0.032258064516129,0.32258064516129,0.032258064516129
"329",329,0.158490566037736,0.227027027027027,0.23463687150838,0.25609756097561,0.935483870967742,0.451612903225806,0.290322580645161,0.354838709677419,0.645161290322581,0.870967741935484
"330",330,0.197183098591549,0.196261682242991,0.196261682242991,0.196261682242991,0,0.032258064516129,0,0.032258064516129,0.032258064516129,0
"331",331,0.179487179487179,0.194444444444444,0.196261682242991,0.19811320754717,0.0645161290322581,0.161290322580645,0.193548387096774,0,0.0645161290322581,0.032258064516129
"332",332,0.194444444444444,0.214285714285714,0.215384615384615,0.216494845360825,0.645161290322581,0.419354838709677,0.903225806451613,0.580645161290323,0.419354838709677,0.645161290322581
"333",333,0.172839506172839,0.2,0.201923076923077,0.205882352941176,0.161290322580645,0.193548387096774,0.774193548387097,0.709677419354839,0.129032258064516,0.67741935483871
"334",334,0.175,0.173553719008264,0.173553719008264,0.173553719008264,0.290322580645161,0.387096774193548,0.32258064516129,0.354838709677419,0.451612903225806,0.612903225806452
"335",335,0.203883495145631,0.253012048192771,0.253012048192771,0.272727272727273,0,0.774193548387097,0.548387096774194,0.032258064516129,0,0.161290322580645
"336",336,0.197183098591549,0.215384615384615,0.215384615384615,0.221052631578947,0.516129032258065,0.129032258064516,0.0645161290322581,0.806451612903226,0.32258064516129,0.903225806451613
"337",337,0.159090909090909,0.194444444444444,0.19811320754717,0.205882352941176,0,0.0967741935483871,0.161290322580645,0.032258064516129,0,0
"338",338,0.19811320754717,0.215384615384615,0.216494845360825,0.223404255319149,0,0.225806451612903,0.193548387096774,0,0,0.0967741935483871
"339",339,0.199052132701422,0.25609756097561,0.2625,0.265822784810127,0.129032258064516,0.838709677419355,0.225806451612903,0.129032258064516,0.032258064516129,0.451612903225806
"340",340,0.207920792079208,0.224598930481283,0.225806451612903,0.222222222222222,0.193548387096774,0.967741935483871,0.806451612903226,0.870967741935484,0.032258064516129,0.774193548387097
"341",341,0.232044198895028,0.257668711656442,0.260869565217391,0.2625,0.0645161290322581,0.387096774193548,0.0645161290322581,0.0645161290322581,0.451612903225806,0.0645161290322581
"342",342,0.205882352941176,0.225806451612903,0.229508196721311,0.232044198895028,0,0.0645161290322581,0.0645161290322581,0,0,0.0645161290322581
"343",343,0.199052132701422,0.293706293706294,0.293706293706294,0.283783783783784,0.032258064516129,0.258064516129032,0.290322580645161,0.225806451612903,0,0
"344",344,0.201923076923077,0.219895287958115,0.221052631578947,0.225806451612903,0.935483870967742,0.193548387096774,0.0645161290322581,0.0645161290322581,0.354838709677419,0.0967741935483871
"345",345,0.185022026431718,0.227027027027027,0.232044198895028,0.23728813559322,0.032258064516129,0.225806451612903,0,0,0,0.0645161290322581
"346",346,0.169354838709677,0.183406113537118,0.183406113537118,0.179487179487179,0.0645161290322581,0.548387096774194,0.516129032258065,0.483870967741935,0.354838709677419,0.32258064516129
"347",347,0.153846153846154,0.166666666666667,0.167330677290837,0.167330677290837,0.548387096774194,0.967741935483871,0.967741935483871,0.967741935483871,0.0645161290322581,0.806451612903226
"348",348,0.203883495145631,0.25609756097561,0.259259259259259,0.253012048192771,0.387096774193548,1,0.870967741935484,0.838709677419355,0.129032258064516,0.0645161290322581
"349",349,0.191780821917808,0.207920792079208,0.208955223880597,0.208955223880597,0.193548387096774,0.935483870967742,0.967741935483871,0.903225806451613,0,0.870967741935484
"350",350,0.157303370786517,0.185022026431718,0.188340807174888,0.190045248868778,0.774193548387097,0.645161290322581,0.0967741935483871,0.709677419354839,0.258064516129032,0.129032258064516
"351",351,0.247058823529412,0.313432835820896,0.318181818181818,0.328125,0.161290322580645,0.0967741935483871,0.032258064516129,0.0645161290322581,0.032258064516129,0.612903225806452
"352",352,0.164705882352941,0.175,0.175,0.178723404255319,0.838709677419355,0.806451612903226,0.741935483870968,0.870967741935484,0.580645161290323,0.419354838709677
"353",353,0.1875,0.207920792079208,0.21105527638191,0.213197969543147,0.935483870967742,0,0,0,0.870967741935484,0
"354",354,0.193548387096774,0.228260869565217,0.230769230769231,0.233333333333333,0.709677419354839,0.129032258064516,0.0967741935483871,0.032258064516129,0.32258064516129,0.032258064516129
"355",355,0.195348837209302,0.214285714285714,0.215384615384615,0.217616580310881,0.645161290322581,0.483870967741935,0.0645161290322581,0.0645161290322581,0,0.129032258064516
"356",356,0.181034482758621,0.283783783783784,0.289655172413793,0.302158273381295,0.612903225806452,0.935483870967742,0.935483870967742,0.032258064516129,0.516129032258065,0
"357",357,0.183406113537118,0.221052631578947,0.223404255319149,0.223404255319149,0.032258064516129,1,0.838709677419355,0.838709677419355,0.548387096774194,0.516129032258065
"358",358,0.168,0.206896551724138,0.208955223880597,0.219895287958115,0.870967741935484,0.774193548387097,0.806451612903226,0.451612903225806,0.741935483870968,0.967741935483871
"359",359,0.182608695652174,0.233333333333333,0.241379310344828,0.247058823529412,0.290322580645161,0,0,0,0.193548387096774,0.161290322580645
"360",360,0.215384615384615,0.24,0.242774566473988,0.242774566473988,0.0967741935483871,0.483870967741935,0.193548387096774,0.193548387096774,0,0.161290322580645
"361",361,0.156716417910448,0.167330677290837,0.167330677290837,0.166666666666667,0.548387096774194,0.870967741935484,0.741935483870968,0.774193548387097,0.806451612903226,0.67741935483871
"362",362,0.215384615384615,0.24,0.242774566473988,0.245614035087719,0,0.0645161290322581,0,0.032258064516129,0,0
"363",363,0.167330677290837,0.179487179487179,0.181818181818182,0.181818181818182,0.548387096774194,0.903225806451613,0.709677419354839,0.806451612903226,0.483870967741935,0.387096774193548
"364",364,0.219895287958115,0.24,0.24,0.23463687150838,0.806451612903226,0.354838709677419,0.580645161290323,0.419354838709677,0.290322580645161,0.451612903225806
"365",365,0.158490566037736,0.172839506172839,0.174273858921162,0.175732217573222,0.0645161290322581,0.483870967741935,0.774193548387097,0.129032258064516,0.032258064516129,0.193548387096774
"366",366,0.166666666666667,0.181818181818182,0.182608695652174,0.186666666666667,0.806451612903226,0.645161290322581,0.774193548387097,0.129032258064516,0.225806451612903,0.419354838709677
"367",367,0.157894736842105,0.195348837209302,0.199052132701422,0.199052132701422,0.032258064516129,0.967741935483871,0.387096774193548,0.354838709677419,0,0
"368",368,0.233333333333333,0.2625,0.264150943396226,0.2625,0,0.32258064516129,0.290322580645161,0.548387096774194,0.193548387096774,0.32258064516129
"369",369,0.185840707964602,0.253012048192771,0.253012048192771,0.253012048192771,0,0.548387096774194,0.290322580645161,0.548387096774194,0,0.258064516129032
"370",370,0.138157894736842,0.151624548736462,0.152173913043478,0.154981549815498,0.0645161290322581,0.67741935483871,0.774193548387097,0.32258064516129,0.225806451612903,0.451612903225806
"371",371,0.208955223880597,0.25,0.25,0.25,0.290322580645161,0.709677419354839,0.741935483870968,0.741935483870968,0.0967741935483871,0.935483870967742
"372",372,0.189189189189189,0.215384615384615,0.217616580310881,0.217616580310881,0,0,0,0,0,0
"373",373,0.193548387096774,0.206896551724138,0.207920792079208,0.202898550724638,0.354838709677419,0.709677419354839,0.645161290322581,0.516129032258065,0.709677419354839,0.580645161290323
"374",374,0.195348837209302,0.214285714285714,0.213197969543147,0.21,0.774193548387097,0.645161290322581,0.580645161290323,0.774193548387097,0.0645161290322581,0.838709677419355
"375",375,0.169354838709677,0.180257510729614,0.181034482758621,0.181818181818182,1,0.67741935483871,0.741935483870968,0.516129032258065,0.451612903225806,0.806451612903226
"376",376,0.195348837209302,0.207920792079208,0.207920792079208,0.203883495145631,0.838709677419355,0.870967741935484,1,0.870967741935484,0.290322580645161,0.806451612903226
"377",377,0.154981549815498,0.185840707964602,0.185840707964602,0.185840707964602,0.0645161290322581,0.354838709677419,0.548387096774194,0.419354838709677,0.129032258064516,0.516129032258065
"378",378,0.172131147540984,0.221052631578947,0.223404255319149,0.225806451612903,0.290322580645161,0.32258064516129,0.354838709677419,0.225806451612903,0.225806451612903,0.129032258064516
"379",379,0.25,0.278145695364238,0.28,0.283783783783784,0.0967741935483871,0.032258064516129,0,0,0,0
"380",380,0.15,0.162790697674419,0.163424124513619,0.168,0.0645161290322581,0.580645161290323,0.580645161290323,0.129032258064516,0.129032258064516,0
"381",381,0.188340807174888,0.204878048780488,0.205882352941176,0.208955223880597,0.67741935483871,0.193548387096774,0.258064516129032,0.67741935483871,0.0967741935483871,0.838709677419355
"382",382,0.174273858921162,0.213197969543147,0.213197969543147,0.217616580310881,0.354838709677419,0.741935483870968,0.709677419354839,0.387096774193548,0.161290322580645,0.32258064516129
"383",383,0.200956937799043,0.221052631578947,0.221052631578947,0.221052631578947,0.0967741935483871,0.290322580645161,0.258064516129032,0.290322580645161,0.516129032258065,0.67741935483871
"384",384,0.172839506172839,0.172131147540984,0.172131147540984,0.172131147540984,0.645161290322581,0.193548387096774,0.161290322580645,0.0967741935483871,0.0967741935483871,0.806451612903226
"385",385,0.191780821917808,0.24,0.24,0.245614035087719,0.32258064516129,0.806451612903226,0.806451612903226,0.645161290322581,0.032258064516129,0.258064516129032
"386",386,0.202898550724638,0.274509803921569,0.28,0.254545454545455,0.0645161290322581,0.419354838709677,0.0645161290322581,0.0645161290322581,0,0.548387096774194
"387",387,0.178723404255319,0.212121212121212,0.212121212121212,0.212121212121212,0.032258064516129,0.32258064516129,0.225806451612903,0.258064516129032,0.0967741935483871,0.612903225806452
"388",388,0.176470588235294,0.175,0.175,0.175,0.451612903225806,0,0.161290322580645,0.032258064516129,0.225806451612903,0.612903225806452
"389",389,0.219895287958115,0.241379310344828,0.242774566473988,0.248520710059172,0.0645161290322581,0.225806451612903,0.258064516129032,0,0,0.129032258064516
"390",390,0.167330677290837,0.219895287958115,0.216494845360825,0.238636363636364,0,0.032258064516129,0,0.0645161290322581,0,0
"391",391,0.194444444444444,0.259259259259259,0.259259259259259,0.254545454545455,0.612903225806452,0.806451612903226,0.645161290322581,0.548387096774194,0.354838709677419,0.290322580645161
"392",392,0.157303370786517,0.17004048582996,0.171428571428571,0.175732217573222,0.161290322580645,0.354838709677419,0.258064516129032,0.0645161290322581,0.0967741935483871,0.032258064516129
"393",393,0.181034482758621,0.201923076923077,0.201923076923077,0.199052132701422,0.0645161290322581,0.741935483870968,0.516129032258065,0.354838709677419,0.0645161290322581,0.193548387096774
"394",394,0.21105527638191,0.254545454545455,0.254545454545455,0.260869565217391,0.161290322580645,1,1,0.741935483870968,0.032258064516129,0.806451612903226
"395",395,0.213197969543147,0.230769230769231,0.232044198895028,0.235955056179775,0.193548387096774,0.225806451612903,0.451612903225806,0.129032258064516,0.0967741935483871,0.129032258064516
"396",396,0.155555555555556,0.214285714285714,0.21105527638191,0.228260869565217,0,0.645161290322581,0.806451612903226,0.193548387096774,0,0
"397",397,0.192660550458716,0.25609756097561,0.2625,0.2625,0.838709677419355,0.612903225806452,0.225806451612903,0.0967741935483871,0.580645161290323,1
"398",398,0.1640625,0.162162162162162,0.162162162162162,0.162162162162162,0.741935483870968,0.774193548387097,0.903225806451613,0.741935483870968,0.580645161290323,0.967741935483871
"399",399,0.154411764705882,0.195348837209302,0.191780821917808,0.204878048780488,0,0.483870967741935,0.0967741935483871,0.032258064516129,0,0.0967741935483871
"400",400,0.208955223880597,0.228260869565217,0.232044198895028,0.233333333333333,0.032258064516129,0.0645161290322581,0,0.0645161290322581,0,0.161290322580645
"401",401,0.189189189189189,0.225806451612903,0.228260869565217,0.235955056179775,0.032258064516129,0.032258064516129,0.0645161290322581,0.0645161290322581,0,0.0967741935483871
"402",402,0.162790697674419,0.179487179487179,0.181818181818182,0.183406113537118,0.161290322580645,0.838709677419355,0.483870967741935,0.580645161290323,0,0.419354838709677
"403",403,0.202898550724638,0.241379310344828,0.241379310344828,0.244186046511628,0.0967741935483871,0.935483870967742,0.935483870967742,0.870967741935484,0.580645161290323,0.645161290322581
"404",404,0.188340807174888,0.21,0.212121212121212,0.217616580310881,0.548387096774194,0.0645161290322581,0.129032258064516,0.741935483870968,0.0967741935483871,0.032258064516129
"405",405,0.203883495145631,0.222222222222222,0.222222222222222,0.221052631578947,0.870967741935484,0.645161290322581,0.548387096774194,0.483870967741935,0.483870967741935,0.451612903225806
"406",406,0.149466192170818,0.171428571428571,0.172839506172839,0.175732217573222,0.161290322580645,0.419354838709677,0.419354838709677,0.516129032258065,0.032258064516129,0.387096774193548
"407",407,0.151624548736462,0.151079136690647,0.151079136690647,0.151079136690647,0.032258064516129,0.032258064516129,0.0645161290322581,0,0.0645161290322581,0.161290322580645
"408",408,0.158490566037736,0.159090909090909,0.159090909090909,0.159090909090909,0.548387096774194,0.354838709677419,0.419354838709677,0.451612903225806,0.387096774193548,0.806451612903226
"409",409,0.168674698795181,0.206896551724138,0.208955223880597,0.208955223880597,0.451612903225806,0.645161290322581,0.354838709677419,0.67741935483871,0.354838709677419,0.0645161290322581
"410",410,0.14,0.13953488372093,0.13953488372093,0.13953488372093,0.0645161290322581,0.935483870967742,1,0.967741935483871,0.967741935483871,0.0645161290322581
"411",411,0.17004048582996,0.214285714285714,0.216494845360825,0.216494845360825,0,0.0967741935483871,0.0967741935483871,0.032258064516129,0.032258064516129,0.0645161290322581
"412",412,0.151079136690647,0.223404255319149,0.228260869565217,0.233333333333333,0.0645161290322581,0.935483870967742,0.193548387096774,0.0645161290322581,0.129032258064516,0.225806451612903
"413",413,0.172839506172839,0.191780821917808,0.191780821917808,0.196261682242991,0.161290322580645,0.419354838709677,0.483870967741935,0.0645161290322581,0.451612903225806,0.32258064516129
"414",414,0.172839506172839,0.233333333333333,0.235955056179775,0.241379310344828,0.032258064516129,0.225806451612903,0.129032258064516,0.193548387096774,0,0
"415",415,0.168,0.166666666666667,0.166666666666667,0.166666666666667,0.032258064516129,0.0645161290322581,0.193548387096774,0.129032258064516,0.0967741935483871,0.193548387096774
"416",416,0.147887323943662,0.221052631578947,0.221052631578947,0.221052631578947,0.129032258064516,0.0967741935483871,0.032258064516129,0.032258064516129,0.193548387096774,0.0645161290322581
"417",417,0.178723404255319,0.193548387096774,0.195348837209302,0.196261682242991,0.032258064516129,0.387096774193548,0.419354838709677,0.258064516129032,0.741935483870968,0.161290322580645
"418",418,0.168674698795181,0.168674698795181,0.168674698795181,0.168674698795181,0.161290322580645,0.032258064516129,0.0645161290322581,0.0645161290322581,0,0.290322580645161
"419",419,0.166666666666667,0.203883495145631,0.203883495145631,0.21,0.0967741935483871,0.032258064516129,0,0.0645161290322581,0,0.0645161290322581
"420",420,0.174273858921162,0.221052631578947,0.223404255319149,0.225806451612903,0.0967741935483871,0.387096774193548,0.32258064516129,0.161290322580645,0.129032258064516,0.032258064516129
"421",421,0.162790697674419,0.201923076923077,0.203883495145631,0.196261682242991,0.225806451612903,0.741935483870968,0.516129032258065,0.612903225806452,0.0967741935483871,0.258064516129032
"422",422,0.193548387096774,0.213197969543147,0.214285714285714,0.21875,0.32258064516129,0,0,0.709677419354839,0.0967741935483871,0.806451612903226
"423",423,0.197183098591549,0.2625,0.269230769230769,0.25609756097561,0.258064516129032,0.741935483870968,0.483870967741935,0.225806451612903,0,0.32258064516129
"424",424,0.196261682242991,0.244186046511628,0.247058823529412,0.25609756097561,0.612903225806452,0.451612903225806,0.129032258064516,0.0645161290322581,0.709677419354839,0.258064516129032
"425",425,0.227027027027027,0.254545454545455,0.254545454545455,0.257668711656442,0.483870967741935,0.548387096774194,0.774193548387097,0.870967741935484,0.580645161290323,0.741935483870968
"426",426,0.169354838709677,0.182608695652174,0.181818181818182,0.181034482758621,0.806451612903226,0.161290322580645,0.193548387096774,0.161290322580645,0.32258064516129,0.580645161290323
"427",427,0.219895287958115,0.24,0.238636363636364,0.23463687150838,0,0.193548387096774,0.0967741935483871,0.0645161290322581,0,0.0645161290322581
"428",428,0.177215189873418,0.254545454545455,0.248520710059172,0.248520710059172,0.161290322580645,0.580645161290323,0.0967741935483871,0.193548387096774,0,0
"429",429,0.172131147540984,0.170731707317073,0.170731707317073,0.170731707317073,0.709677419354839,0.806451612903226,0.903225806451613,0.838709677419355,0.806451612903226,0.935483870967742
"430",430,0.185840707964602,0.201923076923077,0.204878048780488,0.204878048780488,0,0.032258064516129,0,0,0.129032258064516,0.032258064516129
"431",431,0.166666666666667,0.177966101694915,0.177215189873418,0.175732217573222,0.419354838709677,0.741935483870968,0.67741935483871,0.645161290322581,0.483870967741935,0.741935483870968
"432",432,0.223404255319149,0.289655172413793,0.293706293706294,0.297872340425532,0,0.193548387096774,0.0645161290322581,0.903225806451613,0,0.193548387096774
"433",433,0.204878048780488,0.242774566473988,0.24,0.24,0.258064516129032,0.612903225806452,0.516129032258065,0.516129032258065,0,0.483870967741935
"434",434,0.16030534351145,0.200956937799043,0.200956937799043,0.202898550724638,0.0967741935483871,0.967741935483871,0.903225806451613,0.870967741935484,0,0.0967741935483871
"435",435,0.181034482758621,0.179487179487179,0.179487179487179,0.179487179487179,0.0645161290322581,0.032258064516129,0,0,0.0645161290322581,0.225806451612903
"436",436,0.269230769230769,0.341463414634146,0.347107438016529,0.347107438016529,0.0645161290322581,0.548387096774194,0.032258064516129,0.0645161290322581,0,0.580645161290323
"437",437,0.178723404255319,0.193548387096774,0.194444444444444,0.189189189189189,0.354838709677419,0.67741935483871,0.548387096774194,0.32258064516129,0.709677419354839,0.354838709677419
"438",438,0.179487179487179,0.195348837209302,0.195348837209302,0.196261682242991,0.483870967741935,0.903225806451613,0.967741935483871,0.806451612903226,0,0.774193548387097
"439",439,0.197183098591549,0.21875,0.217616580310881,0.217616580310881,0.67741935483871,0.0967741935483871,0.225806451612903,0.161290322580645,0.032258064516129,0.870967741935484
"440",440,0.173553719008264,0.169354838709677,0.169354838709677,0.169354838709677,0.387096774193548,0.741935483870968,0.548387096774194,0.709677419354839,0.580645161290323,0.709677419354839
"441",441,0.259259259259259,0.291666666666667,0.293706293706294,0.297872340425532,0.225806451612903,0.483870967741935,0.354838709677419,0.806451612903226,0.161290322580645,0.161290322580645
"442",442,0.137704918032787,0.147368421052632,0.147368421052632,0.147368421052632,0.258064516129032,0.516129032258065,0.354838709677419,0.354838709677419,0.903225806451613,0.806451612903226
"443",443,0.225806451612903,0.281879194630872,0.281879194630872,0.289655172413793,0.451612903225806,0.935483870967742,1,0.516129032258065,0.032258064516129,0.580645161290323
"444",444,0.201923076923077,0.285714285714286,0.285714285714286,0.285714285714286,0,0.806451612903226,0.806451612903226,0.806451612903226,0.0645161290322581,0.032258064516129
"445",445,0.154981549815498,0.166666666666667,0.166666666666667,0.16600790513834,0.161290322580645,0.774193548387097,0.709677419354839,0.935483870967742,0.612903225806452,0.774193548387097
"446",446,0.182608695652174,0.21875,0.221052631578947,0.21,0.903225806451613,0.548387096774194,0.548387096774194,0.645161290322581,0.516129032258065,0.419354838709677
"447",447,0.227027027027027,0.278145695364238,0.281879194630872,0.281879194630872,0.129032258064516,0.612903225806452,0.129032258064516,0.258064516129032,0.516129032258065,0.161290322580645
"448",448,0.168,0.264150943396226,0.274509803921569,0.28,0,0.0967741935483871,0.741935483870968,0.354838709677419,0,0
"449",449,0.254545454545455,0.287671232876712,0.287671232876712,0.287671232876712,0.225806451612903,0.580645161290323,0.516129032258065,0.451612903225806,0.161290322580645,0.516129032258065
"450",450,0.172131147540984,0.190909090909091,0.192660550458716,0.194444444444444,0.129032258064516,0.258064516129032,0.290322580645161,0.0967741935483871,0,0.0645161290322581
"451",451,0.202898550724638,0.216494845360825,0.217616580310881,0.219895287958115,0.806451612903226,0.806451612903226,0.516129032258065,0.129032258064516,0.193548387096774,0.387096774193548
"452",452,0.165354330708661,0.16600790513834,0.16600790513834,0.16600790513834,0.354838709677419,0.129032258064516,0.032258064516129,0.0645161290322581,0.225806451612903,0.258064516129032
"453",453,0.219895287958115,0.24,0.242774566473988,0.244186046511628,0.0967741935483871,0.548387096774194,0.290322580645161,0.161290322580645,0.67741935483871,0.193548387096774
"454",454,0.188340807174888,0.186666666666667,0.186666666666667,0.186666666666667,0.0645161290322581,1,1,0.967741935483871,1,0.193548387096774
"455",455,0.213197969543147,0.248520710059172,0.245614035087719,0.245614035087719,0.419354838709677,0.612903225806452,0.580645161290323,0.67741935483871,0.032258064516129,0.645161290322581
"456",456,0.165354330708661,0.162790697674419,0.162790697674419,0.162790697674419,0.580645161290323,0.612903225806452,0.612903225806452,0.741935483870968,0.67741935483871,0
"457",457,0.153846153846154,0.152173913043478,0.152173913043478,0.152173913043478,0.451612903225806,0.193548387096774,0.161290322580645,0.032258064516129,0.0967741935483871,0.516129032258065
"458",458,0.17004048582996,0.225806451612903,0.229508196721311,0.222222222222222,0.129032258064516,0.419354838709677,0.67741935483871,0.387096774193548,0.129032258064516,0.354838709677419
"459",459,0.19811320754717,0.208955223880597,0.21,0.21105527638191,0.806451612903226,0.903225806451613,0.903225806451613,0.741935483870968,0.806451612903226,0.935483870967742
"460",460,0.155555555555556,0.156133828996283,0.156133828996283,0.156133828996283,0.032258064516129,0.548387096774194,0.516129032258065,0.548387096774194,0.451612903225806,0
"461",461,0.140468227424749,0.176470588235294,0.179487179487179,0.185840707964602,0,0.870967741935484,0.290322580645161,0.161290322580645,0,0.032258064516129
"462",462,0.165354330708661,0.199052132701422,0.200956937799043,0.195348837209302,0,0.258064516129032,0.193548387096774,0.0645161290322581,0.354838709677419,0.0645161290322581
"463",463,0.159695817490494,0.177966101694915,0.178723404255319,0.182608695652174,0.612903225806452,0.0645161290322581,0.032258064516129,0.774193548387097,0.129032258064516,0.032258064516129
"464",464,0.181034482758621,0.2,0.2,0.201923076923077,0.32258064516129,0.903225806451613,0.870967741935484,0.741935483870968,0.0645161290322581,0.612903225806452
"465",465,0.222222222222222,0.248520710059172,0.248520710059172,0.253012048192771,0.741935483870968,0.32258064516129,0.258064516129032,0.129032258064516,0.129032258064516,0.838709677419355
"466",466,0.199052132701422,0.219895287958115,0.221052631578947,0.224598930481283,0.709677419354839,0.129032258064516,0.258064516129032,0.032258064516129,0.0967741935483871,0.0645161290322581
"467",467,0.172131147540984,0.241379310344828,0.241379310344828,0.241379310344828,0.129032258064516,0.032258064516129,0,0.0645161290322581,0.032258064516129,0
"468",468,0.154411764705882,0.165354330708661,0.16600790513834,0.16600790513834,0.516129032258065,1,1,1,0.483870967741935,0.935483870967742
"469",469,0.25609756097561,0.347107438016529,0.347107438016529,0.355932203389831,0.0645161290322581,0.935483870967742,0.967741935483871,0.774193548387097,0,0.451612903225806
"470",470,0.2,0.217616580310881,0.21875,0.219895287958115,0.580645161290323,0.0967741935483871,0,0.032258064516129,0.290322580645161,1
"471",471,0.208955223880597,0.228260869565217,0.229508196721311,0.232044198895028,0.967741935483871,0.935483870967742,0.935483870967742,0.67741935483871,0.0645161290322581,0.645161290322581
"472",472,0.201923076923077,0.247058823529412,0.244186046511628,0.244186046511628,0.419354838709677,0.516129032258065,0.516129032258065,0.483870967741935,0.193548387096774,0.0645161290322581
"473",473,0.178723404255319,0.199052132701422,0.199052132701422,0.204878048780488,0.967741935483871,0.935483870967742,0.935483870967742,0.903225806451613,0.645161290322581,0.709677419354839
"474",474,0.19811320754717,0.216494845360825,0.217616580310881,0.221052631578947,0.193548387096774,0.67741935483871,0.935483870967742,0.419354838709677,0.870967741935484,0.612903225806452
"475",475,0.172839506172839,0.221052631578947,0.228260869565217,0.233333333333333,0,0.354838709677419,0,0.0645161290322581,0,0
"476",476,0.185022026431718,0.223404255319149,0.225806451612903,0.230769230769231,0,0.0645161290322581,0.161290322580645,0.645161290322581,0.516129032258065,0.387096774193548
"477",477,0.203883495145631,0.221052631578947,0.222222222222222,0.228260869565217,0.548387096774194,0.354838709677419,0.32258064516129,0.32258064516129,0.903225806451613,0.612903225806452
"478",478,0.182608695652174,0.207920792079208,0.21,0.21,0.419354838709677,0.580645161290323,0.774193548387097,0.645161290322581,0.193548387096774,0.354838709677419
"479",479,0.179487179487179,0.241379310344828,0.238636363636364,0.238636363636364,0.0967741935483871,0.419354838709677,0.258064516129032,0.354838709677419,0,0.0967741935483871
"480",480,0.16030534351145,0.159695817490494,0.159695817490494,0.159695817490494,0,0.387096774193548,0.258064516129032,0.290322580645161,0.258064516129032,0
"481",481,0.169354838709677,0.207920792079208,0.212121212121212,0.21875,0.516129032258065,0.0645161290322581,0.483870967741935,0.161290322580645,0.0967741935483871,0.032258064516129
"482",482,0.197183098591549,0.212121212121212,0.213197969543147,0.215384615384615,0.32258064516129,0.161290322580645,0.258064516129032,0.483870967741935,0.032258064516129,0.580645161290323
"483",483,0.180257510729614,0.176470588235294,0.176470588235294,0.176470588235294,0.741935483870968,0.387096774193548,0.354838709677419,0.419354838709677,0.451612903225806,0.903225806451613
"484",484,0.196261682242991,0.196261682242991,0.196261682242991,0.196261682242991,0.612903225806452,0.709677419354839,0.612903225806452,0.645161290322581,0.516129032258065,0
"485",485,0.164705882352941,0.177215189873418,0.177215189873418,0.177215189873418,0.354838709677419,0.838709677419355,0.67741935483871,0.838709677419355,0.0645161290322581,0.967741935483871
"486",486,0.235955056179775,0.291666666666667,0.291666666666667,0.304347826086957,0.387096774193548,0.548387096774194,0.548387096774194,0.225806451612903,0.225806451612903,0.0967741935483871
"487",487,0.212121212121212,0.230769230769231,0.232044198895028,0.238636363636364,0.806451612903226,0.32258064516129,0.32258064516129,0.516129032258065,0.612903225806452,0.129032258064516
"488",488,0.165354330708661,0.197183098591549,0.197183098591549,0.204878048780488,0,0.0967741935483871,0.193548387096774,0.161290322580645,0.516129032258065,0.032258064516129
"489",489,0.159090909090909,0.157303370786517,0.157303370786517,0.157303370786517,0.225806451612903,0.870967741935484,0.935483870967742,0.741935483870968,0.67741935483871,0.129032258064516
"490",490,0.199052132701422,0.215384615384615,0.215384615384615,0.21875,0.0967741935483871,0.838709677419355,0.645161290322581,0.290322580645161,0.838709677419355,0.387096774193548
"491",491,0.160919540229885,0.213197969543147,0.216494845360825,0.216494845360825,0.0645161290322581,0.774193548387097,0.32258064516129,0.419354838709677,0.838709677419355,0.870967741935484
"492",492,0.188340807174888,0.242774566473988,0.245614035087719,0.257668711656442,0,0.032258064516129,0.032258064516129,0.161290322580645,0,0.0967741935483871
"493",493,0.212121212121212,0.229508196721311,0.230769230769231,0.23728813559322,0.903225806451613,0.32258064516129,0.387096774193548,0.903225806451613,0.741935483870968,0.193548387096774
"494",494,0.164705882352941,0.181034482758621,0.180257510729614,0.179487179487179,0.193548387096774,0.870967741935484,0.806451612903226,0.774193548387097,0.0967741935483871,0.483870967741935
"495",495,0.196261682242991,0.254545454545455,0.259259259259259,0.269230769230769,0.161290322580645,0.451612903225806,0.612903225806452,0.0967741935483871,0.0645161290322581,0
"496",496,0.206896551724138,0.230769230769231,0.232044198895028,0.23728813559322,0.032258064516129,0.419354838709677,0.580645161290323,0.612903225806452,0.290322580645161,0.516129032258065
"497",497,0.172131147540984,0.204878048780488,0.208955223880597,0.197183098591549,0.0967741935483871,0.129032258064516,0.032258064516129,0.129032258064516,0.0967741935483871,0.129032258064516
"498",498,0.2,0.283783783783784,0.283783783783784,0.283783783783784,0.032258064516129,0.354838709677419,0.161290322580645,0.258064516129032,0.193548387096774,0.225806451612903
"499",499,0.189189189189189,0.199052132701422,0.199052132701422,0.196261682242991,0.870967741935484,0.516129032258065,0.32258064516129,0.290322580645161,0.580645161290323,0.967741935483871
"500",500,0.180257510729614,0.193548387096774,0.195348837209302,0.19811320754717,0.129032258064516,0.32258064516129,0.193548387096774,0.0967741935483871,0.193548387096774,0.161290322580645
