"","i","estimated_prop_After_Q_b_F_C","estimated_prop_After_mean","estimated_prop_After_median","estimated_prop_After_mode","Q_b_F_C_P_value","mean_P_value","median_P_value","mode_P_value","p_value_Before_Handling","p_value_OriginalData"
"1",1,0.171606864274571,0.224948875255624,0.227743271221532,0.227743271221532,0,0.032258064516129,0,0,0,0
"2",2,0.164424514200299,0.189328743545611,0.191972076788831,0.200364298724954,0,0.483870967741935,0.225806451612903,0,0,0.193548387096774
"3",3,0.173501577287066,0.207156308851224,0.210325047801147,0.210325047801147,0.0645161290322581,0.129032258064516,0.0967741935483871,0.0967741935483871,0,0.0967741935483871
"4",4,0.171606864274571,0.214424951267057,0.214424951267057,0.220883534136546,0,0.483870967741935,0.419354838709677,0.129032258064516,0,0.0645161290322581
"5",5,0.155367231638418,0.188034188034188,0.189655172413793,0.178861788617886,0.0967741935483871,0.838709677419355,0.451612903225806,0.258064516129032,0.0967741935483871,0.0967741935483871
"6",6,0.215686274509804,0.287958115183246,0.291777188328912,0.291777188328912,0,0,0,0,0,0.580645161290323
"7",7,0.167427701674277,0.184254606365159,0.186125211505922,0.191972076788831,0.0645161290322581,0.483870967741935,0.612903225806452,0.032258064516129,0,0.774193548387097
"8",8,0.161290322580645,0.181818181818182,0.183639398998331,0.183639398998331,0.032258064516129,0,0,0,0,0
"9",9,0.179738562091503,0.230607966457023,0.233050847457627,0.240700218818381,0,0.193548387096774,0.387096774193548,0,0,0.032258064516129
"10",10,0.179445350734095,0.201834862385321,0.204081632653061,0.206378986866792,0,0,0,0,0,0.032258064516129
"11",11,0.171606864274571,0.244988864142539,0.244988864142539,0.249433106575964,0,0,0,0,0,0
"12",12,0.158730158730159,0.169230769230769,0.170278637770898,0.172955974842767,0,0.032258064516129,0,0,0.612903225806452,0.290322580645161
"13",13,0.169491525423729,0.183028286189684,0.184873949579832,0.187393526405451,0,0,0,0,0,0.032258064516129
"14",14,0.15406162464986,0.188679245283019,0.190311418685121,0.190311418685121,0,0.258064516129032,0.225806451612903,0.258064516129032,0,0.225806451612903
"15",15,0.157819225251076,0.183639398998331,0.186125211505922,0.194003527336861,0,0.193548387096774,0,0,0,0.354838709677419
"16",16,0.146276595744681,0.173228346456693,0.175438596491228,0.175438596491228,0,0.903225806451613,0.612903225806452,0.580645161290323,0,0.354838709677419
"17",17,0.180921052631579,0.237068965517241,0.237068965517241,0.244988864142539,0,0.903225806451613,0.774193548387097,0.129032258064516,0,0.354838709677419
"18",18,0.175718849840256,0.1985559566787,0.1985559566787,0.207547169811321,0,0,0,0.387096774193548,0,0
"19",19,0.149051490514905,0.165165165165165,0.166666666666667,0.168970814132104,0.0645161290322581,0.225806451612903,0.290322580645161,0.032258064516129,0.0645161290322581,0.32258064516129
"20",20,0.172955974842767,0.218687872763419,0.220883534136546,0.223123732251521,0,0,0,0,0,0.67741935483871
"21",21,0.166666666666667,0.212765957446809,0.21484375,0.221327967806841,0,0.032258064516129,0.032258064516129,0.387096774193548,0,0.548387096774194
"22",22,0.15130674002751,0.197841726618705,0.197841726618705,0.208333333333333,0,0.161290322580645,0.258064516129032,0,0,0.225806451612903
"23",23,0.167427701674277,0.238095238095238,0.238095238095238,0.246636771300448,0,0,0.0645161290322581,0.032258064516129,0,0.32258064516129
"24",24,0.163690476190476,0.19434628975265,0.197132616487455,0.202952029520295,0,0.0967741935483871,0,0,0,0.0645161290322581
"25",25,0.180623973727422,0.214424951267057,0.214424951267057,0.214424951267057,0,0,0.032258064516129,0.032258064516129,0,0.129032258064516
"26",26,0.162962962962963,0.176282051282051,0.17741935483871,0.180327868852459,0.354838709677419,0,0,0.419354838709677,0.193548387096774,0
"27",27,0.189003436426117,0.228215767634855,0.230607966457023,0.235546038543897,0.290322580645161,0.387096774193548,0.0645161290322581,0.032258064516129,0.258064516129032,0.129032258064516
"28",28,0.176,0.216110019646365,0.216110019646365,0.224948875255624,0,0.580645161290323,0.67741935483871,0.161290322580645,0,0
"29",29,0.153846153846154,0.176565008025682,0.177705977382876,0.175438596491228,0.741935483870968,0.258064516129032,0.419354838709677,0.419354838709677,0.741935483870968,0.258064516129032
"30",30,0.17741935483871,0.215686274509804,0.215686274509804,0.215686274509804,0,0.0645161290322581,0.0645161290322581,0,0.67741935483871,0.838709677419355
"31",31,0.155807365439093,0.200729927007299,0.200729927007299,0.196428571428571,0,0.67741935483871,0.548387096774194,0.32258064516129,0.161290322580645,0.193548387096774
"32",32,0.15625,0.186125211505922,0.188679245283019,0.189982728842832,0,0,0,0,0,0
"33",33,0.15406162464986,0.175718849840256,0.178282009724473,0.182724252491694,0,0,0,0,0,0
"34",34,0.164917541229385,0.170807453416149,0.171875,0.172684458398744,0,0,0,0,0,0.129032258064516
"35",35,0.163447251114413,0.200729927007299,0.204460966542751,0.208333333333333,0.032258064516129,0.387096774193548,0,0,0,0
"36",36,0.171339563862928,0.213178294573643,0.211132437619962,0.211132437619962,0.161290322580645,0.0645161290322581,0.0967741935483871,0.129032258064516,0,0.483870967741935
"37",37,0.160116448326055,0.177705977382876,0.177705977382876,0.177705977382876,0.161290322580645,0.903225806451613,0.935483870967742,0.870967741935484,0.032258064516129,0.387096774193548
"38",38,0.154929577464789,0.165413533834586,0.166919575113809,0.16793893129771,0,0.032258064516129,0.032258064516129,0,0.32258064516129,0.290322580645161
"39",39,0.177133655394525,0.191304347826087,0.191972076788831,0.194003527336861,0,0,0,0,0,0
"40",40,0.189003436426117,0.251141552511416,0.254041570438799,0.263157894736842,0,0.548387096774194,0.387096774193548,0,0,0
"41",41,0.158730158730159,0.179445350734095,0.180327868852459,0.186757215619694,0.0645161290322581,1,1,0.161290322580645,0,0.032258064516129
"42",42,0.171339563862928,0.219123505976096,0.221774193548387,0.221774193548387,0,0.967741935483871,0.193548387096774,0.225806451612903,0,0.258064516129032
"43",43,0.165165165165165,0.198198198198198,0.2,0.2,0.967741935483871,0.548387096774194,0.225806451612903,0.225806451612903,0.838709677419355,0.0645161290322581
"44",44,0.169230769230769,0.16793893129771,0.16793893129771,0.16793893129771,0.032258064516129,0,0,0,0.032258064516129,0.0645161290322581
"45",45,0.182724252491694,0.197841726618705,0.1985559566787,0.202205882352941,0,0,0,0,0,0.161290322580645
"46",46,0.149863760217984,0.154494382022472,0.154929577464789,0.154929577464789,0,0.193548387096774,0.032258064516129,0.032258064516129,0,0.806451612903226
"47",47,0.163204747774481,0.201834862385321,0.205607476635514,0.20952380952381,0,0.193548387096774,0.032258064516129,0.032258064516129,0,1
"48",48,0.15130674002751,0.183639398998331,0.185185185185185,0.196779964221825,0,0.354838709677419,0.258064516129032,0.0967741935483871,0.032258064516129,0.0645161290322581
"49",49,0.16566265060241,0.183639398998331,0.185497470489039,0.189328743545611,0.161290322580645,0,0,1,0.032258064516129,0.032258064516129
"50",50,0.16566265060241,0.170542635658915,0.171073094867807,0.171606864274571,0.516129032258065,0,0,0,0.645161290322581,0
"51",51,0.176,0.205992509363296,0.207547169811321,0.212355212355212,0.0967741935483871,0.516129032258065,0.548387096774194,0.0645161290322581,0.0645161290322581,0.516129032258065
"52",52,0.159420289855072,0.197486535008977,0.199637023593466,0.213592233009709,0.612903225806452,0.32258064516129,0.225806451612903,0,0.0645161290322581,0.419354838709677
"53",53,0.168711656441718,0.216110019646365,0.218687872763419,0.224032586558045,0.032258064516129,0.774193548387097,0.709677419354839,0.032258064516129,0,0
"54",54,0.155807365439093,0.16793893129771,0.168970814132104,0.171606864274571,0.225806451612903,0,0,0.387096774193548,0.0645161290322581,0.032258064516129
"55",55,0.180921052631579,0.227272727272727,0.230125523012552,0.239130434782609,0.258064516129032,0,0.741935483870968,0.032258064516129,0.032258064516129,0.32258064516129
"56",56,0.159420289855072,0.164179104477612,0.164670658682635,0.165413533834586,0,0,0.032258064516129,0,0,0.258064516129032
"57",57,0.162241887905605,0.191304347826087,0.192644483362522,0.19538188277087,0,0,0,0,0,0
"58",58,0.17741935483871,0.220883534136546,0.223123732251521,0.230125523012552,0,0,0,0.225806451612903,0,0.290322580645161
"59",59,0.155807365439093,0.239130434782609,0.234042553191489,0.25,0,0.354838709677419,0.548387096774194,0,0,0
"60",60,0.162241887905605,0.202952029520295,0.206766917293233,0.212765957446809,0,0.032258064516129,0,0,0,0
"61",61,0.176282051282051,0.230125523012552,0.233050847457627,0.224489795918367,0,0.548387096774194,0.967741935483871,0.548387096774194,0.0645161290322581,0.806451612903226
"62",62,0.158959537572254,0.19538188277087,0.197132616487455,0.202578268876611,0,0,0,0.0967741935483871,0.258064516129032,0.161290322580645
"63",63,0.16793893129771,0.206766917293233,0.212765957446809,0.212765957446809,0,0,0,0,0,0.129032258064516
"64",64,0.184254606365159,0.243362831858407,0.243362831858407,0.25,0,0.516129032258065,0.548387096774194,0.0967741935483871,0,1
"65",65,0.155807365439093,0.167173252279635,0.169230769230769,0.170807453416149,0,0.032258064516129,0,0,0,0.032258064516129
"66",66,0.165413533834586,0.202205882352941,0.207939508506616,0.209923664122137,0,0.0645161290322581,0,0,0,0
"67",67,0.15625,0.168195718654434,0.168711656441718,0.168711656441718,0,0.161290322580645,0.290322580645161,0.258064516129032,0,0
"68",68,0.155367231638418,0.178571428571429,0.179738562091503,0.184563758389262,0,0,0,0,0.032258064516129,0
"69",69,0.148648648648649,0.166666666666667,0.167427701674277,0.162241887905605,0,0.67741935483871,0.580645161290323,0.354838709677419,0,0.548387096774194
"70",70,0.161290322580645,0.217821782178218,0.217821782178218,0.221327967806841,0.0967741935483871,0.451612903225806,0.225806451612903,0.161290322580645,0.0645161290322581,0.0967741935483871
"71",71,0.172413793103448,0.197841726618705,0.200729927007299,0.202205882352941,0.161290322580645,0.161290322580645,0,0.032258064516129,0.161290322580645,0.0645161290322581
"72",72,0.169491525423729,0.215264187866928,0.217391304347826,0.221774193548387,0,0,0,0,0,0.290322580645161
"73",73,0.164917541229385,0.216110019646365,0.219123505976096,0.207547169811321,0,0,0,0,0,0.580645161290323
"74",74,0.163934426229508,0.200364298724954,0.202578268876611,0.202578268876611,0.612903225806452,0.67741935483871,0.161290322580645,0.258064516129032,0.516129032258065,0.225806451612903
"75",75,0.171073094867807,0.193661971830986,0.195729537366548,0.2,0,0,1,0.129032258064516,0.032258064516129,0
"76",76,0.150273224043716,0.178861788617886,0.180327868852459,0.180327868852459,0.548387096774194,0.774193548387097,0.741935483870968,0.774193548387097,0.483870967741935,0.451612903225806
"77",77,0.162962962962963,0.216535433070866,0.219560878243513,0.232558139534884,0,0,0.0967741935483871,0.0645161290322581,0,0
"78",78,0.17515923566879,0.196428571428571,0.1985559566787,0.202952029520295,0,0.0645161290322581,0.032258064516129,0.032258064516129,0,0.0645161290322581
"79",79,0.180921052631579,0.23109243697479,0.233545647558386,0.233545647558386,0,0,0,0,0,0.354838709677419
"80",80,0.172684458398744,0.187393526405451,0.189328743545611,0.191972076788831,0,0.354838709677419,0.0645161290322581,0.0967741935483871,0,1
"81",81,0.161764705882353,0.214007782101167,0.216535433070866,0.216535433070866,0,0.516129032258065,0.516129032258065,0.258064516129032,0,0.645161290322581
"82",82,0.205992509363296,0.260663507109005,0.26378896882494,0.266990291262136,0,0.903225806451613,0.774193548387097,0.709677419354839,0,0.387096774193548
"83",83,0.150273224043716,0.191972076788831,0.194003527336861,0.182421227197347,0.0645161290322581,0.032258064516129,0.870967741935484,0.225806451612903,0,0
"84",84,0.185185185185185,0.227743271221532,0.230125523012552,0.235042735042735,0,0.419354838709677,0.354838709677419,0.032258064516129,0,0
"85",85,0.147651006711409,0.158273381294964,0.159651669085631,0.160583941605839,0,0.0645161290322581,0.032258064516129,0,0.032258064516129,0.0645161290322581
"86",86,0.168970814132104,0.204841713221601,0.208728652751423,0.210727969348659,0,0.032258064516129,0,0,0,0
"87",87,0.184563758389262,0.190972222222222,0.191637630662021,0.192982456140351,0,0.032258064516129,0.032258064516129,0,0,0.387096774193548
"88",88,0.165413533834586,0.204460966542751,0.209125475285171,0.209125475285171,0.225806451612903,0,0.129032258064516,0.032258064516129,0.129032258064516,0.161290322580645
"89",89,0.162241887905605,0.191304347826087,0.192644483362522,0.199637023593466,0.129032258064516,0.129032258064516,0.0967741935483871,0.580645161290323,0.032258064516129,0.0645161290322581
"90",90,0.164179104477612,0.224489795918367,0.227272727272727,0.239130434782609,0,0.548387096774194,0.129032258064516,0.0967741935483871,0,0.290322580645161
"91",91,0.163204747774481,0.221327967806841,0.224948875255624,0.221327967806841,0,0,0.193548387096774,0,0,0
"92",92,0.164917541229385,0.200364298724954,0.204081632653061,0.205992509363296,0,0.806451612903226,0.161290322580645,0.0967741935483871,0,0.0645161290322581
"93",93,0.180032733224223,0.222672064777328,0.224948875255624,0.22964509394572,0,0.709677419354839,0.387096774193548,0.0645161290322581,0,0.032258064516129
"94",94,0.169491525423729,0.202952029520295,0.204460966542751,0.204460966542751,0.032258064516129,0.225806451612903,0.193548387096774,0.0967741935483871,0,0.161290322580645
"95",95,0.19434628975265,0.255220417633411,0.258823529411765,0.26634382566586,0,0.0645161290322581,0,0.161290322580645,0,0
"96",96,0.154277699859748,0.201465201465201,0.205992509363296,0.208333333333333,0.032258064516129,0.032258064516129,0,0.0645161290322581,0,0.032258064516129
"97",97,0.163447251114413,0.199275362318841,0.20109689213894,0.204841713221601,0.0645161290322581,0,0,0,0,0.741935483870968
"98",98,0.169230769230769,0.181818181818182,0.182421227197347,0.185497470489039,0,0.709677419354839,0.612903225806452,0.0645161290322581,0,0.548387096774194
"99",99,0.160583941605839,0.196779964221825,0.200364298724954,0.202205882352941,0,0,0,0,0,0.935483870967742
"100",100,0.156028368794326,0.201465201465201,0.203703703703704,0.210727969348659,0,0.032258064516129,0.0645161290322581,0,0,0
"101",101,0.150068212824011,0.167682926829268,0.168453292496172,0.172413793103448,0.161290322580645,0,0.032258064516129,0.225806451612903,0,0
"102",102,0.185810810810811,0.241228070175439,0.241228070175439,0.238095238095238,0,0.193548387096774,0.32258064516129,0.354838709677419,0,0.032258064516129
"103",103,0.159189580318379,0.19538188277087,0.19538188277087,0.193661971830986,0.419354838709677,0.354838709677419,0.387096774193548,0.354838709677419,0.129032258064516,0.032258064516129
"104",104,0.180032733224223,0.209125475285171,0.212355212355212,0.209125475285171,0,0.032258064516129,0.032258064516129,0,0,0.032258064516129
"105",105,0.168711656441718,0.202578268876611,0.205607476635514,0.205607476635514,0,0.032258064516129,0,0,0,0
"106",106,0.150891632373114,0.163204747774481,0.164179104477612,0.167173252279635,0.290322580645161,0,0,0.387096774193548,0.258064516129032,0
"107",107,0.134146341463415,0.133657351154313,0.133657351154313,0.133657351154313,0,0,0,0,0,0.32258064516129
"108",108,0.176848874598071,0.207547169811321,0.210727969348659,0.219123505976096,0,0.129032258064516,0.129032258064516,0,0,0
"109",109,0.176848874598071,0.24390243902439,0.24390243902439,0.252873563218391,0,0.193548387096774,0.161290322580645,0.193548387096774,0,0.032258064516129
"110",110,0.149659863945578,0.197486535008977,0.200364298724954,0.200364298724954,0.032258064516129,0.0967741935483871,0,0.0645161290322581,0.032258064516129,0.032258064516129
"111",111,0.155148095909732,0.166414523449319,0.16793893129771,0.170542635658915,0,0.290322580645161,0,0.032258064516129,0,0.419354838709677
"112",112,0.160116448326055,0.207939508506616,0.213592233009709,0.216535433070866,0.032258064516129,0.354838709677419,0.0967741935483871,0,0,0
"113",113,0.173775671406003,0.203327171903882,0.206378986866792,0.212765957446809,0.516129032258065,0.580645161290323,0.161290322580645,0,0.258064516129032,0.225806451612903
"114",114,0.190972222222222,0.256410256410256,0.260047281323877,0.26378896882494,0,0.161290322580645,0,0.451612903225806,0,0.032258064516129
"115",115,0.196779964221825,0.240174672489083,0.242290748898678,0.251141552511416,0,0.193548387096774,0.32258064516129,0.0645161290322581,0,0.0645161290322581
"116",116,0.175718849840256,0.203327171903882,0.206378986866792,0.20952380952381,0,0,0,0.645161290322581,0,1
"117",117,0.195729537366548,0.259433962264151,0.263157894736842,0.270935960591133,0,0,0,0.0645161290322581,0,0
"118",118,0.165165165165165,0.170542635658915,0.171339563862928,0.172413793103448,0,0.0967741935483871,0.032258064516129,0.032258064516129,0,0.032258064516129
"119",119,0.174880763116057,0.220883534136546,0.223123732251521,0.225409836065574,0,0.612903225806452,0.516129032258065,0.290322580645161,0,0.0967741935483871
"120",120,0.172955974842767,0.208728652751423,0.21484375,0.21484375,0,0.193548387096774,0,0,0,0
"121",121,0.176565008025682,0.204460966542751,0.204460966542751,0.204460966542751,0.193548387096774,0.0645161290322581,0.193548387096774,0.0645161290322581,0.032258064516129,0.193548387096774
"122",122,0.1743264659271,0.217821782178218,0.22,0.22,0.032258064516129,0.580645161290323,0.645161290322581,0.483870967741935,0.032258064516129,0.129032258064516
"123",123,0.159651669085631,0.176282051282051,0.177133655394525,0.180623973727422,0.483870967741935,0,0,0,0.32258064516129,0
"124",124,0.188034188034188,0.262529832935561,0.271604938271605,0.271604938271605,0,0.903225806451613,0.193548387096774,0.258064516129032,0,0.451612903225806
"125",125,0.170807453416149,0.206766917293233,0.209923664122137,0.216535433070866,0,0.0645161290322581,0.032258064516129,0,0,0
"126",126,0.165912518853695,0.185497470489039,0.187393526405451,0.192307692307692,0.161290322580645,0.032258064516129,0,0,0.0967741935483871,0.129032258064516
"127",127,0.17741935483871,0.226337448559671,0.229166666666667,0.241228070175439,0,0.580645161290323,0.516129032258065,0.0645161290322581,0.032258064516129,0.290322580645161
"128",128,0.177993527508091,0.214007782101167,0.215686274509804,0.224489795918367,0,0.870967741935484,0.967741935483871,0,0,0.612903225806452
"129",129,0.176565008025682,0.22680412371134,0.229166666666667,0.239130434782609,0,0.0967741935483871,0,0,0,0.290322580645161
"130",130,0.146276595744681,0.176565008025682,0.179445350734095,0.179445350734095,0,0,0,0,0,0.419354838709677
"131",131,0.161054172767204,0.194690265486726,0.194690265486726,0.192982456140351,0,0,0,0,0,0.838709677419355
"132",132,0.160818713450292,0.179738562091503,0.181518151815182,0.182421227197347,0.67741935483871,0.129032258064516,0,0.032258064516129,0.354838709677419,0.645161290322581
"133",133,0.1743264659271,0.21484375,0.216962524654832,0.216962524654832,0.354838709677419,0.0967741935483871,0.0645161290322581,0,0.032258064516129,0.838709677419355
"134",134,0.162962962962963,0.195035460992908,0.196779964221825,0.1985559566787,0,0,0,0,0,0.870967741935484
"135",135,0.161054172767204,0.202952029520295,0.205223880597015,0.209923664122137,0,0,0.290322580645161,0,0,0.032258064516129
"136",136,0.163690476190476,0.214007782101167,0.216962524654832,0.216962524654832,0,0.0967741935483871,0.516129032258065,0.387096774193548,0.580645161290323,0.0967741935483871
"137",137,0.171073094867807,0.182421227197347,0.184254606365159,0.186125211505922,0.032258064516129,0.290322580645161,0.129032258064516,0,0.032258064516129,0.258064516129032
"138",138,0.171875,0.223123732251521,0.225409836065574,0.232558139534884,0.032258064516129,0.838709677419355,0.290322580645161,0.32258064516129,0.032258064516129,1
"139",139,0.166163141993958,0.201465201465201,0.203327171903882,0.215264187866928,0.161290322580645,0.32258064516129,0.0967741935483871,0.129032258064516,0.032258064516129,0
"140",140,0.145502645502645,0.15647226173542,0.158273381294964,0.159651669085631,0.032258064516129,0.161290322580645,0.0967741935483871,0.032258064516129,0,0
"141",141,0.17741935483871,0.217391304347826,0.219560878243513,0.221774193548387,0,0,0,0,0,0.741935483870968
"142",142,0.156028368794326,0.191304347826087,0.194690265486726,0.196428571428571,0,0,0,0,0,0.741935483870968
"143",143,0.175438596491228,0.228215767634855,0.23109243697479,0.243362831858407,0,0.0967741935483871,0,0.0967741935483871,0,0.193548387096774
"144",144,0.150684931506849,0.154711673699015,0.155148095909732,0.15625,0.0645161290322581,0.32258064516129,0.451612903225806,0.193548387096774,0.0967741935483871,0
"145",145,0.15625,0.213178294573643,0.213178294573643,0.227272727272727,0,0.32258064516129,0.258064516129032,0,0,0.193548387096774
"146",146,0.153203342618384,0.199637023593466,0.202205882352941,0.204841713221601,0.032258064516129,0.258064516129032,0.032258064516129,0,0.032258064516129,0
"147",147,0.170807453416149,0.219123505976096,0.221327967806841,0.233050847457627,0,0,0,0.0967741935483871,0,0.548387096774194
"148",148,0.183946488294314,0.229166666666667,0.231578947368421,0.241758241758242,0,0.129032258064516,0.129032258064516,0.32258064516129,0,0.935483870967742
"149",149,0.155148095909732,0.172413793103448,0.174880763116057,0.176565008025682,0.0967741935483871,0,0,0,0.032258064516129,0
"150",150,0.171606864274571,0.197486535008977,0.198915009041591,0.201834862385321,0.032258064516129,0.258064516129032,0.032258064516129,0,0,0.0645161290322581
"151",151,0.169491525423729,0.220440881763527,0.223123732251521,0.228690228690229,0,0.258064516129032,0.516129032258065,0.0645161290322581,0,0.612903225806452
"152",152,0.152777777777778,0.184563758389262,0.184563758389262,0.181518151815182,0.161290322580645,0.0645161290322581,0.0967741935483871,0,0.0967741935483871,0.032258064516129
"153",153,0.164179104477612,0.179445350734095,0.182119205298013,0.183028286189684,0,0.0967741935483871,0,0,0.32258064516129,0.0967741935483871
"154",154,0.179153094462541,0.22680412371134,0.231578947368421,0.231578947368421,0,0,0,0.032258064516129,0,0
"155",155,0.167682926829268,0.214007782101167,0.214007782101167,0.227272727272727,0,0.548387096774194,0.612903225806452,0,0,0
"156",156,0.157367668097282,0.191972076788831,0.191972076788831,0.200729927007299,0,0.612903225806452,0.774193548387097,0.290322580645161,0.290322580645161,0.161290322580645
"157",157,0.15130674002751,0.170807453416149,0.173228346456693,0.173228346456693,0,0.161290322580645,0.0967741935483871,0.258064516129032,0,0.258064516129032
"158",158,0.179153094462541,0.225872689938398,0.228215767634855,0.228215767634855,0,0,0,0,0,0
"159",159,0.155367231638418,0.167427701674277,0.168453292496172,0.171073094867807,0.193548387096774,0.903225806451613,0.774193548387097,0.258064516129032,0.032258064516129,0
"160",160,0.168970814132104,0.19434628975265,0.196428571428571,0.200729927007299,0,0.483870967741935,0.451612903225806,0,0,0.516129032258065
"161",161,0.151724137931034,0.155586987270156,0.156028368794326,0.15647226173542,0.032258064516129,0.032258064516129,0,0.032258064516129,0.032258064516129,0.0967741935483871
"162",162,0.191304347826087,0.246085011185682,0.248868778280543,0.25462962962963,0,0.129032258064516,0.258064516129032,0,0,0
"163",163,0.162481536189069,0.174603174603175,0.175718849840256,0.177993527508091,0.483870967741935,0,0,0.354838709677419,0.129032258064516,0.032258064516129
"164",164,0.174050632911392,0.213592233009709,0.215686274509804,0.217821782178218,0.032258064516129,0,0,0.32258064516129,0.0645161290322581,0.0645161290322581
"165",165,0.152565880721221,0.171339563862928,0.172955974842767,0.177993527508091,0.483870967741935,0.032258064516129,0,0,0.161290322580645,0.709677419354839
"166",166,0.173501577287066,0.20952380952381,0.213592233009709,0.211538461538462,0.0967741935483871,0,0,0,0,0.387096774193548
"167",167,0.147651006711409,0.187074829931973,0.189328743545611,0.194003527336861,0,1,0.580645161290323,0.032258064516129,0,0.612903225806452
"168",168,0.156695156695157,0.170278637770898,0.171875,0.17515923566879,0,0,0,0,0,0.193548387096774
"169",169,0.17741935483871,0.222222222222222,0.22680412371134,0.229166666666667,0,0,0,0,0,0
"170",170,0.160818713450292,0.214424951267057,0.216962524654832,0.20952380952381,0,0.290322580645161,0.290322580645161,0.129032258064516,0,0.419354838709677
"171",171,0.193321616871705,0.248868778280543,0.252293577981651,0.259433962264151,0.032258064516129,0.0645161290322581,0.032258064516129,0.0645161290322581,0.032258064516129,0.129032258064516
"172",172,0.136645962732919,0.166163141993958,0.168711656441718,0.171339563862928,0.032258064516129,0,0,0,0.032258064516129,0
"173",173,0.145118733509235,0.145118733509235,0.145118733509235,0.145118733509235,0,0,0,0,0,0.032258064516129
"174",174,0.155367231638418,0.176565008025682,0.178861788617886,0.181219110378913,0,0.225806451612903,0.032258064516129,0,0.419354838709677,0
"175",175,0.183333333333333,0.198915009041591,0.20109689213894,0.20109689213894,0,0,0,0,0,0.0645161290322581
"176",176,0.164179104477612,0.227743271221532,0.23109243697479,0.253456221198157,0.354838709677419,0.032258064516129,0,0.354838709677419,0.483870967741935,0
"177",177,0.160583941605839,0.219123505976096,0.222222222222222,0.222222222222222,0,0.032258064516129,0.032258064516129,0.032258064516129,0,0
"178",178,0.175438596491228,0.212765957446809,0.21484375,0.21484375,0,0.225806451612903,0.032258064516129,0.161290322580645,0.032258064516129,0
"179",179,0.179153094462541,0.215686274509804,0.217391304347826,0.224489795918367,0,0.290322580645161,0.0967741935483871,0,0,0.32258064516129
"180",180,0.180921052631579,0.246636771300448,0.250569476082005,0.235546038543897,0,0,0.838709677419355,0.0645161290322581,0,0.516129032258065
"181",181,0.158045977011494,0.184254606365159,0.186757215619694,0.185497470489039,0,0.838709677419355,0.290322580645161,0.161290322580645,0,0.161290322580645
"182",182,0.158730158730159,0.188034188034188,0.189655172413793,0.196428571428571,0,0.032258064516129,0,0.419354838709677,0.354838709677419,0.419354838709677
"183",183,0.152354570637119,0.183946488294314,0.185497470489039,0.193661971830986,0.161290322580645,0,0,0.032258064516129,0.193548387096774,0.580645161290323
"184",184,0.161290322580645,0.188679245283019,0.192644483362522,0.196779964221825,0,0.032258064516129,0.0645161290322581,0,0,0.0645161290322581
"185",185,0.171875,0.219560878243513,0.222222222222222,0.236559139784946,0,0,0,0,0,0.129032258064516
"186",186,0.165165165165165,0.201465201465201,0.205223880597015,0.207156308851224,0,0,0,0,0,0.709677419354839
"187",187,0.165912518853695,0.191304347826087,0.193321616871705,0.19434628975265,0,0.32258064516129,0.290322580645161,0.032258064516129,0,0.548387096774194
"188",188,0.173501577287066,0.202205882352941,0.205223880597015,0.209923664122137,0.193548387096774,0,0.032258064516129,0,0.0645161290322581,0
"189",189,0.156918687589158,0.179153094462541,0.180327868852459,0.181518151815182,0.129032258064516,1,1,0.612903225806452,0.032258064516129,1
"190",190,0.153631284916201,0.163447251114413,0.164424514200299,0.165912518853695,0.67741935483871,0,0,0,0.354838709677419,0
"191",191,0.158273381294964,0.205223880597015,0.209923664122137,0.21484375,0,0.709677419354839,0.0967741935483871,0,0,1
"192",192,0.152990264255911,0.169491525423729,0.171073094867807,0.171073094867807,0,0.0967741935483871,0.225806451612903,0.225806451612903,0.838709677419355,0.645161290322581
"193",193,0.172955974842767,0.220883534136546,0.223577235772358,0.238095238095238,0,0,0,0,0,0.32258064516129
"194",194,0.175438596491228,0.215264187866928,0.216962524654832,0.225872689938398,0,0.129032258064516,0.193548387096774,0,0,0.0967741935483871
"195",195,0.181518151815182,0.215686274509804,0.217391304347826,0.219123505976096,0,0,0,0,0,0
"196",196,0.177993527508091,0.211946050096339,0.215264187866928,0.222222222222222,0,0.903225806451613,0.225806451612903,0,0,0.290322580645161
"197",197,0.162481536189069,0.211946050096339,0.211946050096339,0.214424951267057,0,0.032258064516129,0,0.032258064516129,0,0.709677419354839
"198",198,0.162481536189069,0.185185185185185,0.186440677966102,0.19434628975265,0.709677419354839,0.709677419354839,0.645161290322581,0,0.709677419354839,0.419354838709677
"199",199,0.150478796169631,0.185810810810811,0.189003436426117,0.194003527336861,0,0,0.032258064516129,0,0,0.774193548387097
"200",200,0.155586987270156,0.19538188277087,0.19538188277087,0.204460966542751,0.0645161290322581,0,0,0.0645161290322581,0,0.032258064516129
"201",201,0.196428571428571,0.251141552511416,0.25462962962963,0.25462962962963,0,0.612903225806452,0.483870967741935,0.387096774193548,0,0.032258064516129
"202",202,0.154929577464789,0.188356164383562,0.189982728842832,0.1985559566787,0,0,0,0.290322580645161,0,0.903225806451613
"203",203,0.183028286189684,0.216535433070866,0.22,0.225409836065574,0,0.354838709677419,0.032258064516129,0.032258064516129,0,0.258064516129032
"204",204,0.183333333333333,0.220883534136546,0.223123732251521,0.223123732251521,0.161290322580645,0.0645161290322581,0.032258064516129,0.0645161290322581,0,0.161290322580645
"205",205,0.175718849840256,0.238095238095238,0.241228070175439,0.251141552511416,0,0.032258064516129,0,0.032258064516129,0,0
"206",206,0.170015455950541,0.224948875255624,0.224948875255624,0.224948875255624,0.032258064516129,0,0.0645161290322581,0,0,0
"207",207,0.167682926829268,0.203327171903882,0.203327171903882,0.201465201465201,0.451612903225806,0.580645161290323,0.67741935483871,0.548387096774194,0.161290322580645,0.161290322580645
"208",208,0.157593123209169,0.174603174603175,0.175438596491228,0.175438596491228,0.032258064516129,0.387096774193548,0.580645161290323,0.516129032258065,0,0.290322580645161
"209",209,0.164670658682635,0.17741935483871,0.178571428571429,0.180921052631579,0,0.032258064516129,0,0,0,0
"210",210,0.180921052631579,0.243362831858407,0.247191011235955,0.247191011235955,0,0.548387096774194,0.258064516129032,0.387096774193548,0,0
"211",211,0.189982728842832,0.258823529411765,0.263157894736842,0.246636771300448,0,0.161290322580645,0.0967741935483871,0,0,0.0967741935483871
"212",212,0.162481536189069,0.168195718654434,0.169230769230769,0.170015455950541,0,0.0967741935483871,0.0645161290322581,0.032258064516129,0,0
"213",213,0.189328743545611,0.251141552511416,0.25462962962963,0.265700483091787,0.032258064516129,0.0645161290322581,0,0,0,0
"214",214,0.192307692307692,0.244988864142539,0.247747747747748,0.247747747747748,0,0.193548387096774,0.0967741935483871,0,0,0.032258064516129
"215",215,0.154277699859748,0.15850144092219,0.158959537572254,0.159883720930233,0.32258064516129,0.580645161290323,0.580645161290323,0.387096774193548,0.193548387096774,0.935483870967742
"216",216,0.161764705882353,0.1743264659271,0.175438596491228,0.177705977382876,0.0967741935483871,0.32258064516129,0.387096774193548,0.225806451612903,0,0
"217",217,0.169491525423729,0.19434628975265,0.196428571428571,0.200729927007299,0,0.516129032258065,0.0967741935483871,0.032258064516129,0,0.548387096774194
"218",218,0.146862483311081,0.185810810810811,0.187713310580205,0.195729537366548,0.516129032258065,0.612903225806452,0.580645161290323,0.354838709677419,0.290322580645161,0.258064516129032
"219",219,0.15625,0.197486535008977,0.201834862385321,0.206378986866792,0,1,0.548387096774194,0.161290322580645,0,0
"220",220,0.173501577287066,0.22964509394572,0.235546038543897,0.235546038543897,0,0.161290322580645,0,0,0,0.967741935483871
"221",221,0.170807453416149,0.213178294573643,0.215264187866928,0.215264187866928,0,0.032258064516129,0.0645161290322581,0.0645161290322581,0,0
"222",222,0.167173252279635,0.24390243902439,0.24390243902439,0.24390243902439,0,0.161290322580645,0.258064516129032,0.32258064516129,0,0.0645161290322581
"223",223,0.171875,0.221774193548387,0.224489795918367,0.233050847457627,0,0.516129032258065,0.258064516129032,0.225806451612903,0,0.32258064516129
"224",224,0.180921052631579,0.216110019646365,0.217821782178218,0.223123732251521,0.0967741935483871,0,0,0.32258064516129,0.032258064516129,0.645161290322581
"225",225,0.183333333333333,0.247747747747748,0.251141552511416,0.265700483091787,0,0.032258064516129,0,0,0,0.161290322580645
"226",226,0.147651006711409,0.152143845089903,0.152777777777778,0.153417015341702,0,0,0,0,0,0
"227",227,0.159189580318379,0.185497470489039,0.188034188034188,0.191972076788831,0.193548387096774,0.354838709677419,0.032258064516129,0,0.032258064516129,0
"228",228,0.170278637770898,0.221774193548387,0.221774193548387,0.219123505976096,0.032258064516129,0.032258064516129,0.0645161290322581,0.0967741935483871,0,0.580645161290323
"229",229,0.163690476190476,0.20109689213894,0.204841713221601,0.204841713221601,0.129032258064516,0,0,0,0,0.225806451612903
"230",230,0.160583941605839,0.165912518853695,0.166666666666667,0.167173252279635,0,0,0,0,0,0.032258064516129
"231",231,0.159651669085631,0.201834862385321,0.204081632653061,0.197486535008977,0,0,0.032258064516129,0.032258064516129,0,0.483870967741935
"232",232,0.162721893491124,0.184873949579832,0.186757215619694,0.187713310580205,0.161290322580645,0.032258064516129,0,0,0.032258064516129,0
"233",233,0.170542635658915,0.209125475285171,0.211132437619962,0.224032586558045,0,0,0,0.0645161290322581,0,0.451612903225806
"234",234,0.154929577464789,0.174603174603175,0.175438596491228,0.181518151815182,0.161290322580645,0.774193548387097,0.838709677419355,0.161290322580645,0.0645161290322581,0
"235",235,0.183946488294314,0.225872689938398,0.228215767634855,0.240700218818381,0,0.806451612903226,0.709677419354839,0.548387096774194,0,0
"236",236,0.185810810810811,0.212355212355212,0.213592233009709,0.213592233009709,0,0.258064516129032,0.451612903225806,0.548387096774194,0,0.967741935483871
"237",237,0.170015455950541,0.198198198198198,0.199637023593466,0.207156308851224,0.580645161290323,0.612903225806452,0.838709677419355,0.032258064516129,0.354838709677419,0.516129032258065
"238",238,0.169230769230769,0.211946050096339,0.214007782101167,0.218253968253968,0,0.225806451612903,0.032258064516129,0,0,0
"239",239,0.15850144092219,0.192982456140351,0.194690265486726,0.2,0,0,0,0,0,0.870967741935484
"240",240,0.157593123209169,0.176,0.176848874598071,0.176848874598071,0,0,0,0,0,0.806451612903226
"241",241,0.168453292496172,0.187713310580205,0.188679245283019,0.192644483362522,0.967741935483871,0.548387096774194,0.548387096774194,0.0967741935483871,0.774193548387097,0.774193548387097
"242",242,0.186757215619694,0.233050847457627,0.235546038543897,0.243362831858407,0,0.903225806451613,0.967741935483871,0.0645161290322581,0,0.354838709677419
"243",243,0.166919575113809,0.207156308851224,0.211132437619962,0.215264187866928,0,0.258064516129032,0.0645161290322581,0,0,0
"244",244,0.154494382022472,0.182724252491694,0.186440677966102,0.186440677966102,0,0.129032258064516,0.032258064516129,0.0645161290322581,0,0.032258064516129
"245",245,0.176565008025682,0.204460966542751,0.205992509363296,0.205992509363296,0,0.774193548387097,0.32258064516129,0.483870967741935,0,0.67741935483871
"246",246,0.154929577464789,0.172955974842767,0.174603174603175,0.174603174603175,0.161290322580645,0.032258064516129,0,0,0.0645161290322581,0.129032258064516
"247",247,0.151933701657459,0.16793893129771,0.169491525423729,0.173501577287066,0,0.0645161290322581,0.225806451612903,0,0.387096774193548,0.290322580645161
"248",248,0.152354570637119,0.179153094462541,0.181518151815182,0.186440677966102,0,0.612903225806452,0.161290322580645,0.0967741935483871,0,0.129032258064516
"249",249,0.166919575113809,0.188356164383562,0.191304347826087,0.192307692307692,0.032258064516129,0.935483870967742,0.612903225806452,0.32258064516129,0,0.838709677419355
"250",250,0.171606864274571,0.207939508506616,0.207939508506616,0.207939508506616,0.419354838709677,0.419354838709677,0.354838709677419,0.483870967741935,0.129032258064516,0.67741935483871
"251",251,0.156918687589158,0.182421227197347,0.183639398998331,0.181219110378913,0.0967741935483871,0.161290322580645,0.225806451612903,0.225806451612903,0.129032258064516,0.0645161290322581
"252",252,0.146082337317397,0.188356164383562,0.192982456140351,0.202952029520295,0.645161290322581,0.129032258064516,0,0,0.129032258064516,0.225806451612903
"253",253,0.186757215619694,0.22680412371134,0.230607966457023,0.232558139534884,0,0.032258064516129,0,0,0,0
"254",254,0.160583941605839,0.205607476635514,0.207939508506616,0.215264187866928,0.0645161290322581,1,0.354838709677419,0,0.032258064516129,0.0967741935483871
"255",255,0.168711656441718,0.262529832935561,0.268948655256724,0.29810298102981,0,0.225806451612903,0.032258064516129,0.0645161290322581,0,0
"256",256,0.172413793103448,0.251141552511416,0.256410256410256,0.27363184079602,0,0.870967741935484,0.290322580645161,0.032258064516129,0,0.483870967741935
"257",257,0.15850144092219,0.206378986866792,0.211946050096339,0.21484375,0,0.903225806451613,0.032258064516129,0,0.258064516129032,0
"258",258,0.163447251114413,0.200729927007299,0.202578268876611,0.198915009041591,0,0,0,0,0,0
"259",259,0.189982728842832,0.230125523012552,0.237580993520518,0.237580993520518,0,0.0645161290322581,0,0,0,0.032258064516129
"260",260,0.156918687589158,0.196779964221825,0.200364298724954,0.202205882352941,0,0,0,0,0,0.741935483870968
"261",261,0.15850144092219,0.174880763116057,0.175718849840256,0.179153094462541,0.580645161290323,0,0.0645161290322581,0,0.419354838709677,0.354838709677419
"262",262,0.163690476190476,0.183639398998331,0.186440677966102,0.186440677966102,0.354838709677419,0.032258064516129,0,0,0.032258064516129,0.129032258064516
"263",263,0.129259694477086,0.133657351154313,0.133982947624848,0.134969325153374,0.193548387096774,0.258064516129032,0.290322580645161,0.161290322580645,0.0645161290322581,0.741935483870968
"264",264,0.15647226173542,0.168970814132104,0.170015455950541,0.170015455950541,0.354838709677419,0,0,0,0,0.032258064516129
"265",265,0.162721893491124,0.180921052631579,0.183639398998331,0.186440677966102,0,0.0645161290322581,0.032258064516129,0.0967741935483871,0,0.193548387096774
"266",266,0.157367668097282,0.168453292496172,0.169491525423729,0.171606864274571,0,0,0.032258064516129,0,0.774193548387097,0.354838709677419
"267",267,0.153417015341702,0.196779964221825,0.196779964221825,0.210325047801147,0.032258064516129,0.483870967741935,0.225806451612903,0.032258064516129,0,0.0645161290322581
"268",268,0.155807365439093,0.218687872763419,0.222672064777328,0.235546038543897,0,0.032258064516129,0.0645161290322581,0.032258064516129,0,0.354838709677419
"269",269,0.158273381294964,0.163447251114413,0.163934426229508,0.165413533834586,0,0.032258064516129,0.032258064516129,0.032258064516129,0,0.419354838709677
"270",270,0.161054172767204,0.220883534136546,0.220883534136546,0.234042553191489,0,0.0645161290322581,0,0.0967741935483871,0,0.645161290322581
"271",271,0.157367668097282,0.180327868852459,0.182724252491694,0.185185185185185,0,0.838709677419355,0.032258064516129,0.129032258064516,0.0967741935483871,0.483870967741935
"272",272,0.143415906127771,0.167173252279635,0.168195718654434,0.168195718654434,0,0.0645161290322581,0,0,0,0.870967741935484
"273",273,0.187074829931973,0.230125523012552,0.235042735042735,0.240174672489083,0,0,0,0.580645161290323,0,0.483870967741935
"274",274,0.15850144092219,0.217821782178218,0.21484375,0.227272727272727,0,0.032258064516129,0.0645161290322581,0,0,0.032258064516129
"275",275,0.157142857142857,0.174603174603175,0.174603174603175,0.177993527508091,0.419354838709677,0.032258064516129,0,0,0.129032258064516,0.032258064516129
"276",276,0.14030612244898,0.14030612244898,0.14030612244898,0.14030612244898,0.387096774193548,0.032258064516129,0.129032258064516,0.258064516129032,0.193548387096774,0.870967741935484
"277",277,0.182724252491694,0.230607966457023,0.236559139784946,0.236559139784946,0,0.935483870967742,0.161290322580645,0.129032258064516,0,0
"278",278,0.182724252491694,0.228690228690229,0.228690228690229,0.228690228690229,0,0.032258064516129,0,0,0,0.67741935483871
"279",279,0.168970814132104,0.180921052631579,0.181518151815182,0.180921052631579,1,0,0,0,0.387096774193548,0.258064516129032
"280",280,0.158959537572254,0.197841726618705,0.197841726618705,0.206766917293233,0,0.032258064516129,0.032258064516129,0.419354838709677,0,0.838709677419355
"281",281,0.161764705882353,0.167173252279635,0.167682926829268,0.167682926829268,0,0.0645161290322581,0.032258064516129,0,0,0.67741935483871
"282",282,0.169753086419753,0.204081632653061,0.207939508506616,0.214007782101167,0.0645161290322581,0.516129032258065,0.354838709677419,0,0.032258064516129,0
"283",283,0.170278637770898,0.204081632653061,0.205992509363296,0.216110019646365,0.032258064516129,0.129032258064516,0.032258064516129,0.483870967741935,0,0
"284",284,0.165912518853695,0.185810810810811,0.188679245283019,0.188679245283019,0.032258064516129,0,0,0,0.032258064516129,0
"285",285,0.167173252279635,0.191304347826087,0.191304347826087,0.191304347826087,0.32258064516129,0.032258064516129,0,0.0967741935483871,0.129032258064516,0.612903225806452
"286",286,0.165165165165165,0.212765957446809,0.216962524654832,0.216962524654832,0,0,0,0,0,0.67741935483871
"287",287,0.172684458398744,0.214424951267057,0.216535433070866,0.220883534136546,0.225806451612903,0.161290322580645,0.0967741935483871,0,0,1
"288",288,0.177133655394525,0.222222222222222,0.224489795918367,0.236559139784946,0,0.967741935483871,1,0,0,0.258064516129032
"289",289,0.168453292496172,0.180623973727422,0.181818181818182,0.183028286189684,0,0,0,0,0,0
"290",290,0.16793893129771,0.208333333333333,0.212355212355212,0.218687872763419,0,0.67741935483871,0.419354838709677,0,0,0.193548387096774
"291",291,0.152777777777778,0.180921052631579,0.182119205298013,0.187074829931973,0.032258064516129,0.0645161290322581,0.032258064516129,0,0,0
"292",292,0.15625,0.161290322580645,0.161764705882353,0.162241887905605,0,0.032258064516129,0,0,0,0.161290322580645
"293",293,0.164670658682635,0.183639398998331,0.185497470489039,0.189328743545611,0.483870967741935,0,0,0,0.290322580645161,0
"294",294,0.163204747774481,0.217391304347826,0.217391304347826,0.234042553191489,0,0.161290322580645,0.32258064516129,0,0,0.0967741935483871
"295",295,0.170015455950541,0.221327967806841,0.224032586558045,0.235546038543897,0,0,0,0.193548387096774,0,0.354838709677419
"296",296,0.165413533834586,0.218687872763419,0.221327967806841,0.213592233009709,0,0,0,0,0,0
"297",297,0.164917541229385,0.192982456140351,0.19434628975265,0.2,0.0645161290322581,0,0,0.193548387096774,0,0.870967741935484
"298",298,0.166414523449319,0.180032733224223,0.181818181818182,0.183639398998331,0,0.032258064516129,0,0,0,0.258064516129032
"299",299,0.163690476190476,0.209125475285171,0.211538461538462,0.219123505976096,0.0967741935483871,0.548387096774194,0.548387096774194,0,0,0.548387096774194
"300",300,0.173775671406003,0.238611713665944,0.242825607064018,0.247191011235955,0,0.451612903225806,0.0645161290322581,0,0,0.903225806451613
"301",301,0.142857142857143,0.152777777777778,0.153631284916201,0.153631284916201,0.451612903225806,0.774193548387097,0.645161290322581,0.709677419354839,0.193548387096774,0.0967741935483871
"302",302,0.163690476190476,0.177993527508091,0.179738562091503,0.180921052631579,0,0,0,0.225806451612903,0.032258064516129,0
"303",303,0.194003527336861,0.231578947368421,0.237580993520518,0.239651416122004,0,0.354838709677419,0,0.032258064516129,0,0.161290322580645
"304",304,0.163690476190476,0.231578947368421,0.235546038543897,0.248306997742664,0,0.0967741935483871,0.193548387096774,0.129032258064516,0,0.0967741935483871
"305",305,0.183028286189684,0.240174672489083,0.243362831858407,0.25,0,0.967741935483871,0.483870967741935,0,0,0
"306",306,0.160349854227405,0.180623973727422,0.183333333333333,0.186125211505922,0,0,0,0,0,0
"307",307,0.168711656441718,0.192307692307692,0.193321616871705,0.1985559566787,0,0.32258064516129,0.0967741935483871,0,0,0.0645161290322581
"308",308,0.158045977011494,0.169230769230769,0.170807453416149,0.172955974842767,0,0,0,0,0,0
"309",309,0.149659863945578,0.184873949579832,0.186440677966102,0.196428571428571,0.0645161290322581,0.870967741935484,0.580645161290323,0,0.032258064516129,0.903225806451613
"310",310,0.149051490514905,0.158959537572254,0.159883720930233,0.162721893491124,0,0.032258064516129,0.0967741935483871,0,0,0.548387096774194
"311",311,0.155367231638418,0.159651669085631,0.160116448326055,0.1620029455081,0.0967741935483871,0.225806451612903,0.129032258064516,0,0.0967741935483871,0.580645161290323
"312",312,0.167682926829268,0.195729537366548,0.1985559566787,0.205992509363296,0.032258064516129,0,0,0.032258064516129,0,0
"313",313,0.169753086419753,0.216110019646365,0.216110019646365,0.213592233009709,0.0967741935483871,0.387096774193548,0.580645161290323,0.290322580645161,0,0.0645161290322581
"314",314,0.157819225251076,0.184254606365159,0.186757215619694,0.189328743545611,0.354838709677419,0.516129032258065,0.193548387096774,0.032258064516129,0,0.258064516129032
"315",315,0.167682926829268,0.208728652751423,0.210727969348659,0.225872689938398,0,0.838709677419355,0.774193548387097,0,0,0.419354838709677
"316",316,0.162481536189069,0.200364298724954,0.200364298724954,0.200364298724954,0.290322580645161,0.225806451612903,0.225806451612903,0.290322580645161,0,0.129032258064516
"317",317,0.164424514200299,0.203327171903882,0.207156308851224,0.213178294573643,0,1,0.32258064516129,0.032258064516129,0,0.0645161290322581
"318",318,0.165912518853695,0.193321616871705,0.194690265486726,0.196078431372549,0,0,0,0,0,0.806451612903226
"319",319,0.163447251114413,0.219560878243513,0.222222222222222,0.222222222222222,0,0.0645161290322581,0.032258064516129,0,0,0.0645161290322581
"320",320,0.174603174603175,0.24390243902439,0.24390243902439,0.24390243902439,0,0,0.032258064516129,0.032258064516129,0,0
"321",321,0.17515923566879,0.223577235772358,0.225872689938398,0.233050847457627,0,0.161290322580645,0.161290322580645,0,0,0
"322",322,0.152143845089903,0.186757215619694,0.189982728842832,0.188356164383562,0,0,0,0,0,0.0967741935483871
"323",323,0.153203342618384,0.195035460992908,0.195035460992908,0.205992509363296,0,0.387096774193548,0.516129032258065,0,0,0.612903225806452
"324",324,0.169230769230769,0.218687872763419,0.224032586558045,0.224032586558045,0,0.161290322580645,0.032258064516129,0,0,0
"325",325,0.164179104477612,0.183946488294314,0.185810810810811,0.190641247833622,0,0.258064516129032,0.0967741935483871,0.032258064516129,0,0.387096774193548
"326",326,0.191637630662021,0.280612244897959,0.275689223057644,0.275689223057644,0,0.0645161290322581,0.129032258064516,0.0645161290322581,0,0.483870967741935
"327",327,0.155807365439093,0.188356164383562,0.191637630662021,0.191637630662021,0.129032258064516,0.032258064516129,0,0,0.161290322580645,0.225806451612903
"328",328,0.187393526405451,0.204081632653061,0.206378986866792,0.210325047801147,0.451612903225806,0.870967741935484,0.967741935483871,0.419354838709677,0.645161290322581,0.903225806451613
"329",329,0.179153094462541,0.219560878243513,0.219560878243513,0.230607966457023,0.32258064516129,0.451612903225806,0.741935483870968,0,0,0.645161290322581
"330",330,0.183333333333333,0.230125523012552,0.233050847457627,0.239130434782609,0,0.225806451612903,0.290322580645161,0.0645161290322581,0,1
"331",331,0.166163141993958,0.205992509363296,0.207939508506616,0.205992509363296,0,0.032258064516129,0.0645161290322581,0.032258064516129,0,0.0645161290322581
"332",332,0.159189580318379,0.203327171903882,0.205607476635514,0.210325047801147,0.032258064516129,0.838709677419355,1,0.161290322580645,0,0.032258064516129
"333",333,0.161054172767204,0.192307692307692,0.194003527336861,0.197486535008977,0,0.032258064516129,0,0,0.032258064516129,0.935483870967742
"334",334,0.168195718654434,0.206378986866792,0.210325047801147,0.218687872763419,0.67741935483871,0.612903225806452,0.354838709677419,0.193548387096774,0.387096774193548,0.032258064516129
"335",335,0.180921052631579,0.25462962962963,0.263157894736842,0.263157894736842,0,0.032258064516129,0,0,0,0
"336",336,0.185185185185185,0.1985559566787,0.199275362318841,0.202205882352941,0.0967741935483871,0.548387096774194,0.290322580645161,0.0645161290322581,0.0645161290322581,0
"337",337,0.152565880721221,0.184873949579832,0.188034188034188,0.189655172413793,0,0,0,0,0,1
"338",338,0.151933701657459,0.189003436426117,0.190641247833622,0.202952029520295,0,0.709677419354839,0.580645161290323,0.032258064516129,0,0.161290322580645
"339",339,0.142302716688228,0.152354570637119,0.153203342618384,0.15406162464986,0,0.258064516129032,0.0645161290322581,0.0645161290322581,0,0.516129032258065
"340",340,0.160116448326055,0.189003436426117,0.190311418685121,0.190311418685121,0,0.225806451612903,0.193548387096774,0.193548387096774,0,0.0967741935483871
"341",341,0.165165165165165,0.177993527508091,0.178571428571429,0.181518151815182,0,0,0,0,0,0.161290322580645
"342",342,0.150891632373114,0.169753086419753,0.171339563862928,0.172143974960876,0,0.129032258064516,0.0645161290322581,0,0,0.129032258064516
"343",343,0.160116448326055,0.212765957446809,0.215264187866928,0.220440881763527,0,0,0,0,0,0.32258064516129
"344",344,0.165413533834586,0.164670658682635,0.164670658682635,0.164670658682635,0,0,0,0,0,1
"345",345,0.187074829931973,0.22,0.221774193548387,0.229166666666667,0,0,0,0.935483870967742,0,0.0645161290322581
"346",346,0.160116448326055,0.189003436426117,0.192982456140351,0.192982456140351,0,0.580645161290323,0.0645161290322581,0,0,0.161290322580645
"347",347,0.166919575113809,0.199275362318841,0.200729927007299,0.203703703703704,0,0.741935483870968,0.645161290322581,0.0645161290322581,0.483870967741935,0.709677419354839
"348",348,0.150478796169631,0.154929577464789,0.155367231638418,0.156918687589158,0,0.032258064516129,0,0,0,0.0967741935483871
"349",349,0.159651669085631,0.188679245283019,0.189982728842832,0.196779964221825,0,0,0,0.0967741935483871,0,0.645161290322581
"350",350,0.138713745271122,0.138539042821159,0.138539042821159,0.138539042821159,0.0645161290322581,0.032258064516129,0.0645161290322581,0.032258064516129,0,0.193548387096774
"351",351,0.182119205298013,0.23109243697479,0.238611713665944,0.241228070175439,0,0,0,0.032258064516129,0,0.0967741935483871
"352",352,0.172955974842767,0.224948875255624,0.227743271221532,0.230607966457023,0,0.774193548387097,0.709677419354839,0.032258064516129,0,0
"353",353,0.161764705882353,0.216962524654832,0.223123732251521,0.233050847457627,0,0,0,0,0,0
"354",354,0.14745308310992,0.171875,0.172955974842767,0.174050632911392,0,0.032258064516129,0,0,0.387096774193548,0
"355",355,0.152143845089903,0.163204747774481,0.164179104477612,0.166163141993958,0,0.129032258064516,0.0967741935483871,0.0967741935483871,0,0.0967741935483871
"356",356,0.170278637770898,0.206766917293233,0.210727969348659,0.219123505976096,0.290322580645161,0.193548387096774,0.0645161290322581,0.419354838709677,0.0967741935483871,0
"357",357,0.164179104477612,0.199637023593466,0.203327171903882,0.207156308851224,0.387096774193548,0.032258064516129,0,0.129032258064516,0.129032258064516,0.387096774193548
"358",358,0.188356164383562,0.233050847457627,0.235546038543897,0.238095238095238,0.032258064516129,0,0,0,0.032258064516129,0.612903225806452
"359",359,0.172413793103448,0.212765957446809,0.21484375,0.216962524654832,0,0,0,0,0,0.709677419354839
"360",360,0.178571428571429,0.225409836065574,0.227743271221532,0.235042735042735,0,0.67741935483871,0.645161290322581,0,0,0.225806451612903
"361",361,0.166414523449319,0.204460966542751,0.204460966542751,0.214424951267057,0,0.741935483870968,0.806451612903226,0,0,0.193548387096774
"362",362,0.156028368794326,0.191304347826087,0.192982456140351,0.201834862385321,0.548387096774194,0,0.032258064516129,0,0.258064516129032,0.161290322580645
"363",363,0.178282009724473,0.199275362318841,0.201465201465201,0.202578268876611,0.161290322580645,0,0,0,0.0645161290322581,0.0967741935483871
"364",364,0.167173252279635,0.1985559566787,0.201465201465201,0.201465201465201,0,0,0,0,0,0
"365",365,0.165413533834586,0.208333333333333,0.210727969348659,0.197132616487455,0,0,0,0,0,0.709677419354839
"366",366,0.157819225251076,0.183028286189684,0.185497470489039,0.186757215619694,0.258064516129032,0.129032258064516,0.0645161290322581,0,0.0645161290322581,0
"367",367,0.171073094867807,0.197132616487455,0.1985559566787,0.2,0.0967741935483871,0.032258064516129,0.032258064516129,0,0.0645161290322581,0
"368",368,0.174880763116057,0.19434628975265,0.19434628975265,0.197486535008977,0.612903225806452,0,0.258064516129032,0,0.354838709677419,0.0645161290322581
"369",369,0.159651669085631,0.186440677966102,0.189003436426117,0.189003436426117,0,0.935483870967742,0.67741935483871,0.483870967741935,0,0.548387096774194
"370",370,0.183333333333333,0.250569476082005,0.250569476082005,0.267639902676399,0,0.0967741935483871,0.129032258064516,0.032258064516129,0,0.032258064516129
"371",371,0.167173252279635,0.224032586558045,0.22964509394572,0.241758241758242,0,0.838709677419355,0.161290322580645,0,0,0.032258064516129
"372",372,0.172143974960876,0.231578947368421,0.235042735042735,0.238611713665944,0,0.032258064516129,0.0645161290322581,0,0,0.967741935483871
"373",373,0.185810810810811,0.240174672489083,0.245535714285714,0.251141552511416,0,0.258064516129032,0,0,0,0
"374",374,0.175438596491228,0.188679245283019,0.189982728842832,0.191304347826087,0,0.032258064516129,0,0,0,0.032258064516129
"375",375,0.165413533834586,0.201834862385321,0.205607476635514,0.205607476635514,0.032258064516129,0.806451612903226,0.129032258064516,0.0645161290322581,0,0.032258064516129
"376",376,0.172143974960876,0.202578268876611,0.205607476635514,0.210325047801147,0.290322580645161,0,0.741935483870968,0.0967741935483871,0.0967741935483871,0.870967741935484
"377",377,0.157367668097282,0.182724252491694,0.185185185185185,0.187713310580205,0,0,0.0967741935483871,0,0.032258064516129,0
"378",378,0.167427701674277,0.23109243697479,0.23454157782516,0.238095238095238,0,0.258064516129032,0.290322580645161,0,0,0.225806451612903
"379",379,0.172684458398744,0.201465201465201,0.202952029520295,0.201465201465201,0,0.483870967741935,0.612903225806452,0.645161290322581,0,0.483870967741935
"380",380,0.163934426229508,0.192644483362522,0.19538188277087,0.198198198198198,0,0.387096774193548,0.483870967741935,0.129032258064516,0,0.225806451612903
"381",381,0.170542635658915,0.244444444444444,0.244444444444444,0.244444444444444,0,0.548387096774194,0.451612903225806,0.419354838709677,0,0
"382",382,0.174880763116057,0.215686274509804,0.22,0.222222222222222,0,0.032258064516129,0,0,0,0
"383",383,0.157593123209169,0.162962962962963,0.163934426229508,0.164917541229385,0,0,0,0,0,0
"384",384,0.153417015341702,0.164424514200299,0.165413533834586,0.169491525423729,0,0,0,0.67741935483871,0,0
"385",385,0.169491525423729,0.216110019646365,0.219123505976096,0.213178294573643,0.032258064516129,0,0,0.032258064516129,0,0
"386",386,0.149253731343284,0.159651669085631,0.160583941605839,0.164424514200299,0.0645161290322581,0.354838709677419,0.225806451612903,0.032258064516129,0,0.225806451612903
"387",387,0.162721893491124,0.207547169811321,0.211538461538462,0.215686274509804,0.0645161290322581,0.838709677419355,0.741935483870968,0,0,0.161290322580645
"388",388,0.159189580318379,0.193661971830986,0.19538188277087,0.200729927007299,0,0,0.032258064516129,0,0,0
"389",389,0.150891632373114,0.198915009041591,0.201465201465201,0.201465201465201,0,0.419354838709677,0.516129032258065,0.32258064516129,0,0.903225806451613
"390",390,0.168970814132104,0.197132616487455,0.2,0.202952029520295,0,0.129032258064516,0.0967741935483871,0.032258064516129,0,0.0645161290322581
"391",391,0.168453292496172,0.196428571428571,0.197841726618705,0.203703703703704,0,0.451612903225806,0.32258064516129,0,0,0.0645161290322581
"392",392,0.148849797023004,0.188356164383562,0.192307692307692,0.196428571428571,0,0,0,0.741935483870968,0,0
"393",393,0.173228346456693,0.209125475285171,0.210727969348659,0.215686274509804,0,0.806451612903226,0.645161290322581,0.032258064516129,0,0.612903225806452
"394",394,0.15850144092219,0.193661971830986,0.19538188277087,0.202578268876611,0.645161290322581,0.032258064516129,0.0645161290322581,0.129032258064516,0.225806451612903,0.612903225806452
"395",395,0.168711656441718,0.218687872763419,0.221327967806841,0.235546038543897,0,0.0645161290322581,0.161290322580645,0,0,0
"396",396,0.170015455950541,0.204460966542751,0.205992509363296,0.209125475285171,0,0.0645161290322581,0.032258064516129,0.67741935483871,0,0.0967741935483871
"397",397,0.155807365439093,0.154929577464789,0.154929577464789,0.154929577464789,0,0,0,0,0,0.645161290322581
"398",398,0.163690476190476,0.176,0.177705977382876,0.178861788617886,0,0.032258064516129,0.032258064516129,0.032258064516129,0,0.0967741935483871
"399",399,0.168970814132104,0.208728652751423,0.21484375,0.21484375,0,0.290322580645161,0.032258064516129,0.0645161290322581,0,0
"400",400,0.163204747774481,0.182421227197347,0.184254606365159,0.184254606365159,0.967741935483871,0.225806451612903,0.193548387096774,0.161290322580645,0.709677419354839,0.903225806451613
"401",401,0.16793893129771,0.221327967806841,0.224032586558045,0.22680412371134,0.032258064516129,0,0,0.580645161290323,0,0
"402",402,0.177133655394525,0.222672064777328,0.224948875255624,0.22964509394572,0,0.935483870967742,0.612903225806452,0.451612903225806,0,0.258064516129032
"403",403,0.164670658682635,0.200364298724954,0.204081632653061,0.207939508506616,0.0645161290322581,0.129032258064516,0,0,0.032258064516129,0
"404",404,0.177705977382876,0.207156308851224,0.210325047801147,0.213592233009709,0.225806451612903,0.612903225806452,0.129032258064516,0.032258064516129,0.161290322580645,0.387096774193548
"405",405,0.162241887905605,0.202578268876611,0.207156308851224,0.20952380952381,0.129032258064516,0.161290322580645,0.0967741935483871,0.032258064516129,0.0645161290322581,0
"406",406,0.15850144092219,0.187393526405451,0.188679245283019,0.192644483362522,0.612903225806452,0.225806451612903,0.0967741935483871,0,0.548387096774194,0.0645161290322581
"407",407,0.191972076788831,0.218253968253968,0.219560878243513,0.219560878243513,0.129032258064516,0,0,0,0.032258064516129,0.354838709677419
"408",408,0.169230769230769,0.202205882352941,0.205223880597015,0.208333333333333,0,0,0,0,0,0
"409",409,0.151515151515152,0.186440677966102,0.188356164383562,0.190311418685121,0,0.806451612903226,0.774193548387097,0.548387096774194,0.67741935483871,0.903225806451613
"410",410,0.177993527508091,0.211946050096339,0.213592233009709,0.220440881763527,0,0.709677419354839,0.67741935483871,0.0645161290322581,0,0.580645161290323
"411",411,0.164424514200299,0.218253968253968,0.221327967806841,0.23454157782516,0,0.290322580645161,0.032258064516129,0.193548387096774,0,0.193548387096774
"412",412,0.193661971830986,0.230125523012552,0.238095238095238,0.238095238095238,0.0645161290322581,0,0,0,0.161290322580645,0
"413",413,0.180327868852459,0.219560878243513,0.221774193548387,0.23109243697479,0.032258064516129,0,0.0645161290322581,0.483870967741935,0,1
"414",414,0.160116448326055,0.1743264659271,0.176,0.178282009724473,0,0,0,0,0,0
"415",415,0.161290322580645,0.201465201465201,0.203327171903882,0.203327171903882,0,0.0645161290322581,0.193548387096774,0.032258064516129,0,0
"416",416,0.168970814132104,0.197841726618705,0.200729927007299,0.206766917293233,0.290322580645161,0.516129032258065,0.225806451612903,0.032258064516129,0.129032258064516,0.483870967741935
"417",417,0.142118863049096,0.141570141570142,0.141570141570142,0.141570141570142,0,0,0,0,0,0.0967741935483871
"418",418,0.156695156695157,0.192307692307692,0.195729537366548,0.197486535008977,0,0,0.0645161290322581,0,0,0
"419",419,0.163690476190476,0.175718849840256,0.176282051282051,0.180327868852459,0,0.0967741935483871,0,0.032258064516129,0,0.129032258064516
"420",420,0.169491525423729,0.205992509363296,0.211946050096339,0.216110019646365,0,0,0,0,0,0.161290322580645
"421",421,0.167682926829268,0.198915009041591,0.200364298724954,0.200364298724954,0.032258064516129,0.193548387096774,0.290322580645161,0.354838709677419,0,0.32258064516129
"422",422,0.159883720930233,0.196428571428571,0.2,0.203703703703704,0,0.032258064516129,0,0,0,0
"423",423,0.17515923566879,0.223123732251521,0.226337448559671,0.233050847457627,0.32258064516129,0,0.838709677419355,0.032258064516129,0.032258064516129,0.387096774193548
"424",424,0.152354570637119,0.185185185185185,0.185185185185185,0.190972222222222,0,0.225806451612903,0.290322580645161,0.032258064516129,0,0.193548387096774
"425",425,0.188679245283019,0.237580993520518,0.240174672489083,0.242825607064018,0.225806451612903,0.32258064516129,0,0,0.032258064516129,0.709677419354839
"426",426,0.15130674002751,0.203327171903882,0.205607476635514,0.203327171903882,0,0.129032258064516,0.0645161290322581,0.032258064516129,0,0
"427",427,0.186125211505922,0.219123505976096,0.220883534136546,0.226337448559671,0,0.709677419354839,0.709677419354839,0.032258064516129,0,0.548387096774194
"428",428,0.169491525423729,0.207156308851224,0.209125475285171,0.209125475285171,0,0.741935483870968,0.548387096774194,0.612903225806452,0,0
"429",429,0.168970814132104,0.214007782101167,0.214007782101167,0.227272727272727,0,0.419354838709677,0.67741935483871,0,0,0.903225806451613
"430",430,0.176282051282051,0.196078431372549,0.198198198198198,0.198198198198198,0.193548387096774,0,0,0,0.129032258064516,0.0645161290322581
"431",431,0.162481536189069,0.186125211505922,0.189982728842832,0.196779964221825,0,0.354838709677419,0.0967741935483871,0,0,0.0645161290322581
"432",432,0.14030612244898,0.182119205298013,0.188679245283019,0.193321616871705,0,0.161290322580645,0.032258064516129,0,0,0
"433",433,0.143415906127771,0.17515923566879,0.176848874598071,0.178571428571429,0.193548387096774,0.806451612903226,0.709677419354839,0.451612903225806,0.258064516129032,0.032258064516129
"434",434,0.182421227197347,0.216535433070866,0.218253968253968,0.225409836065574,0,0,0,0.161290322580645,0,0
"435",435,0.180921052631579,0.229166666666667,0.232067510548523,0.232067510548523,0,0.193548387096774,0.225806451612903,0.0967741935483871,0.032258064516129,0.516129032258065
"436",436,0.154929577464789,0.159420289855072,0.160583941605839,0.161054172767204,0,0,0,0,0,0
"437",437,0.145310435931308,0.161527165932452,0.162962962962963,0.162962962962963,0,0.193548387096774,0.0967741935483871,0.0645161290322581,0.516129032258065,0.580645161290323
"438",438,0.140485312899106,0.182421227197347,0.184254606365159,0.189982728842832,0,0,0,0.903225806451613,0,0.0967741935483871
"439",439,0.168970814132104,0.174880763116057,0.17515923566879,0.177133655394525,0,0,0,0,0,0
"440",440,0.178571428571429,0.228215767634855,0.234042553191489,0.240174672489083,0,0,0,0.290322580645161,0,0.0645161290322581
"441",441,0.1743264659271,0.216962524654832,0.219560878243513,0.222222222222222,0,0,0.032258064516129,0,0,0.451612903225806
"442",442,0.171339563862928,0.192644483362522,0.193661971830986,0.193661971830986,0,0,0,0,0,0.032258064516129
"443",443,0.152565880721221,0.215686274509804,0.215686274509804,0.222672064777328,0,0.032258064516129,0,0.483870967741935,0,0
"444",444,0.165165165165165,0.197486535008977,0.198915009041591,0.198915009041591,0.0645161290322581,0.032258064516129,0.0645161290322581,0.0645161290322581,0,0.032258064516129
"445",445,0.161290322580645,0.221327967806841,0.227743271221532,0.23109243697479,0,0,0.032258064516129,0,0,0
"446",446,0.166666666666667,0.183639398998331,0.184563758389262,0.189328743545611,0.387096774193548,0.032258064516129,0,0,0.225806451612903,0.0967741935483871
"447",447,0.159651669085631,0.199275362318841,0.201465201465201,0.203703703703704,0.0645161290322581,0.580645161290323,0.483870967741935,0.387096774193548,0.032258064516129,0
"448",448,0.167682926829268,0.207156308851224,0.209125475285171,0.207156308851224,0.032258064516129,0.32258064516129,0.548387096774194,0.741935483870968,0,0.225806451612903
"449",449,0.154711673699015,0.159651669085631,0.160349854227405,0.159883720930233,0,0,0,0,0.032258064516129,0.612903225806452
"450",450,0.16566265060241,0.197486535008977,0.200364298724954,0.200364298724954,0,0,0,0,0,0
"451",451,0.149253731343284,0.148448043184885,0.148448043184885,0.148448043184885,0,0,0,0,0,0.612903225806452
"452",452,0.163204747774481,0.193661971830986,0.196428571428571,0.192307692307692,0,0,0,0,0,0
"453",453,0.168970814132104,0.244444444444444,0.244444444444444,0.25462962962963,0.032258064516129,0,0.290322580645161,0.161290322580645,0,0
"454",454,0.189328743545611,0.239651416122004,0.239651416122004,0.253456221198157,0.0967741935483871,0.0645161290322581,0.032258064516129,0,0,0.548387096774194
"455",455,0.163690476190476,0.189328743545611,0.190641247833622,0.190641247833622,0.903225806451613,1,1,0.838709677419355,0.67741935483871,0.548387096774194
"456",456,0.190641247833622,0.250569476082005,0.254041570438799,0.268948655256724,0,0.225806451612903,0.161290322580645,0.129032258064516,0,0.774193548387097
"457",457,0.152990264255911,0.185810810810811,0.189003436426117,0.197486535008977,0,0.967741935483871,0.451612903225806,0.032258064516129,0,0.032258064516129
"458",458,0.158273381294964,0.195729537366548,0.197486535008977,0.20109689213894,0,0.032258064516129,0,0,0.032258064516129,0.032258064516129
"459",459,0.167173252279635,0.218687872763419,0.221327967806841,0.22680412371134,0,0,0,0,0,0
"460",460,0.146666666666667,0.145888594164456,0.145888594164456,0.145888594164456,0,0,0,0,0,0
"461",461,0.181518151815182,0.240700218818381,0.24390243902439,0.247191011235955,0,0.0967741935483871,0.032258064516129,0.0645161290322581,0,0.935483870967742
"462",462,0.184563758389262,0.24390243902439,0.24390243902439,0.238611713665944,0,0.0645161290322581,0.0645161290322581,0,0,0.548387096774194
"463",463,0.1620029455081,0.2,0.2,0.2,0.225806451612903,0.645161290322581,0.612903225806452,0.806451612903226,0.0645161290322581,0.451612903225806
"464",464,0.156918687589158,0.180921052631579,0.182119205298013,0.183333333333333,0,0,0,0,0,0.032258064516129
"465",465,0.162481536189069,0.182724252491694,0.184563758389262,0.186440677966102,0.032258064516129,0,0,0,0.032258064516129,0
"466",466,0.157142857142857,0.181818181818182,0.183028286189684,0.181818181818182,0,0,0,0,0.290322580645161,0
"467",467,0.163934426229508,0.220883534136546,0.220883534136546,0.220883534136546,0,0.483870967741935,0.516129032258065,0.354838709677419,0,0.290322580645161
"468",468,0.17741935483871,0.216962524654832,0.219123505976096,0.223577235772358,0,0.354838709677419,0.225806451612903,0.032258064516129,0,0.032258064516129
"469",469,0.178282009724473,0.225872689938398,0.228215767634855,0.243362831858407,0.612903225806452,0,0,0.354838709677419,0.290322580645161,0
"470",470,0.181818181818182,0.216535433070866,0.216535433070866,0.216535433070866,0,0.193548387096774,0.129032258064516,0.193548387096774,0,0.67741935483871
"471",471,0.141025641025641,0.156918687589158,0.158273381294964,0.158273381294964,0.193548387096774,0,0,0,0.0645161290322581,0
"472",472,0.163204747774481,0.202578268876611,0.206378986866792,0.216535433070866,0,0,0,0.032258064516129,0,0.129032258064516
"473",473,0.169230769230769,0.224032586558045,0.227272727272727,0.230607966457023,0,0.903225806451613,0.741935483870968,0,0,0
"474",474,0.168453292496172,0.215264187866928,0.215264187866928,0.213178294573643,0,0,0,0,0,0.516129032258065
"475",475,0.143979057591623,0.15406162464986,0.154929577464789,0.155807365439093,0.258064516129032,0,0,0.967741935483871,0.225806451612903,0
"476",476,0.164670658682635,0.207156308851224,0.211132437619962,0.215264187866928,0,0.032258064516129,0.032258064516129,0,0,0.451612903225806
"477",477,0.160583941605839,0.171606864274571,0.172143974960876,0.176,0.032258064516129,0.0967741935483871,0.258064516129032,0.032258064516129,0.032258064516129,0.387096774193548
"478",478,0.164424514200299,0.193321616871705,0.193321616871705,0.200364298724954,0.032258064516129,0.387096774193548,0.483870967741935,0.258064516129032,0.0645161290322581,0
"479",479,0.182119205298013,0.227743271221532,0.232558139534884,0.240174672489083,0,0,0.516129032258065,0.129032258064516,0,0.32258064516129
"480",480,0.167427701674277,0.213178294573643,0.213178294573643,0.213178294573643,0,0.161290322580645,0.225806451612903,0.032258064516129,0,0
"481",481,0.159883720930233,0.208728652751423,0.211538461538462,0.203327171903882,0.0967741935483871,0.483870967741935,0.32258064516129,0.0645161290322581,0.032258064516129,0.354838709677419
"482",482,0.168453292496172,0.208728652751423,0.212765957446809,0.216962524654832,0,0.290322580645161,0.032258064516129,0,0,0.032258064516129
"483",483,0.172955974842767,0.232067510548523,0.235546038543897,0.228690228690229,0,0.161290322580645,0.225806451612903,0.0645161290322581,0,0.0645161290322581
"484",484,0.159883720930233,0.181518151815182,0.184254606365159,0.186125211505922,0.032258064516129,0,0,0,0,0
"485",485,0.164424514200299,0.239651416122004,0.239651416122004,0.257611241217799,0,0.0645161290322581,0,0.032258064516129,0,0.645161290322581
"486",486,0.16566265060241,0.195729537366548,0.197132616487455,0.195729537366548,0,0.032258064516129,0,0.0645161290322581,0,0
"487",487,0.1620029455081,0.220883534136546,0.227272727272727,0.230607966457023,0,0.870967741935484,0,0,0,0
"488",488,0.149863760217984,0.176282051282051,0.17741935483871,0.17741935483871,0,0.451612903225806,0.645161290322581,0.580645161290323,0,0.612903225806452
"489",489,0.169230769230769,0.214007782101167,0.216110019646365,0.224948875255624,0,0,0,0.225806451612903,0,0.0967741935483871
"490",490,0.144927536231884,0.188679245283019,0.193321616871705,0.195729537366548,0,0.032258064516129,0,0,0,0.0645161290322581
"491",491,0.161290322580645,0.17515923566879,0.176282051282051,0.178571428571429,0,0.129032258064516,0.0967741935483871,0,0,0.516129032258065
"492",492,0.15850144092219,0.157367668097282,0.157367668097282,0.157367668097282,0,0,0,0,0,0
"493",493,0.15625,0.204081632653061,0.20952380952381,0.20952380952381,0.193548387096774,0.032258064516129,0,0,0.193548387096774,0.129032258064516
"494",494,0.172143974960876,0.207156308851224,0.209125475285171,0.213178294573643,0.0645161290322581,0.193548387096774,0.354838709677419,0.032258064516129,0.0967741935483871,0.258064516129032
"495",495,0.170015455950541,0.204081632653061,0.207939508506616,0.214007782101167,0.193548387096774,0,0.225806451612903,0.032258064516129,0.129032258064516,0.129032258064516
"496",496,0.168711656441718,0.228215767634855,0.231578947368421,0.25,0,0,0,0,0,0
"497",497,0.156695156695157,0.177993527508091,0.178861788617886,0.184254606365159,0.032258064516129,0,0,0.451612903225806,0.0645161290322581,0.0645161290322581
"498",498,0.161527165932452,0.215686274509804,0.218687872763419,0.228215767634855,0,0.129032258064516,0.032258064516129,0,0,0.129032258064516
"499",499,0.176,0.238611713665944,0.238611713665944,0.22680412371134,0,0.419354838709677,0.451612903225806,0.258064516129032,0,0.193548387096774
"500",500,0.15406162464986,0.178861788617886,0.181219110378913,0.187393526405451,0.451612903225806,0,0,0,0.225806451612903,0
