"","i","estimated_prop_After_Q_b_F_C","estimated_prop_After_mean","estimated_prop_After_median","estimated_prop_After_mode","Q_b_F_C_P_value","mean_P_value","median_P_value","mode_P_value"
"1",1,0.116331096196868,0.11529933481153,0.11529933481153,0.11529933481153,0.548387096774194,0.419354838709677,0.354838709677419,0.387096774193548
"2",2,0.109473684210526,0.109014675052411,0.109014675052411,0.109014675052411,0,0,0.0645161290322581,0.032258064516129
"3",3,0.150724637681159,0.203125,0.220338983050847,0.236363636363636,0.580645161290323,0.032258064516129,0.0645161290322581,0
"4",4,0.109704641350211,0.109473684210526,0.109473684210526,0.109473684210526,0,0.483870967741935,0.806451612903226,0.451612903225806
"5",5,0.140921409214092,0.149425287356322,0.151162790697674,0.152492668621701,0.290322580645161,0.419354838709677,0.419354838709677,0.129032258064516
"6",6,0.13941018766756,0.16403785488959,0.170491803278689,0.172757475083056,0,0.032258064516129,0,0
"7",7,0.137931034482759,0.183745583038869,0.19047619047619,0.209677419354839,0.290322580645161,0.0967741935483871,0.645161290322581,0.161290322580645
"8",8,0.123515439429929,0.123222748815166,0.123222748815166,0.123222748815166,0.032258064516129,0.032258064516129,0.032258064516129,0.0645161290322581
"9",9,0.125,0.125,0.125,0.125,0.032258064516129,0.0645161290322581,0.0645161290322581,0.0645161290322581
"10",10,0.121212121212121,0.12093023255814,0.12093023255814,0.12093023255814,0.0645161290322581,0.0645161290322581,0.032258064516129,0
"11",11,0.132992327365729,0.142465753424658,0.144444444444444,0.145251396648045,0,0,0,0
"12",12,0.119266055045872,0.118721461187215,0.118721461187215,0.118721461187215,0,0.0645161290322581,0.0645161290322581,0.032258064516129
"13",13,0.142465753424658,0.230088495575221,0.273684210526316,0.273684210526316,0.0645161290322581,0,0.161290322580645,0.225806451612903
"14",14,0.136482939632546,0.18978102189781,0.208835341365462,0.217573221757322,0,0.161290322580645,0.129032258064516,0.225806451612903
"15",15,0.122931442080378,0.121779859484778,0.121779859484778,0.121779859484778,0,0,0,0
"16",16,0.120092378752887,0.119815668202765,0.119815668202765,0.119815668202765,0,0.032258064516129,0,0
"17",17,0.145658263305322,0.144444444444444,0.144444444444444,0.144444444444444,0,0,0,0
"18",18,0.140921409214092,0.140921409214092,0.140921409214092,0.140921409214092,0.0645161290322581,0.032258064516129,0,0
"19",19,0.14207650273224,0.150724637681159,0.152941176470588,0.150724637681159,0.129032258064516,0.290322580645161,0.129032258064516,0.290322580645161
"20",20,0.135770234986945,0.144444444444444,0.146478873239437,0.147308781869688,0.129032258064516,0.129032258064516,0.0645161290322581,0.032258064516129
"21",21,0.147308781869688,0.157575757575758,0.160493827160494,0.160493827160494,0,0,0,0
"22",22,0.121212121212121,0.120092378752887,0.120092378752887,0.120092378752887,0.0645161290322581,0.032258064516129,0.032258064516129,0.032258064516129
"23",23,0.136125654450262,0.135064935064935,0.135064935064935,0.135064935064935,0,0,0,0
"24",24,0.122931442080378,0.122931442080378,0.122931442080378,0.122931442080378,0.0967741935483871,0.0967741935483871,0.0645161290322581,0.0645161290322581
"25",25,0.128395061728395,0.126829268292683,0.126829268292683,0.126829268292683,0.0967741935483871,0,0,0.032258064516129
"26",26,0.151603498542274,0.203921568627451,0.217573221757322,0.246445497630332,0.774193548387097,0.129032258064516,0.32258064516129,0.290322580645161
"27",27,0.134715025906736,0.135064935064935,0.135064935064935,0.135064935064935,0,0,0,0
"28",28,0.13265306122449,0.13265306122449,0.13265306122449,0.13265306122449,0.387096774193548,0.225806451612903,0.290322580645161,0.290322580645161
"29",29,0.131979695431472,0.131979695431472,0.131979695431472,0.131979695431472,0,0.032258064516129,0,0
"30",30,0.124105011933174,0.123222748815166,0.123222748815166,0.123222748815166,0,0,0,0
"31",31,0.127764127764128,0.127450980392157,0.127450980392157,0.127450980392157,0.161290322580645,0.354838709677419,0.290322580645161,0.193548387096774
"32",32,0.131979695431472,0.146892655367232,0.151162790697674,0.152941176470588,0,0.193548387096774,0,0.032258064516129
"33",33,0.115555555555556,0.11529933481153,0.11529933481153,0.11529933481153,0.967741935483871,0.870967741935484,0.838709677419355,0.870967741935484
"34",34,0.15028901734104,0.17687074829932,0.183098591549296,0.185714285714286,0.967741935483871,0.0645161290322581,0,0
"35",35,0.136482939632546,0.136125654450262,0.136125654450262,0.136125654450262,0.290322580645161,0.193548387096774,0.225806451612903,0.129032258064516
"36",36,0.140921409214092,0.140540540540541,0.140540540540541,0.140540540540541,0.645161290322581,0.419354838709677,0.419354838709677,0.483870967741935
"37",37,0.146892655367232,0.159021406727829,0.161993769470405,0.16403785488959,0,0.0645161290322581,0.290322580645161,0.032258064516129
"38",38,0.13,0.129353233830846,0.129353233830846,0.129353233830846,0,0,0,0
"39",39,0.131645569620253,0.139784946236559,0.140921409214092,0.142465753424658,0,0,0,0
"40",40,0.143646408839779,0.143646408839779,0.143646408839779,0.143646408839779,0,0,0.032258064516129,0
"41",41,0.127764127764128,0.127450980392157,0.127450980392157,0.127450980392157,0.709677419354839,0.354838709677419,0.451612903225806,0.419354838709677
"42",42,0.131645569620253,0.16403785488959,0.172185430463576,0.179310344827586,0,0.935483870967742,0.483870967741935,0.129032258064516
"43",43,0.137931034482759,0.17687074829932,0.184397163120567,0.194756554307116,0,0.0967741935483871,0.0645161290322581,0
"44",44,0.121779859484778,0.119815668202765,0.119815668202765,0.119815668202765,0,0.032258064516129,0,0
"45",45,0.122065727699531,0.121495327102804,0.121495327102804,0.121495327102804,0.0967741935483871,0,0.032258064516129,0
"46",46,0.126520681265207,0.1256038647343,0.1256038647343,0.1256038647343,0.032258064516129,0,0,0
"47",47,0.123515439429929,0.130653266331658,0.131313131313131,0.130653266331658,0.032258064516129,0.161290322580645,0.193548387096774,0.258064516129032
"48",48,0.134020618556701,0.134020618556701,0.134020618556701,0.134020618556701,0.0967741935483871,0.032258064516129,0.032258064516129,0
"49",49,0.123809523809524,0.13265306122449,0.134020618556701,0.135416666666667,0,0,0,0
"50",50,0.120649651972158,0.12037037037037,0.12037037037037,0.12037037037037,0.483870967741935,0.483870967741935,0.161290322580645,0.290322580645161
"51",51,0.12807881773399,0.157099697885196,0.164556962025316,0.176271186440678,0,1,0.580645161290323,0.129032258064516
"52",52,0.133676092544987,0.143646408839779,0.145658263305322,0.146067415730337,0,0,0,0
"53",53,0.136125654450262,0.135416666666667,0.135416666666667,0.135416666666667,0.419354838709677,0.387096774193548,0.193548387096774,0.290322580645161
"54",54,0.118451025056948,0.118451025056948,0.118451025056948,0.118451025056948,0.193548387096774,0.0645161290322581,0.0645161290322581,0.032258064516129
"55",55,0.126520681265207,0.126520681265207,0.126520681265207,0.126520681265207,0.032258064516129,0.032258064516129,0.0645161290322581,0.032258064516129
"56",56,0.144846796657382,0.205533596837945,0.223175965665236,0.25615763546798,0,0.32258064516129,0.0967741935483871,0
"57",57,0.135064935064935,0.179310344827586,0.198473282442748,0.204724409448819,0,0.032258064516129,0,0.225806451612903
"58",58,0.132315521628499,0.130325814536341,0.130325814536341,0.130325814536341,0.032258064516129,0,0,0
"59",59,0.125,0.125,0.125,0.125,0.0645161290322581,0,0.0645161290322581,0.0645161290322581
"60",60,0.11529933481153,0.114790286975717,0.114790286975717,0.114790286975717,0,0,0,0
"61",61,0.121212121212121,0.121212121212121,0.121212121212121,0.121212121212121,0,0,0,0
"62",62,0.131645569620253,0.131645569620253,0.131645569620253,0.131645569620253,0.516129032258065,0.225806451612903,0.32258064516129,0.354838709677419
"63",63,0.13,0.128395061728395,0.128395061728395,0.128395061728395,0.451612903225806,0.548387096774194,0.419354838709677,0.32258064516129
"64",64,0.122931442080378,0.122352941176471,0.122352941176471,0.122352941176471,0.67741935483871,0.709677419354839,0.67741935483871,0.741935483870968
"65",65,0.129353233830846,0.12807881773399,0.12807881773399,0.12807881773399,0.0645161290322581,0.0967741935483871,0.129032258064516,0.0645161290322581
"66",66,0.134020618556701,0.134020618556701,0.134020618556701,0.134020618556701,0.032258064516129,0.516129032258065,0.451612903225806,0.516129032258065
"67",67,0.123515439429929,0.122352941176471,0.122352941176471,0.122352941176471,0,0,0,0
"68",68,0.130653266331658,0.129675810473815,0.129675810473815,0.129675810473815,0,0,0,0
"69",69,0.125301204819277,0.124105011933174,0.124105011933174,0.124105011933174,0.0967741935483871,0.838709677419355,0.967741935483871,0.935483870967742
"70",70,0.111827956989247,0.111111111111111,0.111111111111111,0.111111111111111,0.290322580645161,0.0645161290322581,0.0645161290322581,0.032258064516129
"71",71,0.126829268292683,0.145658263305322,0.148148148148148,0.154302670623145,0,0.0645161290322581,0.129032258064516,0
"72",72,0.127764127764128,0.127450980392157,0.127450980392157,0.127450980392157,0,0,0,0
"73",73,0.132315521628499,0.131979695431472,0.131979695431472,0.131979695431472,0,0,0,0.032258064516129
"74",74,0.126520681265207,0.12590799031477,0.12590799031477,0.12590799031477,0.193548387096774,0.290322580645161,0.129032258064516,0.258064516129032
"75",75,0.130653266331658,0.129353233830846,0.129353233830846,0.129353233830846,0.032258064516129,0.032258064516129,0,0.0645161290322581
"76",76,0.122352941176471,0.12093023255814,0.12093023255814,0.12093023255814,0.935483870967742,0.935483870967742,0.935483870967742,0.935483870967742
"77",77,0.122065727699531,0.121212121212121,0.121212121212121,0.121212121212121,0,0.935483870967742,0.870967741935484,0.838709677419355
"78",78,0.136125654450262,0.135770234986945,0.135770234986945,0.135770234986945,0.032258064516129,0.0645161290322581,0.0645161290322581,0.032258064516129
"79",79,0.118721461187215,0.118993135011442,0.118993135011442,0.118993135011442,0.0967741935483871,0.129032258064516,0.0645161290322581,0.0645161290322581
"80",80,0.130653266331658,0.140921409214092,0.142465753424658,0.145251396648045,0,0,0,0
"81",81,0.115044247787611,0.113785557986871,0.113785557986871,0.113785557986871,0.032258064516129,0.032258064516129,0.0645161290322581,0
"82",82,0.1256038647343,0.124700239808153,0.124700239808153,0.124700239808153,0,0.548387096774194,0.483870967741935,0.516129032258065
"83",83,0.11685393258427,0.11685393258427,0.11685393258427,0.11685393258427,0,0.032258064516129,0.0645161290322581,0.0967741935483871
"84",84,0.137931034482759,0.137566137566138,0.137566137566138,0.137566137566138,0,0,0,0
"85",85,0.121212121212121,0.12093023255814,0.12093023255814,0.12093023255814,0.967741935483871,0.967741935483871,0.935483870967742,0.967741935483871
"86",86,0.118451025056948,0.117647058823529,0.117647058823529,0.117647058823529,0.354838709677419,0.129032258064516,0.225806451612903,0.225806451612903
"87",87,0.126829268292683,0.135416666666667,0.137566137566138,0.139784946236559,0,0.032258064516129,0.032258064516129,0
"88",88,0.153392330383481,0.175675675675676,0.179310344827586,0.178082191780822,0.129032258064516,0.967741935483871,0.483870967741935,0.451612903225806
"89",89,0.122352941176471,0.122065727699531,0.122065727699531,0.122065727699531,0,0,0,0
"90",90,0.117381489841986,0.116591928251121,0.116591928251121,0.116591928251121,0.290322580645161,0.129032258064516,0.225806451612903,0.290322580645161
"91",91,0.121779859484778,0.121495327102804,0.121495327102804,0.121495327102804,0.0967741935483871,0,0,0.032258064516129
"92",92,0.111587982832618,0.11134903640257,0.11134903640257,0.11134903640257,0,0,0.032258064516129,0
"93",93,0.117647058823529,0.117117117117117,0.117117117117117,0.117117117117117,0.193548387096774,0.032258064516129,0.0645161290322581,0.0967741935483871
"94",94,0.136125654450262,0.133333333333333,0.133333333333333,0.133333333333333,0,0,0,0.0645161290322581
"95",95,0.122641509433962,0.122352941176471,0.122352941176471,0.122352941176471,0.580645161290323,0.709677419354839,0.612903225806452,0.548387096774194
"96",96,0.135770234986945,0.144846796657382,0.146478873239437,0.148997134670487,0.161290322580645,0,0,0.612903225806452
"97",97,0.137203166226913,0.137566137566138,0.137566137566138,0.137566137566138,0,0,0,0
"98",98,0.135416666666667,0.169381107491857,0.178082191780822,0.187725631768953,0,0.193548387096774,0.290322580645161,0
"99",99,0.110403397027601,0.109704641350211,0.109704641350211,0.109704641350211,0.548387096774194,0.451612903225806,0.612903225806452,0.580645161290323
"100",100,0.135064935064935,0.134020618556701,0.134020618556701,0.134020618556701,0,0,0,0
"101",101,0.134715025906736,0.175084175084175,0.182456140350877,0.19622641509434,0.032258064516129,0.548387096774194,0,0.129032258064516
"102",102,0.132315521628499,0.131979695431472,0.131979695431472,0.131979695431472,0.129032258064516,0.0645161290322581,0.0645161290322581,0.0645161290322581
"103",103,0.117647058823529,0.117647058823529,0.117647058823529,0.117647058823529,0.225806451612903,0.258064516129032,0.0645161290322581,0.129032258064516
"104",104,0.141304347826087,0.140921409214092,0.140921409214092,0.140921409214092,0,0,0,0
"105",105,0.140921409214092,0.150724637681159,0.152492668621701,0.154302670623145,0,0,0,0
"106",106,0.121779859484778,0.121495327102804,0.121495327102804,0.121495327102804,1,0.967741935483871,0.967741935483871,0.967741935483871
"107",107,0.132315521628499,0.131645569620253,0.131645569620253,0.131645569620253,0,0,0,0
"108",108,0.124700239808153,0.124700239808153,0.124700239808153,0.124700239808153,0.483870967741935,0.0967741935483871,0.193548387096774,0.258064516129032
"109",109,0.134366925064599,0.132315521628499,0.132315521628499,0.132315521628499,0,0.838709677419355,0.806451612903226,0.903225806451613
"110",110,0.137203166226913,0.160990712074303,0.166134185303514,0.172757475083056,0,0.129032258064516,0.032258064516129,0
"111",111,0.126520681265207,0.12621359223301,0.12621359223301,0.12621359223301,0,0,0,0.032258064516129
"112",112,0.137931034482759,0.135416666666667,0.135416666666667,0.135416666666667,0.870967741935484,0.935483870967742,1,0.903225806451613
"113",113,0.133333333333333,0.132992327365729,0.132992327365729,0.132992327365729,0,0,0,0
"114",114,0.120649651972158,0.119266055045872,0.119266055045872,0.119266055045872,0.838709677419355,0.870967741935484,0.870967741935484,0.709677419354839
"115",115,0.130653266331658,0.148997134670487,0.152492668621701,0.161993769470405,0,0.612903225806452,0.387096774193548,0
"116",116,0.137203166226913,0.136842105263158,0.136842105263158,0.136842105263158,0,0,0,0
"117",117,0.13941018766756,0.13941018766756,0.13941018766756,0.13941018766756,0.0645161290322581,0,0,0
"118",118,0.141689373297003,0.141304347826087,0.141304347826087,0.141304347826087,0.032258064516129,0,0,0
"119",119,0.163009404388715,0.216666666666667,0.236363636363636,0.240740740740741,0,0,0,0.129032258064516
"120",120,0.109014675052411,0.109014675052411,0.109014675052411,0.109014675052411,0.354838709677419,0.161290322580645,0.129032258064516,0.225806451612903
"121",121,0.142465753424658,0.221276595744681,0.253658536585366,0.261306532663317,0,0.32258064516129,0.67741935483871,0.225806451612903
"122",122,0.125,0.124105011933174,0.124105011933174,0.124105011933174,0.032258064516129,0.0645161290322581,0.129032258064516,0
"123",123,0.130653266331658,0.129675810473815,0.129675810473815,0.129675810473815,0.483870967741935,0.129032258064516,0.354838709677419,0.129032258064516
"124",124,0.124401913875598,0.124401913875598,0.124401913875598,0.124401913875598,0.548387096774194,0.32258064516129,0.290322580645161,0.290322580645161
"125",125,0.119540229885057,0.119540229885057,0.119540229885057,0.119540229885057,0,0.032258064516129,0,0
"126",126,0.149425287356322,0.14985590778098,0.14985590778098,0.14985590778098,0,0,0,0.032258064516129
"127",127,0.150724637681159,0.148997134670487,0.148997134670487,0.148997134670487,0,0,0,0
"128",128,0.127450980392157,0.126829268292683,0.126829268292683,0.126829268292683,0.032258064516129,0,0,0
"129",129,0.130982367758186,0.173333333333333,0.185714285714286,0.196969696969697,0.032258064516129,0.0967741935483871,0.225806451612903,0.032258064516129
"130",130,0.147727272727273,0.191176470588235,0.202334630350195,0.207171314741036,0,0.967741935483871,0.32258064516129,0.354838709677419
"131",131,0.134715025906736,0.152941176470588,0.156626506024096,0.1625,0.225806451612903,0.032258064516129,0,0.387096774193548
"132",132,0.157575757575758,0.169934640522876,0.172185430463576,0.175084175084175,0.032258064516129,0.258064516129032,0.0967741935483871,0.0645161290322581
"133",133,0.125301204819277,0.125,0.125,0.125,0,0,0,0
"134",134,0.140540540540541,0.140161725067385,0.140161725067385,0.140161725067385,0.032258064516129,0,0.032258064516129,0.193548387096774
"135",135,0.12590799031477,0.125301204819277,0.125301204819277,0.125301204819277,0.032258064516129,0,0,0
"136",136,0.132315521628499,0.132315521628499,0.132315521628499,0.132315521628499,0,0.032258064516129,0,0.032258064516129
"137",137,0.133676092544987,0.131313131313131,0.131313131313131,0.131313131313131,0.032258064516129,0.032258064516129,0,0
"138",138,0.116591928251121,0.115812917594655,0.115812917594655,0.115812917594655,0.032258064516129,0.0645161290322581,0.032258064516129,0
"139",139,0.134020618556701,0.191881918819188,0.215767634854772,0.233183856502242,0.258064516129032,0.290322580645161,0.354838709677419,0.0645161290322581
"140",140,0.121212121212121,0.121212121212121,0.121212121212121,0.121212121212121,0,0,0,0
"141",141,0.114035087719298,0.11353711790393,0.11353711790393,0.11353711790393,0.032258064516129,0,0,0
"142",142,0.130982367758186,0.13,0.13,0.13,0,0,0,0
"143",143,0.134020618556701,0.133676092544987,0.133676092544987,0.133676092544987,0,0,0,0
"144",144,0.118181818181818,0.117913832199546,0.117913832199546,0.117913832199546,0,0,0,0
"145",145,0.125,0.124105011933174,0.124105011933174,0.124105011933174,0,0,0,0.032258064516129
"146",146,0.117913832199546,0.117913832199546,0.117913832199546,0.117913832199546,0,0,0,0.0645161290322581
"147",147,0.107883817427386,0.107660455486542,0.107660455486542,0.107660455486542,0,0.032258064516129,0.0645161290322581,0
"148",148,0.123222748815166,0.123515439429929,0.123515439429929,0.123515439429929,0,0.032258064516129,0,0
"149",149,0.129032258064516,0.129032258064516,0.129032258064516,0.129032258064516,0,0,0,0
"150",150,0.136842105263158,0.160990712074303,0.167202572347267,0.169381107491857,0.67741935483871,0,0,0
"151",151,0.118721461187215,0.117913832199546,0.117913832199546,0.117913832199546,0,0,0.032258064516129,0
"152",152,0.136482939632546,0.136125654450262,0.136125654450262,0.136125654450262,0,0,0,0
"153",153,0.132992327365729,0.154761904761905,0.159509202453988,0.165605095541401,0.032258064516129,0,0.0645161290322581,0
"154",154,0.120649651972158,0.129032258064516,0.130653266331658,0.131313131313131,0.032258064516129,0.161290322580645,0.161290322580645,0.0967741935483871
"155",155,0.153392330383481,0.221276595744681,0.247619047619048,0.247619047619048,0,0.0645161290322581,0,0
"156",156,0.119815668202765,0.126520681265207,0.127450980392157,0.128712871287129,0.548387096774194,0.193548387096774,0.258064516129032,0
"157",157,0.137566137566138,0.137566137566138,0.137566137566138,0.137566137566138,0.032258064516129,0.032258064516129,0.0645161290322581,0
"158",158,0.114285714285714,0.114285714285714,0.114285714285714,0.114285714285714,0.032258064516129,0,0.032258064516129,0.0645161290322581
"159",159,0.135416666666667,0.135064935064935,0.135064935064935,0.135064935064935,0,0.806451612903226,0.709677419354839,0.774193548387097
"160",160,0.117647058823529,0.116071428571429,0.116071428571429,0.116071428571429,0.258064516129032,0.129032258064516,0.161290322580645,0.225806451612903
"161",161,0.124700239808153,0.124105011933174,0.124105011933174,0.124105011933174,0,0,0,0
"162",162,0.119815668202765,0.119540229885057,0.119540229885057,0.119540229885057,0.0645161290322581,0.032258064516129,0.032258064516129,0
"163",163,0.122065727699531,0.121779859484778,0.121779859484778,0.121779859484778,0,0,0,0
"164",164,0.124401913875598,0.16,0.168284789644013,0.172757475083056,0,0.258064516129032,0.419354838709677,0.225806451612903
"165",165,0.11685393258427,0.116071428571429,0.116071428571429,0.116071428571429,0.32258064516129,0.129032258064516,0.161290322580645,0.0967741935483871
"166",166,0.134715025906736,0.179930795847751,0.19047619047619,0.212244897959184,0.032258064516129,0.483870967741935,0.129032258064516,0
"167",167,0.130982367758186,0.192592592592593,0.206349206349206,0.206349206349206,0.032258064516129,0.193548387096774,0.0967741935483871,0.161290322580645
"168",168,0.134715025906736,0.145658263305322,0.148571428571429,0.150724637681159,0,0,0.903225806451613,0.709677419354839
"169",169,0.132315521628499,0.131645569620253,0.131645569620253,0.131645569620253,0,0.032258064516129,0,0.032258064516129
"170",170,0.123222748815166,0.123222748815166,0.123222748815166,0.123222748815166,0,0,0,0
"171",171,0.112554112554113,0.11231101511879,0.11231101511879,0.11231101511879,0,0,0.0645161290322581,0.032258064516129
"172",172,0.13941018766756,0.13903743315508,0.13903743315508,0.13903743315508,0,0,0.0645161290322581,0.161290322580645
"173",173,0.115044247787611,0.115044247787611,0.115044247787611,0.115044247787611,0.870967741935484,0.548387096774194,0.709677419354839,0.645161290322581
"174",174,0.134366925064599,0.133333333333333,0.133333333333333,0.133333333333333,0,0,0,0
"175",175,0.121779859484778,0.137566137566138,0.13903743315508,0.145251396648045,0.0967741935483871,0.419354838709677,0.387096774193548,0
"176",176,0.131979695431472,0.13,0.13,0.13,0,0,0,0
"177",177,0.134366925064599,0.133676092544987,0.133676092544987,0.133676092544987,0,0,0,0
"178",178,0.128395061728395,0.127139364303178,0.127139364303178,0.127139364303178,0.741935483870968,0.709677419354839,0.645161290322581,0.709677419354839
"179",179,0.130325814536341,0.13903743315508,0.140540540540541,0.143250688705234,0.161290322580645,0.0967741935483871,0.161290322580645,0
"180",180,0.116331096196868,0.115812917594655,0.115812917594655,0.115812917594655,0,0,0,0
"181",181,0.114537444933921,0.122352941176471,0.123809523809524,0.12590799031477,0.193548387096774,0.774193548387097,0.580645161290323,0.387096774193548
"182",182,0.122931442080378,0.122641509433962,0.122641509433962,0.122641509433962,0.806451612903226,0.774193548387097,0.935483870967742,0.838709677419355
"183",183,0.138297872340426,0.137931034482759,0.137931034482759,0.137931034482759,0,0,0,0
"184",184,0.13265306122449,0.13265306122449,0.13265306122449,0.13265306122449,0.67741935483871,0.709677419354839,0.774193548387097,0.741935483870968
"185",185,0.118451025056948,0.11685393258427,0.11685393258427,0.11685393258427,0,0,0,0
"186",186,0.136842105263158,0.135770234986945,0.135770234986945,0.135770234986945,0.290322580645161,0.258064516129032,0.0967741935483871,0.258064516129032
"187",187,0.108333333333333,0.108333333333333,0.108333333333333,0.108333333333333,0.290322580645161,0.161290322580645,0.0967741935483871,0.129032258064516
"188",188,0.137203166226913,0.166134185303514,0.172757475083056,0.167741935483871,0.161290322580645,0.0645161290322581,0,0.032258064516129
"189",189,0.105050505050505,0.10337972166998,0.10337972166998,0.10337972166998,0.774193548387097,0.225806451612903,0.290322580645161,0.258064516129032
"190",190,0.136125654450262,0.136482939632546,0.136482939632546,0.136482939632546,0.129032258064516,0.0645161290322581,0.129032258064516,0.0645161290322581
"191",191,0.11231101511879,0.111827956989247,0.111827956989247,0.111827956989247,0.161290322580645,0.0645161290322581,0.0967741935483871,0.0645161290322581
"192",192,0.124700239808153,0.143646408839779,0.147727272727273,0.14207650273224,0,0,0.032258064516129,0
"193",193,0.135770234986945,0.135416666666667,0.135416666666667,0.135416666666667,0.032258064516129,0,0.032258064516129,0
"194",194,0.118451025056948,0.118451025056948,0.118451025056948,0.118451025056948,0.193548387096774,0.193548387096774,0.0967741935483871,0.0645161290322581
"195",195,0.128712871287129,0.178694158075601,0.188405797101449,0.185053380782918,0,0.0967741935483871,0.193548387096774,0.32258064516129
"196",196,0.113785557986871,0.11353711790393,0.11353711790393,0.11353711790393,0,0,0.032258064516129,0
"197",197,0.132315521628499,0.14207650273224,0.143646408839779,0.143646408839779,0,0.032258064516129,0.032258064516129,0.032258064516129
"198",198,0.149425287356322,0.207171314741036,0.217573221757322,0.212244897959184,0.290322580645161,0.258064516129032,0.580645161290323,0.129032258064516
"199",199,0.135416666666667,0.135416666666667,0.135416666666667,0.135416666666667,0,0.129032258064516,0.290322580645161,0.225806451612903
"200",200,0.135770234986945,0.135416666666667,0.135416666666667,0.135416666666667,0,0,0,0
"201",201,0.138666666666667,0.13903743315508,0.13903743315508,0.13903743315508,0,0.387096774193548,0.612903225806452,0.516129032258065
"202",202,0.114790286975717,0.114285714285714,0.114285714285714,0.114285714285714,0.806451612903226,0.806451612903226,0.935483870967742,0.903225806451613
"203",203,0.134715025906736,0.133676092544987,0.133676092544987,0.133676092544987,0,0,0,0
"204",204,0.139784946236559,0.138666666666667,0.138666666666667,0.138666666666667,0.290322580645161,0.129032258064516,0.0645161290322581,0
"205",205,0.140161725067385,0.151603498542274,0.153392330383481,0.155688622754491,0.967741935483871,0.774193548387097,0.806451612903226,0.838709677419355
"206",206,0.144444444444444,0.143250688705234,0.143250688705234,0.143250688705234,0,0,0,0
"207",207,0.119540229885057,0.118993135011442,0.118993135011442,0.118993135011442,0.419354838709677,0.483870967741935,0.354838709677419,0.451612903225806
"208",208,0.127450980392157,0.147308781869688,0.150724637681159,0.157099697885196,0,0.483870967741935,0.161290322580645,0.129032258064516
"209",209,0.121212121212121,0.12093023255814,0.12093023255814,0.12093023255814,0.032258064516129,0,0.032258064516129,0.0645161290322581
"210",210,0.137566137566138,0.136482939632546,0.136482939632546,0.136482939632546,0,0,0,0
"211",211,0.147727272727273,0.206349206349206,0.224137931034483,0.251207729468599,0.032258064516129,0.67741935483871,0.774193548387097,0.225806451612903
"212",212,0.143646408839779,0.142857142857143,0.142857142857143,0.142857142857143,0.225806451612903,0.129032258064516,0.258064516129032,0.193548387096774
"213",213,0.131645569620253,0.147727272727273,0.15028901734104,0.154761904761905,0.67741935483871,0.0645161290322581,0.032258064516129,0.032258064516129
"214",214,0.1256038647343,0.124700239808153,0.124700239808153,0.124700239808153,0,0,0,0
"215",215,0.121212121212121,0.12093023255814,0.12093023255814,0.12093023255814,0,0.838709677419355,0.838709677419355,0.935483870967742
"216",216,0.141304347826087,0.140921409214092,0.140921409214092,0.140921409214092,0,0,0,0
"217",217,0.134366925064599,0.134366925064599,0.134366925064599,0.134366925064599,0.032258064516129,0,0,0
"218",218,0.128395061728395,0.127450980392157,0.127450980392157,0.127450980392157,0,0.483870967741935,0.645161290322581,0.516129032258065
"219",219,0.115555555555556,0.115044247787611,0.115044247787611,0.115044247787611,0.161290322580645,0.0645161290322581,0.032258064516129,0.0645161290322581
"220",220,0.119815668202765,0.119815668202765,0.119815668202765,0.119815668202765,0,0,0,0
"221",221,0.108108108108108,0.108333333333333,0.108333333333333,0.108333333333333,0,0,0,0
"222",222,0.124700239808153,0.123809523809524,0.123809523809524,0.123809523809524,0.548387096774194,0.161290322580645,0.193548387096774,0.129032258064516
"223",223,0.135416666666667,0.134366925064599,0.134366925064599,0.134366925064599,0,0,0,0
"224",224,0.154302670623145,0.194029850746269,0.206349206349206,0.209677419354839,0,0.612903225806452,0.193548387096774,0.032258064516129
"225",225,0.111827956989247,0.118993135011442,0.12037037037037,0.121212121212121,0,0.0645161290322581,0.0645161290322581,0.032258064516129
"226",226,0.12590799031477,0.12621359223301,0.12621359223301,0.12621359223301,0.0645161290322581,0.032258064516129,0.0967741935483871,0.0645161290322581
"227",227,0.129353233830846,0.12807881773399,0.12807881773399,0.12807881773399,0,0,0,0.032258064516129
"228",228,0.131979695431472,0.140921409214092,0.14207650273224,0.14404432132964,0.354838709677419,0.580645161290323,0.161290322580645,0.193548387096774
"229",229,0.12807881773399,0.136482939632546,0.137931034482759,0.137931034482759,0,0.032258064516129,0,0
"230",230,0.13903743315508,0.14985590778098,0.152046783625731,0.154761904761905,0,0,0,0
"231",231,0.132992327365729,0.132992327365729,0.132992327365729,0.132992327365729,0.0967741935483871,0.0645161290322581,0.0967741935483871,0
"232",232,0.126520681265207,0.12590799031477,0.12590799031477,0.12590799031477,0.032258064516129,0,0,0
"233",233,0.130325814536341,0.140921409214092,0.143250688705234,0.145658263305322,0,0.032258064516129,0.032258064516129,0
"234",234,0.144846796657382,0.144846796657382,0.144846796657382,0.144846796657382,0.32258064516129,0.290322580645161,0.32258064516129,0.387096774193548
"235",235,0.133676092544987,0.133333333333333,0.133333333333333,0.133333333333333,0,0,0,0
"236",236,0.135770234986945,0.135770234986945,0.135770234986945,0.135770234986945,0.645161290322581,0.387096774193548,0.483870967741935,0.419354838709677
"237",237,0.127139364303178,0.126520681265207,0.126520681265207,0.126520681265207,0,0,0,0
"238",238,0.118451025056948,0.118181818181818,0.118181818181818,0.118181818181818,0.032258064516129,0.032258064516129,0,0
"239",239,0.130325814536341,0.128712871287129,0.128712871287129,0.128712871287129,0,0,0,0
"240",240,0.125,0.125,0.125,0.125,0,0,0,0
"241",241,0.132315521628499,0.132315521628499,0.132315521628499,0.132315521628499,0.032258064516129,0,0.0967741935483871,0
"242",242,0.141304347826087,0.140161725067385,0.140161725067385,0.140161725067385,0,0,0,0
"243",243,0.14207650273224,0.139784946236559,0.139784946236559,0.139784946236559,0,0,0,0.032258064516129
"244",244,0.12093023255814,0.12093023255814,0.12093023255814,0.12093023255814,0.032258064516129,0.0967741935483871,0.0645161290322581,0.032258064516129
"245",245,0.12037037037037,0.12590799031477,0.126520681265207,0.126829268292683,0.354838709677419,0,0,0
"246",246,0.111587982832618,0.111587982832618,0.111587982832618,0.111587982832618,0,0,0,0
"247",247,0.130982367758186,0.130325814536341,0.130325814536341,0.130325814536341,0,0,0,0
"248",248,0.121212121212121,0.120092378752887,0.120092378752887,0.120092378752887,0,0,0,0
"249",249,0.128395061728395,0.153846153846154,0.160990712074303,0.151162790697674,0.129032258064516,0.161290322580645,0,0.0645161290322581
"250",250,0.129675810473815,0.199233716475096,0.220338983050847,0.252427184466019,0,0,0.709677419354839,0.193548387096774
"251",251,0.147308781869688,0.146067415730337,0.146067415730337,0.146067415730337,0.387096774193548,0.290322580645161,0.290322580645161,0.354838709677419
"252",252,0.111827956989247,0.111587982832618,0.111587982832618,0.111587982832618,0,0.0645161290322581,0.032258064516129,0.032258064516129
"253",253,0.13903743315508,0.160990712074303,0.165079365079365,0.171617161716172,0,0.161290322580645,0.129032258064516,0
"254",254,0.122931442080378,0.122641509433962,0.122641509433962,0.122641509433962,0,0,0,0
"255",255,0.130982367758186,0.129675810473815,0.129675810473815,0.129675810473815,0,0,0,0
"256",256,0.149425287356322,0.228070175438596,0.262626262626263,0.276595744680851,0.193548387096774,0,0,0
"257",257,0.125301204819277,0.123515439429929,0.123515439429929,0.123515439429929,0.032258064516129,0,0,0
"258",258,0.133676092544987,0.144444444444444,0.145658263305322,0.14985590778098,0.741935483870968,0.935483870967742,0.935483870967742,0.580645161290323
"259",259,0.119815668202765,0.119266055045872,0.119266055045872,0.119266055045872,0,0.032258064516129,0.032258064516129,0.032258064516129
"260",260,0.126829268292683,0.126829268292683,0.126829268292683,0.126829268292683,0.032258064516129,0,0,0
"261",261,0.140921409214092,0.192592592592593,0.211382113821138,0.222222222222222,0.645161290322581,0.161290322580645,0.161290322580645,0.032258064516129
"262",262,0.12807881773399,0.126520681265207,0.126520681265207,0.126520681265207,0.032258064516129,0.032258064516129,0,0
"263",263,0.12621359223301,0.1256038647343,0.1256038647343,0.1256038647343,0,0,0,0
"264",264,0.131645569620253,0.130982367758186,0.130982367758186,0.130982367758186,0.032258064516129,0,0.032258064516129,0
"265",265,0.134020618556701,0.13265306122449,0.13265306122449,0.13265306122449,0.032258064516129,0.032258064516129,0,0
"266",266,0.122352941176471,0.122352941176471,0.122352941176471,0.122352941176471,0,0,0,0
"267",267,0.12590799031477,0.124700239808153,0.124700239808153,0.124700239808153,0,0,0,0
"268",268,0.134715025906736,0.134715025906736,0.134715025906736,0.134715025906736,0,0,0.032258064516129,0
"269",269,0.129032258064516,0.128395061728395,0.128395061728395,0.128395061728395,0.161290322580645,0.032258064516129,0.0645161290322581,0.032258064516129
"270",270,0.136842105263158,0.136482939632546,0.136482939632546,0.136482939632546,0,0,0,0
"271",271,0.122352941176471,0.121779859484778,0.121779859484778,0.121779859484778,0.129032258064516,0.129032258064516,0.0967741935483871,0.032258064516129
"272",272,0.123809523809524,0.121779859484778,0.121779859484778,0.121779859484778,0,0.354838709677419,0.387096774193548,0.548387096774194
"273",273,0.123222748815166,0.138297872340426,0.141304347826087,0.142857142857143,0.032258064516129,0,0.645161290322581,0.548387096774194
"274",274,0.122641509433962,0.122352941176471,0.122352941176471,0.122352941176471,0.32258064516129,0.354838709677419,0.419354838709677,0.225806451612903
"275",275,0.140161725067385,0.140161725067385,0.140161725067385,0.140161725067385,0.709677419354839,0.741935483870968,0.741935483870968,0.67741935483871
"276",276,0.125,0.125301204819277,0.125301204819277,0.125301204819277,0,0,0,0
"277",277,0.136842105263158,0.136482939632546,0.136482939632546,0.136482939632546,0.870967741935484,0.870967741935484,0.935483870967742,0.935483870967742
"278",278,0.129353233830846,0.128395061728395,0.128395061728395,0.128395061728395,0,0,0,0.032258064516129
"279",279,0.125301204819277,0.124700239808153,0.124700239808153,0.124700239808153,0.032258064516129,0,0,0
"280",280,0.11685393258427,0.115555555555556,0.115555555555556,0.115555555555556,0.0645161290322581,0,0,0.032258064516129
"281",281,0.146892655367232,0.158054711246201,0.160990712074303,0.1625,0.516129032258065,0,0,0.645161290322581
"282",282,0.132315521628499,0.130653266331658,0.130653266331658,0.130653266331658,0.0645161290322581,0.032258064516129,0,0.032258064516129
"283",283,0.117913832199546,0.117381489841986,0.117381489841986,0.117381489841986,0,0,0,0
"284",284,0.130982367758186,0.130982367758186,0.130982367758186,0.130982367758186,0.774193548387097,0.387096774193548,0.451612903225806,0.580645161290323
"285",285,0.133676092544987,0.155688622754491,0.160493827160494,0.165605095541401,0,0.580645161290323,0.129032258064516,0.032258064516129
"286",286,0.125,0.125,0.125,0.125,0.419354838709677,0.193548387096774,0.290322580645161,0.129032258064516
"287",287,0.124700239808153,0.125,0.125,0.125,0.032258064516129,0,0,0.0645161290322581
"288",288,0.122352941176471,0.121779859484778,0.121779859484778,0.121779859484778,0.225806451612903,0.032258064516129,0.0967741935483871,0.032258064516129
"289",289,0.130653266331658,0.130325814536341,0.130325814536341,0.130325814536341,0,0,0,0
"290",290,0.12807881773399,0.127764127764128,0.127764127764128,0.127764127764128,0,0,0,0
"291",291,0.122641509433962,0.122931442080378,0.122931442080378,0.122931442080378,0.0967741935483871,0,0,0.0967741935483871
"292",292,0.114537444933921,0.113785557986871,0.113785557986871,0.113785557986871,0.806451612903226,0.516129032258065,0.838709677419355,0.838709677419355
"293",293,0.137203166226913,0.137203166226913,0.137203166226913,0.137203166226913,0.129032258064516,0.0967741935483871,0.129032258064516,0.193548387096774
"294",294,0.124105011933174,0.123809523809524,0.123809523809524,0.123809523809524,0.0645161290322581,0.032258064516129,0,0.032258064516129
"295",295,0.134020618556701,0.13265306122449,0.13265306122449,0.13265306122449,0.032258064516129,0.161290322580645,0.0645161290322581,0.0967741935483871
"296",296,0.12807881773399,0.12807881773399,0.12807881773399,0.12807881773399,0,0,0,0.032258064516129
"297",297,0.12807881773399,0.127139364303178,0.127139364303178,0.127139364303178,0.0645161290322581,0,0.032258064516129,0
"298",298,0.13,0.129675810473815,0.129675810473815,0.129675810473815,0,0,0,0
"299",299,0.146478873239437,0.143250688705234,0.143250688705234,0.143250688705234,0,0.935483870967742,0.967741935483871,0.903225806451613
"300",300,0.126829268292683,0.153846153846154,0.160990712074303,0.1625,0.129032258064516,0.0967741935483871,0.032258064516129,0
"301",301,0.132315521628499,0.18705035971223,0.205533596837945,0.201550387596899,0.032258064516129,0.354838709677419,0.0967741935483871,0.032258064516129
"302",302,0.134715025906736,0.134715025906736,0.134715025906736,0.134715025906736,0.580645161290323,0.387096774193548,0.354838709677419,0.419354838709677
"303",303,0.159509202453988,0.159021406727829,0.159021406727829,0.159021406727829,0,0,0,0
"304",304,0.140161725067385,0.13941018766756,0.13941018766756,0.13941018766756,0,0,0,0
"305",305,0.117913832199546,0.118181818181818,0.118181818181818,0.118181818181818,0.032258064516129,0,0,0
"306",306,0.130325814536341,0.130653266331658,0.130653266331658,0.130653266331658,0,0,0,0
"307",307,0.14207650273224,0.140540540540541,0.140540540540541,0.140540540540541,0.032258064516129,0,0,0
"308",308,0.144846796657382,0.156156156156156,0.158536585365854,0.161490683229814,0.870967741935484,0.967741935483871,0.935483870967742,0.548387096774194
"309",309,0.133333333333333,0.175084175084175,0.187725631768953,0.19047619047619,0,0.032258064516129,0,0
"310",310,0.136125654450262,0.135416666666667,0.135416666666667,0.135416666666667,0,0,0,0
"311",311,0.130653266331658,0.138666666666667,0.140161725067385,0.141689373297003,0.032258064516129,0.032258064516129,0.032258064516129,0
"312",312,0.130325814536341,0.138297872340426,0.13941018766756,0.142857142857143,0.032258064516129,0.0645161290322581,0,0
"313",313,0.128395061728395,0.192592592592593,0.222222222222222,0.228070175438596,0,0.548387096774194,0.451612903225806,0.451612903225806
"314",314,0.125301204819277,0.125301204819277,0.125301204819277,0.125301204819277,0,0,0,0
"315",315,0.131979695431472,0.131645569620253,0.131645569620253,0.131645569620253,0,0,0,0
"316",316,0.141304347826087,0.139784946236559,0.139784946236559,0.139784946236559,0,0.419354838709677,0.290322580645161,0.548387096774194
"317",317,0.122065727699531,0.122065727699531,0.122065727699531,0.122065727699531,0.290322580645161,0.387096774193548,0.290322580645161,0.193548387096774
"318",318,0.13,0.13,0.13,0.13,0.032258064516129,0.0967741935483871,0,0.0645161290322581
"319",319,0.146478873239437,0.146067415730337,0.146067415730337,0.146067415730337,0,0,0,0
"320",320,0.12621359223301,0.126520681265207,0.126520681265207,0.126520681265207,0,0,0,0
"321",321,0.163009404388715,0.193308550185874,0.202334630350195,0.207171314741036,0.225806451612903,0.516129032258065,0.354838709677419,0.258064516129032
"322",322,0.117381489841986,0.11685393258427,0.11685393258427,0.11685393258427,0.0645161290322581,0.161290322580645,0,0.032258064516129
"323",323,0.122065727699531,0.13,0.131979695431472,0.131979695431472,0,0,0,0
"324",324,0.12093023255814,0.12093023255814,0.12093023255814,0.12093023255814,0,0,0.032258064516129,0
"325",325,0.137931034482759,0.137203166226913,0.137203166226913,0.137203166226913,0,0,0,0
"326",326,0.141304347826087,0.13941018766756,0.13941018766756,0.13941018766756,0,0,0,0
"327",327,0.14985590778098,0.163522012578616,0.166666666666667,0.168284789644013,0.0645161290322581,0.548387096774194,0.193548387096774,0.193548387096774
"328",328,0.136482939632546,0.154761904761905,0.157575757575758,0.158536585365854,0,0.935483870967742,0.709677419354839,0.67741935483871
"329",329,0.129353233830846,0.128712871287129,0.128712871287129,0.128712871287129,0.032258064516129,0,0,0.032258064516129
"330",330,0.114790286975717,0.114537444933921,0.114537444933921,0.114537444933921,0.903225806451613,0.967741935483871,0.838709677419355,0.838709677419355
"331",331,0.109243697478992,0.114790286975717,0.11529933481153,0.11529933481153,0.548387096774194,0,0,0
"332",332,0.130325814536341,0.13,0.13,0.13,0,0.0645161290322581,0.0645161290322581,0.032258064516129
"333",333,0.130653266331658,0.130653266331658,0.130653266331658,0.130653266331658,0,0.0645161290322581,0,0.032258064516129
"334",334,0.127139364303178,0.126520681265207,0.126520681265207,0.126520681265207,0.0967741935483871,0,0,0.0645161290322581
"335",335,0.144444444444444,0.208,0.226086956521739,0.253658536585366,0,0.258064516129032,0.387096774193548,0.0645161290322581
"336",336,0.125301204819277,0.124700239808153,0.124700239808153,0.124700239808153,0,0,0,0
"337",337,0.141304347826087,0.140921409214092,0.140921409214092,0.140921409214092,0.548387096774194,0.516129032258065,0.709677419354839,0.774193548387097
"338",338,0.127450980392157,0.127139364303178,0.127139364303178,0.127139364303178,0,0.032258064516129,0,0
"339",339,0.140540540540541,0.13941018766756,0.13941018766756,0.13941018766756,0,0,0,0
"340",340,0.124105011933174,0.124105011933174,0.124105011933174,0.124105011933174,0.032258064516129,0.032258064516129,0,0.032258064516129
"341",341,0.12093023255814,0.12093023255814,0.12093023255814,0.12093023255814,0.0645161290322581,0.0645161290322581,0.0645161290322581,0.032258064516129
"342",342,0.131645569620253,0.141304347826087,0.143250688705234,0.146478873239437,0.935483870967742,0.967741935483871,1,0.612903225806452
"343",343,0.125301204819277,0.124401913875598,0.124401913875598,0.124401913875598,0.032258064516129,0.0645161290322581,0.032258064516129,0.0645161290322581
"344",344,0.12621359223301,0.126829268292683,0.126829268292683,0.126829268292683,0.32258064516129,0.258064516129032,0.0645161290322581,0.129032258064516
"345",345,0.114790286975717,0.114537444933921,0.114537444933921,0.114537444933921,0.225806451612903,0.0645161290322581,0.0967741935483871,0.0967741935483871
"346",346,0.125301204819277,0.125301204819277,0.125301204819277,0.125301204819277,0.0967741935483871,0.0645161290322581,0,0
"347",347,0.13265306122449,0.142465753424658,0.14404432132964,0.146478873239437,0,0,0,0
"348",348,0.130653266331658,0.129353233830846,0.129353233830846,0.129353233830846,0.258064516129032,0.161290322580645,0.0645161290322581,0.0967741935483871
"349",349,0.134715025906736,0.134020618556701,0.134020618556701,0.134020618556701,0.032258064516129,0.0645161290322581,0,0
"350",350,0.134366925064599,0.143250688705234,0.144444444444444,0.14404432132964,0.032258064516129,0.129032258064516,0,0.0645161290322581
"351",351,0.117647058823529,0.116591928251121,0.116591928251121,0.116591928251121,0.354838709677419,0.258064516129032,0.225806451612903,0.354838709677419
"352",352,0.13,0.13,0.13,0.13,0,0,0,0
"353",353,0.138666666666667,0.137203166226913,0.137203166226913,0.137203166226913,0,0,0,0
"354",354,0.137566137566138,0.172757475083056,0.183745583038869,0.194029850746269,0,0,0.032258064516129,0
"355",355,0.110874200426439,0.110874200426439,0.110874200426439,0.110874200426439,0.709677419354839,0.483870967741935,0.483870967741935,0.516129032258065
"356",356,0.131979695431472,0.131645569620253,0.131645569620253,0.131645569620253,0,0,0,0.0967741935483871
"357",357,0.136842105263158,0.146067415730337,0.148148148148148,0.15028901734104,0.0645161290322581,0.354838709677419,0.0967741935483871,0.0645161290322581
"358",358,0.131313131313131,0.131313131313131,0.131313131313131,0.131313131313131,0,0.838709677419355,0.806451612903226,0.870967741935484
"359",359,0.135416666666667,0.134366925064599,0.134366925064599,0.134366925064599,0,0,0,0
"360",360,0.142857142857143,0.166666666666667,0.172185430463576,0.178082191780822,0,0,0,0
"361",361,0.146892655367232,0.146067415730337,0.146067415730337,0.146067415730337,0,0.354838709677419,0.225806451612903,0.387096774193548
"362",362,0.127139364303178,0.126829268292683,0.126829268292683,0.126829268292683,0.0967741935483871,0,0.032258064516129,0.032258064516129
"363",363,0.11685393258427,0.116071428571429,0.116071428571429,0.116071428571429,0.645161290322581,0.580645161290323,0.580645161290323,0.580645161290323
"364",364,0.12093023255814,0.119266055045872,0.119266055045872,0.119266055045872,0,0,0,0
"365",365,0.113785557986871,0.11353711790393,0.11353711790393,0.11353711790393,0.032258064516129,0.580645161290323,0.774193548387097,0.741935483870968
"366",366,0.12807881773399,0.127764127764128,0.127764127764128,0.127764127764128,0,0,0,0
"367",367,0.131979695431472,0.130653266331658,0.130653266331658,0.130653266331658,0,0.032258064516129,0,0
"368",368,0.130325814536341,0.129353233830846,0.129353233830846,0.129353233830846,0,0,0,0
"369",369,0.107660455486542,0.106122448979592,0.106122448979592,0.106122448979592,0.0967741935483871,0.0967741935483871,0.032258064516129,0.032258064516129
"370",370,0.120649651972158,0.12037037037037,0.12037037037037,0.12037037037037,0,0,0,0
"371",371,0.136842105263158,0.135416666666667,0.135416666666667,0.135416666666667,0.032258064516129,0.032258064516129,0.032258064516129,0
"372",372,0.133676092544987,0.132992327365729,0.132992327365729,0.132992327365729,0,0.032258064516129,0,0
"373",373,0.138297872340426,0.147308781869688,0.149425287356322,0.152941176470588,0.709677419354839,0,0,0.774193548387097
"374",374,0.137931034482759,0.137203166226913,0.137203166226913,0.137203166226913,0.161290322580645,0.0645161290322581,0.0645161290322581,0.032258064516129
"375",375,0.133676092544987,0.133676092544987,0.133676092544987,0.133676092544987,0,0,0,0
"376",376,0.125301204819277,0.124401913875598,0.124401913875598,0.124401913875598,0,0,0,0
"377",377,0.12590799031477,0.125,0.125,0.125,0.161290322580645,0.032258064516129,0.0967741935483871,0.161290322580645
"378",378,0.154302670623145,0.153846153846154,0.153846153846154,0.153846153846154,0.387096774193548,0.419354838709677,0.387096774193548,0.290322580645161
"379",379,0.131979695431472,0.17687074829932,0.193308550185874,0.196969696969697,0.193548387096774,0.645161290322581,0.0967741935483871,0
"380",380,0.130982367758186,0.130982367758186,0.130982367758186,0.130982367758186,0.129032258064516,0.129032258064516,0.032258064516129,0.0645161290322581
"381",381,0.126520681265207,0.126520681265207,0.126520681265207,0.126520681265207,0.32258064516129,0.129032258064516,0.0967741935483871,0.0967741935483871
"382",382,0.123809523809524,0.123515439429929,0.123515439429929,0.123515439429929,0.032258064516129,0,0.032258064516129,0.0645161290322581
"383",383,0.124700239808153,0.123809523809524,0.123809523809524,0.123809523809524,0.903225806451613,0.806451612903226,1,0.967741935483871
"384",384,0.133676092544987,0.133676092544987,0.133676092544987,0.133676092544987,0.161290322580645,0.129032258064516,0.225806451612903,0.161290322580645
"385",385,0.103174603174603,0.103174603174603,0.103174603174603,0.103174603174603,0.0967741935483871,0.032258064516129,0.0645161290322581,0.0645161290322581
"386",386,0.153846153846154,0.196969696969697,0.208835341365462,0.225108225108225,0,0.838709677419355,0.516129032258065,0.032258064516129
"387",387,0.12590799031477,0.12621359223301,0.12621359223301,0.12621359223301,0.354838709677419,0.193548387096774,0.193548387096774,0.290322580645161
"388",388,0.131979695431472,0.131979695431472,0.131979695431472,0.131979695431472,0,0,0,0
"389",389,0.121495327102804,0.121779859484778,0.121779859484778,0.121779859484778,0.161290322580645,0.0645161290322581,0.193548387096774,0.032258064516129
"390",390,0.142465753424658,0.14207650273224,0.14207650273224,0.14207650273224,0,0,0,0
"391",391,0.126829268292683,0.126829268292683,0.126829268292683,0.126829268292683,0,0,0,0.032258064516129
"392",392,0.121212121212121,0.120649651972158,0.120649651972158,0.120649651972158,0.225806451612903,0,0.129032258064516,0.0645161290322581
"393",393,0.134366925064599,0.133676092544987,0.133676092544987,0.133676092544987,0.032258064516129,0,0,0
"394",394,0.123222748815166,0.123222748815166,0.123222748815166,0.123222748815166,0.0967741935483871,0.0645161290322581,0.032258064516129,0.129032258064516
"395",395,0.105263157894737,0.104417670682731,0.104417670682731,0.104417670682731,0.225806451612903,0.451612903225806,0.32258064516129,0.225806451612903
"396",396,0.129353233830846,0.128395061728395,0.128395061728395,0.128395061728395,0,0,0,0
"397",397,0.12807881773399,0.127764127764128,0.127764127764128,0.127764127764128,0.129032258064516,0,0.032258064516129,0.032258064516129
"398",398,0.131645569620253,0.131313131313131,0.131313131313131,0.131313131313131,0,0,0,0
"399",399,0.121779859484778,0.122065727699531,0.122065727699531,0.122065727699531,0,0.903225806451613,0.870967741935484,0.903225806451613
"400",400,0.13265306122449,0.132315521628499,0.132315521628499,0.132315521628499,0,0,0,0
"401",401,0.108333333333333,0.107883817427386,0.107883817427386,0.107883817427386,0.129032258064516,0.032258064516129,0.0645161290322581,0
"402",402,0.127139364303178,0.145658263305322,0.150724637681159,0.151603498542274,0,0.32258064516129,0.032258064516129,0
"403",403,0.14207650273224,0.141689373297003,0.141689373297003,0.141689373297003,0.838709677419355,0.870967741935484,0.870967741935484,0.709677419354839
"404",404,0.127450980392157,0.127139364303178,0.127139364303178,0.127139364303178,0,0,0,0
"405",405,0.122065727699531,0.121495327102804,0.121495327102804,0.121495327102804,0.741935483870968,0.741935483870968,0.709677419354839,0.870967741935484
"406",406,0.111827956989247,0.110169491525424,0.110169491525424,0.110169491525424,0.258064516129032,0.0967741935483871,0.258064516129032,0.0967741935483871
"407",407,0.14985590778098,0.14985590778098,0.14985590778098,0.14985590778098,0,0,0,0
"408",408,0.121779859484778,0.121779859484778,0.121779859484778,0.121779859484778,0.032258064516129,0,0,0.0645161290322581
"409",409,0.134020618556701,0.152492668621701,0.157099697885196,0.16,0.193548387096774,0,0,0.709677419354839
"410",410,0.129032258064516,0.137203166226913,0.138666666666667,0.137931034482759,0.483870967741935,0.032258064516129,0,0.032258064516129
"411",411,0.12037037037037,0.120092378752887,0.120092378752887,0.120092378752887,0,0.032258064516129,0,0
"412",412,0.141304347826087,0.154302670623145,0.157099697885196,0.158054711246201,0,0,0,0.258064516129032
"413",413,0.129353233830846,0.129032258064516,0.129032258064516,0.129032258064516,0.032258064516129,0.838709677419355,0.870967741935484,0.903225806451613
"414",414,0.124401913875598,0.124401913875598,0.124401913875598,0.124401913875598,0,0.032258064516129,0.0645161290322581,0
"415",415,0.127450980392157,0.159509202453988,0.167741935483871,0.18705035971223,0.387096774193548,0.419354838709677,0.838709677419355,0.290322580645161
"416",416,0.135770234986945,0.135064935064935,0.135064935064935,0.135064935064935,0,0,0,0
"417",417,0.135416666666667,0.135770234986945,0.135770234986945,0.135770234986945,0,0.774193548387097,0.612903225806452,0.612903225806452
"418",418,0.128395061728395,0.136482939632546,0.138297872340426,0.139784946236559,0.129032258064516,0.354838709677419,0.161290322580645,0.225806451612903
"419",419,0.117647058823529,0.116591928251121,0.116591928251121,0.116591928251121,0.354838709677419,0.161290322580645,0.032258064516129,0.0645161290322581
"420",420,0.142857142857143,0.16403785488959,0.170491803278689,0.170491803278689,0,0,0.032258064516129,0.0645161290322581
"421",421,0.138666666666667,0.146067415730337,0.148148148148148,0.148997134670487,0.0967741935483871,0.0967741935483871,0.193548387096774,0.032258064516129
"422",422,0.137931034482759,0.137566137566138,0.137566137566138,0.137566137566138,0.0645161290322581,0.129032258064516,0.161290322580645,0.258064516129032
"423",423,0.122641509433962,0.122641509433962,0.122641509433962,0.122641509433962,0.032258064516129,0.032258064516129,0.032258064516129,0.032258064516129
"424",424,0.135770234986945,0.134020618556701,0.134020618556701,0.134020618556701,0,0,0,0
"425",425,0.122352941176471,0.121779859484778,0.121779859484778,0.121779859484778,0.129032258064516,0.129032258064516,0.193548387096774,0.0645161290322581
"426",426,0.124401913875598,0.124401913875598,0.124401913875598,0.124401913875598,0.483870967741935,0.0645161290322581,0.0967741935483871,0.161290322580645
"427",427,0.13903743315508,0.13903743315508,0.13903743315508,0.13903743315508,0,0.67741935483871,0.67741935483871,0.709677419354839
"428",428,0.117117117117117,0.117117117117117,0.117117117117117,0.117117117117117,0.870967741935484,0.419354838709677,0.419354838709677,0.516129032258065
"429",429,0.117913832199546,0.117647058823529,0.117647058823529,0.117647058823529,0.32258064516129,0.290322580645161,0.0967741935483871,0.161290322580645
"430",430,0.124401913875598,0.124105011933174,0.124105011933174,0.124105011933174,0,0,0,0
"431",431,0.133676092544987,0.133333333333333,0.133333333333333,0.133333333333333,0.032258064516129,0.032258064516129,0.032258064516129,0
"432",432,0.120649651972158,0.12093023255814,0.12093023255814,0.12093023255814,0.032258064516129,0.032258064516129,0,0
"433",433,0.12621359223301,0.12621359223301,0.12621359223301,0.12621359223301,0,0,0,0
"434",434,0.128395061728395,0.126829268292683,0.126829268292683,0.126829268292683,0.129032258064516,0.032258064516129,0.129032258064516,0
"435",435,0.127764127764128,0.127764127764128,0.127764127764128,0.127764127764128,0,0,0,0
"436",436,0.134020618556701,0.142857142857143,0.144846796657382,0.146892655367232,0,0.032258064516129,0,0
"437",437,0.126520681265207,0.124700239808153,0.124700239808153,0.124700239808153,0.193548387096774,0.0967741935483871,0.129032258064516,0.129032258064516
"438",438,0.130325814536341,0.13,0.13,0.13,0,0,0,0
"439",439,0.127450980392157,0.127764127764128,0.127764127764128,0.127764127764128,0,0,0,0
"440",440,0.127139364303178,0.136482939632546,0.138666666666667,0.140921409214092,0,0,0,0
"441",441,0.150724637681159,0.14985590778098,0.14985590778098,0.14985590778098,0,0,0,0
"442",442,0.118993135011442,0.118721461187215,0.118721461187215,0.118721461187215,0,0,0.032258064516129,0
"443",443,0.140161725067385,0.139784946236559,0.139784946236559,0.139784946236559,0,0,0,0
"444",444,0.132992327365729,0.143646408839779,0.144444444444444,0.14404432132964,0,0,0,0
"445",445,0.151162790697674,0.150724637681159,0.150724637681159,0.150724637681159,0.193548387096774,0.0645161290322581,0.0967741935483871,0.258064516129032
"446",446,0.136842105263158,0.191881918819188,0.211382113821138,0.215767634854772,0.032258064516129,0.67741935483871,0.645161290322581,0.548387096774194
"447",447,0.14404432132964,0.154302670623145,0.156156156156156,0.158054711246201,0,0.161290322580645,0.0645161290322581,0.032258064516129
"448",448,0.127764127764128,0.126520681265207,0.126520681265207,0.126520681265207,0,0,0,0
"449",449,0.14985590778098,0.186379928315412,0.192592592592593,0.201550387596899,0,0.419354838709677,0.129032258064516,0.0645161290322581
"450",450,0.120092378752887,0.126829268292683,0.128395061728395,0.128395061728395,0.129032258064516,0.516129032258065,0.354838709677419,0.387096774193548
"451",451,0.147727272727273,0.147308781869688,0.147308781869688,0.147308781869688,0,0,0,0
"452",452,0.121779859484778,0.121212121212121,0.121212121212121,0.121212121212121,0,0,0,0
"453",453,0.143250688705234,0.167741935483871,0.172185430463576,0.172185430463576,0,0.032258064516129,0,0
"454",454,0.132315521628499,0.130982367758186,0.130982367758186,0.130982367758186,0.741935483870968,0.838709677419355,0.806451612903226,0.806451612903226
"455",455,0.11529933481153,0.11529933481153,0.11529933481153,0.11529933481153,0.0645161290322581,0.032258064516129,0,0.032258064516129
"456",456,0.130325814536341,0.130653266331658,0.130653266331658,0.130653266331658,0,0,0,0
"457",457,0.119266055045872,0.118993135011442,0.118993135011442,0.118993135011442,0.032258064516129,0.032258064516129,0.032258064516129,0.032258064516129
"458",458,0.132992327365729,0.132992327365729,0.132992327365729,0.132992327365729,0.806451612903226,0.935483870967742,0.967741935483871,0.806451612903226
"459",459,0.110169491525424,0.109704641350211,0.109704641350211,0.109704641350211,0.161290322580645,0.129032258064516,0.129032258064516,0.0967741935483871
"460",460,0.12807881773399,0.127450980392157,0.127450980392157,0.127450980392157,0,0,0,0
"461",461,0.132315521628499,0.131645569620253,0.131645569620253,0.131645569620253,0,0,0,0
"462",462,0.138297872340426,0.137203166226913,0.137203166226913,0.137203166226913,0,0,0,0
"463",463,0.13,0.129675810473815,0.129675810473815,0.129675810473815,0.161290322580645,0.129032258064516,0.225806451612903,0.161290322580645
"464",464,0.129675810473815,0.13,0.13,0.13,0,0,0,0
"465",465,0.112554112554113,0.111827956989247,0.111827956989247,0.111827956989247,0.225806451612903,0.129032258064516,0.129032258064516,0.161290322580645
"466",466,0.132992327365729,0.133333333333333,0.133333333333333,0.133333333333333,0,0,0,0
"467",467,0.148997134670487,0.148571428571429,0.148571428571429,0.148571428571429,0,0,0.032258064516129,0
"468",468,0.130653266331658,0.163522012578616,0.166666666666667,0.165079365079365,0,0.225806451612903,0.258064516129032,0.161290322580645
"469",469,0.122931442080378,0.122352941176471,0.122352941176471,0.122352941176471,0.032258064516129,0,0.032258064516129,0.032258064516129
"470",470,0.129675810473815,0.129675810473815,0.129675810473815,0.129675810473815,0.387096774193548,0.32258064516129,0.548387096774194,0.516129032258065
"471",471,0.114285714285714,0.114285714285714,0.114285714285714,0.114285714285714,0.419354838709677,0.0645161290322581,0.0645161290322581,0.0645161290322581
"472",472,0.125301204819277,0.135064935064935,0.135770234986945,0.13941018766756,0.225806451612903,0.258064516129032,0.483870967741935,0.161290322580645
"473",473,0.171617161716172,0.203921568627451,0.213991769547325,0.219409282700422,0.129032258064516,0.774193548387097,0.419354838709677,0.193548387096774
"474",474,0.138666666666667,0.137931034482759,0.137931034482759,0.137931034482759,0,0,0,0
"475",475,0.149425287356322,0.208,0.226086956521739,0.266666666666667,0.580645161290323,0.0967741935483871,0.258064516129032,0
"476",476,0.11134903640257,0.111587982832618,0.111587982832618,0.111587982832618,0,0.580645161290323,0.67741935483871,0.67741935483871
"477",477,0.146478873239437,0.146478873239437,0.146478873239437,0.146478873239437,0,0,0,0
"478",478,0.144846796657382,0.156156156156156,0.158536585365854,0.16,0,0.032258064516129,0,0
"479",479,0.136482939632546,0.144846796657382,0.146892655367232,0.148148148148148,0.0967741935483871,0.258064516129032,0,0
"480",480,0.122931442080378,0.131645569620253,0.132315521628499,0.135770234986945,0,0.161290322580645,0.161290322580645,0
"481",481,0.152492668621701,0.231111111111111,0.266666666666667,0.275132275132275,0,0.193548387096774,0.483870967741935,0.129032258064516
"482",482,0.142857142857143,0.163522012578616,0.169934640522876,0.171052631578947,0,0.548387096774194,0.193548387096774,0.290322580645161
"483",483,0.12807881773399,0.184397163120567,0.198473282442748,0.198473282442748,0.516129032258065,0.0967741935483871,0.258064516129032,0.129032258064516
"484",484,0.127139364303178,0.127139364303178,0.127139364303178,0.127139364303178,0.193548387096774,0.032258064516129,0.129032258064516,0.161290322580645
"485",485,0.129353233830846,0.129353233830846,0.129353233830846,0.129353233830846,0.0645161290322581,0.032258064516129,0,0
"486",486,0.109704641350211,0.109243697478992,0.109243697478992,0.109243697478992,0.032258064516129,0.645161290322581,0.67741935483871,0.67741935483871
"487",487,0.122065727699531,0.122065727699531,0.122065727699531,0.122065727699531,0,0,0,0
"488",488,0.114790286975717,0.114790286975717,0.114790286975717,0.114790286975717,0,0.032258064516129,0,0.032258064516129
"489",489,0.148997134670487,0.148571428571429,0.148571428571429,0.148571428571429,0,0,0,0
"490",490,0.135770234986945,0.134715025906736,0.134715025906736,0.134715025906736,0,0,0,0
"491",491,0.135416666666667,0.135416666666667,0.135416666666667,0.135416666666667,0,0,0,0
"492",492,0.148148148148148,0.159021406727829,0.161993769470405,0.1625,0.516129032258065,0.67741935483871,0.451612903225806,0.709677419354839
"493",493,0.115812917594655,0.116071428571429,0.116071428571429,0.116071428571429,0.387096774193548,0.387096774193548,0.225806451612903,0.258064516129032
"494",494,0.127764127764128,0.127764127764128,0.127764127764128,0.127764127764128,0.032258064516129,0,0.032258064516129,0
"495",495,0.149425287356322,0.213114754098361,0.232142857142857,0.237442922374429,0,0.161290322580645,0.548387096774194,0.161290322580645
"496",496,0.130982367758186,0.191881918819188,0.205533596837945,0.200772200772201,0.032258064516129,0.354838709677419,0.451612903225806,0.129032258064516
"497",497,0.108559498956159,0.108108108108108,0.108108108108108,0.108108108108108,0,0.225806451612903,0.129032258064516,0.290322580645161
"498",498,0.142857142857143,0.141304347826087,0.141304347826087,0.141304347826087,0.67741935483871,0.451612903225806,0.483870967741935,0.354838709677419
"499",499,0.13265306122449,0.13265306122449,0.13265306122449,0.13265306122449,0,0,0,0
"500",500,0.135770234986945,0.135770234986945,0.135770234986945,0.135770234986945,0.0967741935483871,0.0645161290322581,0.161290322580645,0.0967741935483871
