{
    "sources": [
        {
            "author": [
                {
                    "family": "Galyardt",
                    "given": "April"
                }
            ],
            "container-title": "Handbook of mixed membership models",
            "editor": [
                {
                    "family": "Airoldi",
                    "given": "Edoardo M."
                },
                {
                    "family": "Blei",
                    "given": "David"
                },
                {
                    "family": "Erosheva",
                    "given": "Elena"
                },
                {
                    "family": "Fienberg",
                    "given": "Stephen E."
                }
            ],
            "id": "Galyardt14mmm",
            "issued": {
                "date-parts": [
                    [
                        2014
                    ]
                ]
            },
            "publisher": "Chapman; Hall",
            "title": "Interpreting mixed membership models: Implications of erosheva’s representation theorem",
            "title-short": "Interpreting mixed membership models",
            "type": "chapter"
        },
        {
            "author": [
                {
                    "family": "Mislevy",
                    "given": "Robert"
                }
            ],
            "chapter-number": "8",
            "container-title": "Educational assessment",
            "editor": [
                {
                    "family": "Brennan",
                    "given": "Robert L."
                }
            ],
            "id": "Mislevy06Cog",
            "issued": {
                "date-parts": [
                    [
                        2006
                    ]
                ]
            },
            "publisher": "American Council on Education; Praeger Publishers",
            "title": "Cognitive psychology and educational assessment",
            "type": "chapter"
        }
    ],
    "project_biblios": []
}