"0"," "
"0",""
"0",""
"0",""
"0",""
"2","Warning in gzfile(file, ""wb"") :"
"2","
 "
"2"," cannot open compressed file 'C:/Users/eyada/Desktop/master/University courses/Statistical inference for data science/OutlierHandlingMethods/.Rproj.user/shared/notebooks/B66824C9-Outlier Handling (Exponential Distribution)/1/CD6BAB30B80C719B/ch93dsphw4i6h_t/f31ee6ce127541ad9e03df0b7d488736.snapshot', probable reason 'No such file or directory'
"
"2","Error in gzfile(file, ""wb"") : cannot open the connection
"
