"0","```r

finalResult <- NULL 

finalResult <- rbind(
  finalResult ,
                doCalculations(data_20_2_10 , 20,10),
                doCalculations(data_50_2_10 , 50,10),
                doCalculations(data_100_2_10 , 100,10),
                doCalculations(data_200_2_10 , 200,10),
  
                doCalculations(data_20_2_20 , 20,20),
                doCalculations(data_50_2_20 , 50,20),
                doCalculations(data_100_2_20 , 100,20),
                doCalculations(data_200_2_20 , 200,20),
     
                doCalculations(data_20_2_30 , 20,30),
                doCalculations(data_50_2_30 , 50,30),
                doCalculations(data_100_2_30 , 100,30),
                doCalculations(data_200_2_30 , 200,30)
                     )





```"
